案件序號,叫件時間,收件車手,收件區域,收件地址(不完整),收件地址(補全),送件車手,送件區域,送件地址(不完整),送件地址(修復),Unnamed: 10,契約單號,案件備註,付款方式,費率金額,手動輸入,基本運費,件數,加程,加程金額,取件加程,取件加程金額,送件加程,送件加程金額,加大,加大金額,加重,加重金額,等件,等件金額,取件等件,取件等件金額,送件等件,送等件金額,空跑,空跑金額,取件空跑,取件空跑金額,送件空跑,送件空跑金額,地誤,地誤金額,取件地誤,取件地誤金額,送件地誤,送件地誤金額,保值,保值金額,取件特殊點,取件特殊點金額,送件特殊點,送件特殊點金額,山區,山區金額,取件山區,取件山區金額,送件山區,送件山區金額,其他,其他金額,取件其他,取件其他金額,送件其他,送件其他金額,合計運費,稅額,應收金額,特殊分帳,發票,抬頭,統編,取件外務,送件外務,取件業績,送件業績,客自填,案件序號.1,回件外務,回件業績,代收款,代墊款,取件區域,送件區域.1,電子郵件,收件樓層,lng,lat
C2110140899,0:00,,松山區,台北市八德路四段245巷32弄42號5F-1,台北市八德路四段245巷32弄42號5F-1,,大安區,忠孝東路四段69-10號11樓,,,0213799815,0.9,月結,55.0,否,55.0,1.0,,0,,0,,0,,0,,0,,0,,0,,0,,0,,0,,0,,0,,0,,0,,0,,0,,0,,0,,0,,0,,0,,0,,0,55,3,0,,三聯式,錦泰豐工程有限公司,5508081.0,60,57,25.0,30.0,,C2110140899,,0,0,0,松山區,大安區,,5,121.5630331,25.0499613
C2110140891,0:00,,永和區,永和二116號4F,新北市永和路二段116號4F,,重莊特區,H07新北市五股區五權路33號,,,0213857320,0.9,月結,120.0,否,120.0,1.0,,0,,0,,0,1.0,50,1.0,50,,0,,0,,0,,0,,0,,0,,0,,0,,0,,0,,0,,0,,0,,0,,0,,0,,0,,0,220,11,0,,三聯式,SGS-SAFETY(五權33號)-Y,23928467.0,502,515,120.0,100.0,,C2110140891,,0,0,0,永和區,重莊特區,,4,121.5152491,25.011953
C2110130414,0:00,,松山區,台北市松山區民生東路三段156號17F(專線是7742+分機),台北市松山區民生東路三段156號17F(專線是7742+分機),,松山區,民生東四54號2樓,,,0213851538,3.2,月結,150.0,否,150.0,1.0,,0,,0,,0,,0,,0,,0,,0,,0,,0,,0,,0,,0,,0,,0,,0,,0,,0,,0,,0,,0,,0,,0,,0,150,8,0,,三聯式,宏大拉鍊股份有限公司,35892013.0,23,2,30.0,120.0,1.0,C2110130939,,0,0,0,內湖特區,五股區,reception@maxzip.com.tw,17,121.5477531,25.0573596
C2110130423,0:00,,松山區,台北市松山區民生東路三段156號17F(專線是7742+分機),台北市松山區民生東路三段156號17F(專線是7742+分機),,松山區,民生東四52-1號,,,0213799284,3@.6,取付,50.0,否,50.0,1.0,,0,,0,,0,,0,,0,,0,,0,,0,,0,,0,,0,,0,,0,,0,,0,,0,,0,,0,,0,,0,,0,,0,,0,50,3,53,,二聯式,,,23,510,25.0,25.0,1.0,C2110130938,,0,0,0,內湖特區,萬華區,,17,121.5477531,25.0573596
C2110130788,0:00,,松山區,民生東路五段151號(管理室取件,台北市民生東路五段151號(管理室取件,,板橋區,民生路一135,,,0213809209,0.2,預購點數,110.0,否,110.0,,,0,,0,,0,,0,,0,,0,,0,,0,,0,,0,,0,,0,,0,,0,,0,,0,,0,,0,,0,,0,,0,,0,,0,110,6,0,,三聯式,彥璟企業股份有限公司,28582338.0,502,13,80.0,30.0,1.0,C2110130785,,0,0,0,永和區,松山區,whitney@prestigevision.com.tw,None,121.5621851,25.059107
C2110141309,0:00,,大同區,台北市大同區長安西路106號10樓-5,台北市大同區長安西路106號10樓-5,,信義區,松仁100,,,0213520033,9@.22,預購點數,110.0,否,110.0,1.0,,0,,0,,0,,0,,0,,0,,0,,0,,0,,0,,0,,0,,0,,0,,0,,0,,0,,0,,0,,0,,0,,0,,0,110,6,0,,三聯式,同心圓設計有限公司,54681524.0,60,21,30.0,80.0,1.0,C2110130693,,0,0,0,松山區,板橋區,emily0317hou@gmail.com;eason0921674881@gmail.com,10,121.5185131,25.0504138
C2110130415,0:00,,松山區,台北市松山區民生東路三段156號17F(專線是7742+分機),台北市松山區民生東路三段156號17F(專線是7742+分機),,松山區,民生東三131號,,,0213859120,22.2,預購點數,110.0,否,110.0,1.0,,0,,0,,0,,0,,0,,0,,0,,0,,0,,0,,0,,0,,0,,0,,0,,0,,0,,0,,0,,0,,0,,0,,0,110,6,0,,三聯式,友愉股份有限公司,24562439.0,502,32,80.0,30.0,1.0,C2110130691,,0,0,0,中和區,松山區,olivia@tomofun.com,17,121.5477531,25.0573596
C2110141261,0:00,,信義區,台北市信義區東興路41號10樓,台北市信義區東興路41號10樓,,中和區,中山二178,,,0213808889,0.22,月結,200.0,否,200.0,,,0,,0,,0,,0,,0,,0,,0,,0,,0,,0,,0,,0,,0,,0,,0,,0,,0,,0,,0,,0,,0,,0,,0,200,10,0,526,三聯式,三采文化股份有限公司,23628454.0,727,270,30.0,170.0,1.0,C2110130688,,0,0,0,內湖特區,樹林區,nico_hsu@suncolor.com.tw,10,121.5666564,25.0480733
C2110140550,0:00,,信義區,台北市信義區東興路65號2樓,台北市信義區東興路65號2樓,,二重區,光復一82-6,,,0213851664,2.22,月結,38.5,是,134.8,1.0,,0,,0,,0,,0,,0,,0,,0,,0,,0,,0,,0,,0,,0,,0,,0,1.0,30,,0,,0,,0,,0,,0,,0,,0,165,8,0,311700,三聯式,台新國際商業銀行股份有限公司,86519539.0,31,76,105.0,60.0,1.0,C2110130684,,0,0,0,南港區,中山區,annlee@taishinbank.com.tw,2,121.5666547,25.0468659
C2110141236,0:00,,松山區,臺北市松山區光復北路11巷31-1號4樓,臺北市松山區光復北路11巷31-1號4樓,,大安區,忠孝東四69之10號,,,0213812660,3@.22,月結,55.0,否,55.0,1.0,,0,,0,,0,,0,,0,,0,,0,,0,,0,,0,,0,,0,,0,,0,,0,,0,,0,,0,,0,,0,,0,,0,,0,55,3,0,,三聯式,詠祥紡織(股)公司,12299808.0,66,505,30.0,25.0,1.0,C2110130670,,0,0,0,大同區,松山區,sunny@caroltex.com;sihyu@caroltex.com,4,121.5588121,25.0498413
C2110141324,0:00,,南港區,台北市南港區重陽路72號,台北市南港區重陽路72號,,信義區,東興51,,,0213808754,0.9,月結,55.0,否,55.0,,,0,,0,,0,,0,,0,,0,,0,,0,,0,,0,,0,,0,,0,,0,,0,,0,,0,,0,,0,,0,,0,,0,,0,55,3,0,家外媒體業務104,三聯式,東森新媒體控股股份有限公司,24328949.0,505,57,25.0,30.0,1.0,C2110130667,,0,0,0,松山區,大安區,a468714@ettoday.net,None,121.5979112,25.0556604
C2110140407,0:00,,中山區,台北市中山區南京東路三段219號10樓,台北市中山區南京東路三段219號10樓,,中山區,遼寧179,,,0213808764,0.9,月結,55.0,否,55.0,,,0,,0,,0,,0,,0,,0,,0,,0,,0,,0,,0,,0,,0,,0,,0,,0,,0,,0,,0,,0,,0,,0,,0,55,3,0,家外媒體業務104,三聯式,東森新媒體控股股份有限公司,24328949.0,505,503,25.0,30.0,1.0,C2110130665,,0,0,0,松山區,中山區,a468714@ettoday.net,10,121.5432529,25.052128
C2110141286,0:00,,中山區,台北市中山區民生東路三段2號12樓,台北市中山區民生東路三段2號12樓,,松山區,民權東三115,,,0213808758,0.9,月結,55.0,否,55.0,,,0,,0,,0,,0,,0,,0,,0,,0,,0,,0,,0,,0,,0,,0,,0,,0,,0,,0,,0,,0,,0,,0,,0,55,3,0,家外媒體業務104,三聯式,東森新媒體控股股份有限公司,24328949.0,505,503,25.0,30.0,1.0,C2110130664,,0,0,0,松山區,中山區,a468714@ettoday.net,12,121.5376791,25.0576372
C2110140852,0:00,,信義區,台北市信義區東興路41號10樓,台北市信義區東興路41號10樓,,板橋區,文化一368,,,0213851666,0.22,月結,80.0,否,80.0,,,0,,0,,0,,0,,0,,0,,0,,0,,0,,0,,0,,0,,0,,0,,0,,0,,0,,0,,0,,0,,0,,0,,0,80,4,0,,三聯式,余余飛股份有限公司,82918471.0,31,66,50.0,30.0,,C2110130663,,0,0,0,南港區,中山區,carolina@yuyu-active.com,10,121.5666564,25.0480733
C2110140410,0:00,,信義區,信義區松仁路38號1樓櫃台取件,台北市信義區松仁路38號1樓櫃台取件,,信義區,基隆一333,,,0213803726,3.22,月結,55.0,否,55.0,1.0,,0,,0,,0,,0,,0,,0,,0,,0,,0,,0,,0,,0,,0,,0,,0,,0,,0,,0,,0,,0,,0,,0,,0,55,3,0,,三聯式,宏大拉鍊股份有限公司,35892013.0,23,66,25.0,30.0,1.0,C2110130660,,0,0,0,內湖特區,大同區,reception@maxzip.com.tw,1,121.5680558,25.0382044
C2110130429,0:00,,松山區,松山區民權東路三段178號13樓,台北市松山區民權東路三段178號13樓,,信義區,基隆一200,,,0213851535,3.22,月結,55.0,否,55.0,1.0,,0,,0,,0,,0,,0,,0,,0,,0,,0,,0,,0,,0,,0,,0,,0,,0,,0,,0,,0,,0,,0,,0,,0,55,3,0,,三聯式,宏大拉鍊股份有限公司,35892013.0,23,710,25.0,30.0,1.0,C2110130658,,0,0,0,內湖特區,中山區,reception@maxzip.com.tw,13,121.5494638,25.0613757
C2110130406,0:00,,松山區,臺北市松山區民生東路三段156號3樓(12.-13.30午休),臺北市松山區民生東路三段156號3樓(12.-13.30午休),,中山區,南京西76號,,,0213705716,22.9,月結,55.0,否,55.0,1.0,,0,,0,,0,,0,,0,,0,,0,,0,,0,,0,,0,,0,,0,,0,,0,,0,,0,,0,,0,,0,,0,,0,,0,55,3,0,,三聯式,泉勝國際股份有限公司,54162305.0,23,505,25.0,30.0,,C2110130654,,0,0,0,內湖特區,松山區,peggy@sapota.com.tw;heidi@sapota.com.tw;tala@sapota.com.tw,3,121.5477531,25.0573596
C2110140562,0:00,,松山區,台北市松山區八德路二段424號1F新大樓後棟,台北市松山區八德路二段424號1F新大樓後棟,,松山區,八德三36,,,0213851536,3@.22,月結,80.0,否,80.0,1.0,,0,,0,,0,,0,,0,,0,,0,,0,,0,,0,,0,,0,,0,,0,,0,,0,,0,,0,,0,,0,,0,,0,,0,80,4,0,,三聯式,宏大拉鍊股份有限公司,35892013.0,23,270,30.0,50.0,1.0,C2110130653,,0,0,0,內湖特區,重莊特區,reception@maxzip.com.tw,1,121.5474831,25.0476829
C2110141178,0:00,,松山區,台北市松山區八德路四段760號13樓,台北市松山區八德路四段760號13樓,,內湖區,新湖一36,,,0213817679,3@.22,月結,55.0,否,55.0,1.0,,0,,0,,0,,0,,0,,0,,0,,0,,0,,0,,0,,0,,0,,0,,0,,0,,0,,0,,0,,0,,0,,0,,0,55,3,0,,三聯式,大瀚環球商務中心有限公司内湖分公司,26376570.0,23,60,25.0,30.0,1.0,C2110130651,,0,0,0,內湖特區,松山區,irischen@globaltown.com.tw,13,121.579111,25.050115
C2110141331,0:00,,大安區,台北市大安區敦化南路一段224號,台北市大安區敦化南路一段224號,,板橋區,新北市板橋區陽明街79號,,,0213206340,0.2,月結,55.0,否,55.0,,,0,,0,,0,,0,,0,,0,,0,,0,,0,,0,,0,,0,,0,,0,,0,,0,,0,,0,,0,,0,,0,,0,,0,55,3,0,,三聯式,九典聯合建築師事務所,19332296.0,710,73,25.0,30.0,,C2110130643,,0,0,0,中山區,內湖特區,chih@bioarch.com.tw,None,121.5484352,25.0410589
C2110130790,0:00,,松山區,台北市松山區民生東路三段130巷9號13樓B室,台北市松山區民生東路三段130巷9號13樓B室,,內湖區,民權東六127號,,,0213846755,9.22,月結,120.0,否,120.0,1.0,,0,,0,,0,,0,,0,,0,,0,,0,,0,,0,,0,,0,,0,,0,,0,,0,,0,,0,,0,,0,,0,,0,,0,120,6,0,311300,三聯式,台新國際商業銀行股份有限公司,86519539.0,270,71,100.0,20.0,1.0,C2110130641,,0,0,0,樹林區,大安區,annlee@taishinbank.com.tw,13,121.5464214,25.0563135
C2110140561,0:00,,松山區,台北市松山區市民大道五段99號4樓,台北市松山區市民大道五段99號4樓,,大安區,台北市大安區光復南路630號2樓,,,0213749259,2.2,月結,55.0,是,137.5,1.0,,0,,0,,0,,0,,0,,0,,0,,0,,0,,0,,0,,0,,0,,0,,0,,0,,0,,0,,0,,0,,0,1.0,10,,0,148,7,0,,三聯式,資拓宏宇國際股份有限公司,28859051.0,505,13,73.0,75.0,1.0,C2110130639,,0,0,0,松山區,中山區,annie.hsu@iisigroup.com;lynn.wu@iisigroup.com; eva.kuo@iisigroup.com,4,121.5613359,25.0477411
C2110140833,0:00,,松山區,台北市松山區八德路四段36巷42號(中正所),台北市松山區八德路四段36巷42號(中正所),,全省區,直蘭直興路一段,,,0213749673,2.2,預購點數,80.0,否,80.0,1.0,,0,,0,,0,,0,,0,,0,,0,,0,,0,,0,,0,,0,,0,,0,,0,,0,,0,,0,,0,,0,,0,,0,,0,80,4,0,,三聯式,佳敏企業有限公司,83422104.0,31,609,50.0,30.0,1.0,C2110130637,,0,0,0,南港區,中正區,acctpcarbing@gmail.com,None,121.5592499,25.0464202
C2110141267,0:00,,大同區,台北市大同區天水路34號1F,台北市大同區天水路34號1F,,重莊特區,三重區重新路五段609巷14號5F,,,0213718339,0.22,月結,300.0,是,300.0,16.0,,0,,0,,0,,0,,0,,0,,0,,0,,0,1.0,0,,0,,0,,0,,0,,0,,0,,0,,0,,0,,0,,0,,0,,0,300,15,0,,三聯式,財團法人台北市文化基金會台北電影節統籌部,72948813.0,521,521,300.0,0.0,1.0,C2110130659,,0,0,0,中正區,萬華區,admin.a@taipeiff.org.tw;peggychen@taipeiff.org.tw;yenling@taipeiff.org.tw,1,121.5127217,25.0524432
C2110130404,0:00,,松山區,臺北市松山區民生東路三段156號3樓(12.-13.30午休),臺北市松山區民生東路三段156號3樓(12.-13.30午休),,中山區,建國北二17號b1,,,0213696020,22.2,月結,150.0,否,150.0,1.0,,0,,0,,0,,0,,0,,0,,0,,0,,0,,0,,0,,0,,0,,0,,0,,0,,0,,0,,0,,0,,0,,0,,0,150,8,0,,三聯式,博英科技有限公司,52633245.0,76,889,30.0,120.0,1.0,C2110130634,,0,0,0,中山區,全省區,shmily@popin.cc;misty@popin.cc,3,121.5477531,25.0573596
C2110130402,0:00,,松山區,臺北市松山區民生東路三段156號3樓(12.-13.30午休),臺北市松山區民生東路三段156號3樓(12.-13.30午休),,大安區,和平東二50號,,,0213861250,0.2,月結,80.0,否,80.0,1.0,,0,,0,,0,,0,,0,,0,,0,,0,,0,,0,,0,,0,,0,,0,,0,,0,,0,,0,,0,,0,,0,,0,,0,80,4,0,,三聯式,勁樺娛樂有限公司,55625562.0,57,65,30.0,50.0,1.0,C2110130629,,0,0,0,大安區,內湖區,kaoyutang0305@ehalo.com.tw,3,121.5477531,25.0573596
C2110140827,0:00,,南港區,台北市南港區八德路四段778號3樓,台北市南港區八德路四段778號3樓,,大安區,忠孝東四45,,,0213845421,9.6,取付,65.0,否,65.0,1.0,,0,,0,,0,,0,,0,,0,,0,,0,,0,,0,,0,,0,,0,,0,,0,,0,,0,,0,,0,,0,,0,,0,,0,65,3,68,,三聯式,零一研創有限公司,24779182.0,66,727,25.0,30.0,,C2110130626,,0,0,0,中山區,內湖特區,yo@labb01.com,3,121.580289,25.050441
C2110141333,0:00,,松山區,台北市松山區八德路四段760號13樓,台北市松山區八德路四段760號13樓,,中正區,中正區北平西路3號2樓東三門的2樓,,,0213774339,0.2,月結,55.0,否,55.0,,,0,,0,,0,,0,,0,,0,,0,,0,,0,,0,,0,,0,,0,,0,,0,,0,,0,,0,,0,,0,,0,,0,,0,55,3,0,,三聯式,台灣英聯食品飲料股份有限公司,27553855.0,367,76,30.0,25.0,1.0,C2110130625,,0,0,0,信義區,中山區,TWO.taiwan@twiningsovo.com,13,121.579111,25.050115
C2110130410,0:00,,松山區,台北市松山區民生東路三段156號17F(專線是7742+分機),台北市松山區民生東路三段156號17F(專線是7742+分機),,中正區,愛國東216號4樓,,,0213748414,22.22,月結,120.0,否,120.0,1.0,,0,,0,,0,,0,,0,,0,,0,,0,,0,,0,,0,,0,,0,,0,,0,,0,,0,,0,,0,,0,,0,,0,,0,120,6,0,53123,三聯式,群光電能科技股份有限公司,24284436.0,501,218,50.0,70.0,,C2110130624,,0,0,0,重莊特區,中和區,isa_chou@chiconypower.com,17,121.5477531,25.0573596
C2110141176,0:00,,松山區,臺北市松山區八德路四段165號4樓,臺北市松山區八德路四段165號4樓,,內湖區,舊宗一159,,,0213762049,0.2,月結,55.0,否,55.0,,,0,,0,,0,,0,,0,,0,,0,,0,,0,,0,,0,,0,,0,,0,,0,,0,,0,,0,,0,,0,,0,,0,,0,55,3,0,,三聯式,香港商賽維特保險公證人有限公司台灣分公司,70751953.0,708,76,30.0,25.0,1.0,C2110130628,,0,0,0,中正區,中山區,victoria.lin@tw.sedgwick.com;jennifer.wu@tw.sedgwick.com,4,121.5627706,25.0488373
C2110130431,0:00,,中山區,八德路二段308號13樓,台北市八德路二段308號13樓,,松山區,台北市松山區敦化北路222巷30號2樓,,,0213758426,9.2,預購點數,110.0,否,110.0,1.0,,0,,0,,0,,0,,0,,0,,0,,0,,0,,0,,0,,0,,0,,0,,0,,0,,0,,0,,0,,0,,0,,0,,0,110,6,0,,三聯式,晟信地政士事務所,21708635.0,19,60,80.0,30.0,,C2110130623,,0,0,0,文山區,松山區,mser7000@ms58.hinet.net,13,121.5425141,25.046942
C2110141200,0:00,,中山區,台北市中山區南京東路三段219號10樓,台北市中山區南京東路三段219號10樓,,中山區,長春145,,,0213857958,2.22,月結,60.0,否,60.0,1.0,,0,,0,,0,,0,,0,,0,,0,,0,,0,,0,,0,,0,,0,,0,,0,,0,,0,,0,,0,,0,,0,,0,,0,60,3,0,385000,三聯式,台新國際商業銀行股份有限公司,86519539.0,39,71,40.0,20.0,1.0,C2110130621,,0,0,0,士林區,大安區,annlee@taishinbank.com.tw,10,121.5432529,25.052128
C2110140836,0:00,,內湖特區,港墘?,台北市港墘?號,,內湖區,台北市內湖區堤頂大道一段33號4樓,,,0213752632,0.2,月結,50.0,否,50.0,,,0,,0,,0,,0,,0,,0,,0,,0,,0,,0,,0,,0,,0,,0,,0,,0,,0,,0,,0,,0,,0,1.0,10,1.0,10,70,4,0,X,三聯式,健暘企業股份有限公司,53535828.0,57,231,35.0,35.0,1.0,C2110130617,,0,0,0,大安區,中正區,doris@brighteyes.com.tw,None,121.571611,25.075942
C2110150733,0:00,,大安區,台北市大安區敦化南路一段161巷73號1樓,台北市大安區敦化南路一段161巷73號1樓,,永和區,永貞282,,,0213862432,9.2,月結,55.0,是,137.5,1.0,,0,,0,,0,,0,,0,,0,,0,,0,,0,,0,,0,,0,,0,,0,,0,,0,,0,,0,,0,,0,,0,,0,,0,138,7,0,,三聯式,向度聯合建築師事務所,19329378.0,505,367,50.0,88.0,,C2110130618,,0,0,0,松山區,信義區,lwh.archi@gmail.com,1,121.5525705,25.0435557
C2110130421,0:00,,松山區,臺北市松山區民生東路三段156號19樓之6,臺北市松山區民生東路三段156號19樓之6,,信義區,松德171,,,0213845422,0.2,月結,110.0,否,110.0,,,0,,0,,0,,0,,0,,0,,0,,0,,0,,0,,0,,0,,0,,0,,0,,0,,0,,0,,0,,0,,0,,0,,0,110,6,0,,三聯式,米恩真司企業社,85075121.0,66,501,30.0,80.0,1.0,C2110130615,,0,0,0,中山區,板橋區,lovemeejapan@gmail.com,19,121.5477531,25.0573596
C2110130420,0:00,,松山區,臺北市松山區民生東路三段156號19樓之6,臺北市松山區民生東路三段156號19樓之6,,松山區,民生東五260,,,0213816509,22.2,月結,120.0,否,120.0,1.0,,0,,0,,0,,0,,0,,0,,0,,0,,0,,0,,0,,0,,0,,0,,0,,0,,0,,0,,0,,0,,0,,0,,0,120,6,0,,三聯式,愛卡拉互動媒體股份有限公司,53342456.0,22,506,30.0,90.0,1.0,C2110130611,,0,0,0,信義區,汐止區,daphne@livehouse.in,19,121.5477531,25.0573596
C2110141262,0:00,,大同區,台北市大同區長安西路106號10樓-5,台北市大同區長安西路106號10樓-5,,信義區,信義五16,,,0213791553,3.2-,月結,80.0,是,80.0,1.0,,0,,0,,0,,0,,0,,0,,0,,0,,0,,0,,0,,0,,0,,0,,0,,0,,0,,0,,0,,0,,0,,0,,0,80,4,0,5513,三聯式,光寶科技股份有限公司,23357403.0,270,727,50.0,30.0,1.0,C2110130609,,0,0,0,重莊特區,內湖特區,Henny.Tsai@liteon.com,10,121.5185131,25.0504138
C2110141312,0:00,,內湖特區,台北市內湖區瑞光路76巷20號3樓,台北市內湖區瑞光路76巷20號3樓,,全省區,高雄,,,0213824501,0.2,月結,100.0,否,100.0,,,0,,0,,0,,0,,0,,0,,0,,0,,0,,0,,0,,0,,0,,0,,0,,0,,0,,0,,0,,0,,0,,0,,0,100,5,0,發票,三聯式,光明分子展業有限公司,42632865.0,505,501,30.0,70.0,1.0,C2110130608,,0,0,0,松山區,板橋區,doris@brighteyes.com.tw,3,121.581062,25.0710539
C2110140655,0:00,,大安區,忠孝東路四段45號10樓,台北市忠孝東路四段45號10樓,,大同區,承德路一段1號B2 (11點開門,,,0213418855,0.2,預購點數,55.0,否,55.0,,,0,,0,,0,,0,,0,,0,,0,,0,,0,,0,,0,,0,,0,,0,,0,,0,,0,,0,,0,,0,,0,,0,,0,55,3,0,,三聯式,地天泰國際顧問有限公司,83695977.0,69,56,30.0,25.0,,C2110130607,,0,0,0,信義區,大安區,rita.chen@usa-rc.com,10,121.5448835,25.0419205
C2110141272,0:00,,中山區,台北市中山區南京東路三段219號10樓,台北市中山區南京東路三段219號10樓,,中正區,許昌17,,,0213640874,2.2,月結,55.0,否,55.0,1.0,,0,,0,,0,,0,,0,,0,,0,,0,,0,,0,,0,,0,,0,,0,,0,,0,,0,,0,,0,,0,,0,,0,1.0,10,65,3,0,家外媒體業務292,三聯式,東森新媒體控股股份有限公司,24328949.0,505,367,20.0,45.0,1.0,C2110130603,,0,0,0,松山區,信義區,a468714@ettoday.net,10,121.5432529,25.052128
C2110130792,0:00,,松山區,台北市松山區光復南路65號6樓,台北市松山區光復南路65號6樓,,中正區,許昌17號,,,0213804740,0.2,預購點數,55.0,否,55.0,,,0,,0,,0,,0,,0,,0,,0,,0,,0,,0,,0,,0,,0,,0,,0,,0,,0,,0,,0,,0,,0,,0,,0,55,3,0,,三聯式,永鉅國際室内裝修設計有限公司,28215559.0,76,19,25.0,30.0,1.0,C2110130599,,0,0,0,中山區,大安區,ping@a-id.com.tw,6,121.5579809,25.0455514
C2110141177,0:00,,中和區,中正路762號6F,新北市中正路762號6F,,內湖特區,台北市內湖區瑞光路423號10樓,,,0213712429,0.2,月結,110.0,否,110.0,,,0,,0,,0,,0,,0,,0,,0,,0,,0,,0,,0,,0,,0,,0,,0,,0,,0,,0,,0,,0,,0,,0,,0,110,6,0,,三聯式,美港聯和(股)公司,12950188.0,513,505,80.0,30.0,1.0,C2110130602,,0,0,0,板橋區,松山區,kellylin@megafacade.com.tw,6,121.4853829,24.9994101
C2110130428,0:00,,松山區,台北市松山區南京東路三段311號12樓,台北市松山區南京東路三段311號12樓,,中山區,松江131,,,0213797015,0.2,月結,80.0,否,80.0,,,0,,0,,0,,0,2.0,100,,0,,0,,0,,0,,0,,0,,0,,0,,0,,0,,0,,0,,0,,0,,0,,0,,0,1.0,10,190,10,0,多元28F,三聯式,元大人壽保險(股)公司,80329815.0,21,32,100.0,90.0,,C2110130589,,0,0,0,板橋區,松山區,connie_wang@yuanta.com,12,121.5470685,25.0520062
C2110141315,0:00,,大安區,台北市大安區敦化南路一段161巷73號1樓,台北市大安區敦化南路一段161巷73號1樓,,內湖區,金湖367,,,0213802959,0.2,月結,55.0,否,55.0,,,0,,0,,0,2.0,100,,0,,0,,0,,0,,0,,0,,0,,0,,0,,0,,0,,0,,0,,0,,0,,0,,0,,0,,0,155,8,0,,三聯式,倍安保險經紀人股份有限公司,27365312.0,503,708,70.0,85.0,,C2110130591,,0,0,0,中山區,中正區,amy.lin@polarisfg.com,1,121.5525705,25.0435557
C2110130408,0:00,,松山區,台北市松山區民生東路三段156號17F(專線是7742+分機),台北市松山區民生東路三段156號17F(專線是7742+分機),,中山區,建國北二17號B1樓,,,0213813408,0.2,月結,55.0,否,55.0,,,0,,0,,0,,0,,0,,0,,0,,0,,0,,0,,0,,0,,0,,0,,0,,0,,0,,0,,0,,0,,0,,0,,0,55,3,0,,三聯式,台大保險經紀人股份有限公司,28966778.0,710,73,25.0,30.0,1.0,C2110130580,,0,0,0,大同區,內湖特區,gap@tai-one.com,17,121.5477531,25.0573596
C2110140405,0:00,,松山區,台北市松山區民生東路三段156號11樓,台北市松山區民生東路三段156號11樓,,大安區,敦南二97,,,0213740946,0.2,月結,55.0,否,55.0,,,0,,0,,0,,0,,0,,0,,0,,0,,0,,0,,0,,0,,0,,0,,0,,0,,0,,0,,0,,0,,0,,0,,0,55,3,0,,三聯式,磐石保險經紀人股份有限公司,80205080.0,710,73,25.0,30.0,,C2110130579,,0,0,0,大同區,內湖特區,ae00202@mail.rockgp.com,11,121.5477531,25.0573596
C2110141235,0:00,,信義區,台北市信義區松高路11號,台北市信義區松高路11號,,信義區,東興43,,,0213861347,9.2,月結,150.0,否,150.0,1.0,,0,,0,,0,,0,,0,,0,,0,,0,,0,,0,,0,,0,,0,,0,,0,,0,,0,,0,,0,,0,,0,,0,,0,150,8,0,TPKE,三聯式,遠揚營造工程股份有限公司,5117325.0,506,513,50.0,80.0,1.0,C2110130593,99.0,20,0,0,南港區,板橋區,lunlun@mail.fegc.com.tw,None,121.5657033,25.0395139
C2110141313,0:00,,南港區,台北市南港區重陽路72號,台北市南港區重陽路72號,,信義區,松仁89,,,0213861349,2.6,送付,90.0,否,90.0,1.0,,0,,0,,0,,0,,0,,0,,0,,0,,0,,0,,0,,0,,0,,0,,0,,0,,0,,0,,0,,0,,0,,0,,0,130,7,137,,三聯式,,42304119.0,506,76,50.0,30.0,,C2110130576,,0,0,0,南港區,中山區,reelmed53105735@gmail.com,None,121.5979112,25.0556604
C2110140409,0:00,,南港區,台北市南港區重陽路72號,台北市南港區重陽路72號,,信義區,信義四6,,,0213795649,9.2,月結,150.0,否,150.0,1.0,,0,,0,,0,,0,,0,,0,,0,,0,,0,,0,,0,,0,,0,,0,,0,,0,,0,,0,,0,,0,,0,,0,,0,150,8,0,,三聯式,台北派兒有限公司,52544665.0,66,205,30.0,120.0,,C2110130571,,0,0,0,大同區,北投區,tony@partipost.com,None,121.5979112,25.0556604
C2110141246,0:00,,內湖特區,台北市內湖區港墘路221巷41號3樓,台北市內湖區港墘路221巷41號3樓,,中山區,中山北一105,,,0213862637,9.22,預購點數,55.0,否,55.0,1.0,,0,,0,,0,,0,,0,,0,,0,,0,,0,,0,,0,,0,,0,,0,,0,,0,,0,,0,,0,,0,,0,,0,,0,55,3,0,,三聯式,台北長安扶輪社,99331523.0,76,66,25.0,30.0,,C2110130570,,0,0,0,中山區,中山區,rotary.changan@gmail.com,3,121.5752183,25.0732355
C2110130789,0:00,,松山區,台北市松山區光復南路35號5F,台北市松山區光復南路35號5F,,松山區,三民107巷7號,,,0213813029,22.22,月結,50.0,否,50.0,1.0,,0,,0,,0,,0,,0,,0,,0,,0,,0,,0,,0,,0,,0,,0,,0,,0,1.0,30,,0,,0,,0,,0,,0,,0,80,4,0,295,三聯式,寒舍餐旅管理顧問股份有限公司,70471881.0,69,69,25.0,55.0,1.0,C2110130567,,0,0,0,信義區,信義區,alin.wang@mhh-group.com;peter.chen@lemeridien-taipei.com,5,121.5581484,25.0464849
C2110141179,0:00,,信義區,台北市信義區東興路65號2樓,台北市信義區東興路65號2樓,,南港區,南港二97,,,0213805626,0.22,月結,55.0,否,55.0,,,0,,0,,0,,0,,0,,0,,0,,0,,0,,0,,0,,0,,0,,0,,0,,0,,0,,0,,0,,0,,0,,0,1.0,10,65,3,0,,三聯式,大瀚國際開發股份有限公司忠孝分公司,53558862.0,71,710,25.0,40.0,1.0,C2110130566,,0,0,0,大安區,中山區,secretaryt03@globaltown.com.tw,2,121.5666547,25.0468659
C2110130791,0:00,,松山區,台北市松山區光復南路65號6樓,台北市松山區光復南路65號6樓,,松山區,民生東三156,,,0213761110,3@.2,月結,80.0,否,80.0,1.0,,0,,0,,0,,0,,0,,0,,0,,0,,0,,0,,0,,0,,0,,0,,0,,0,,0,,0,,0,,0,,0,,0,,0,80,4,0,717,三聯式,元大商業銀行股份有限公司,86517315.0,218,270,40.0,40.0,,C2110130592,,0,0,0,中和區,新莊區,chyang@yuanta.com,6,121.5579809,25.0455514
C2110141283,0:00,,內湖特區,台北市(內湖區)內湖路一段120巷17號2樓,台北市(內湖區)內湖路一段120巷17號2樓,,松山區,八德四45,,,0213768327,2.22,月結,45.0,是,45.0,1.0,,0,,0,,0,,0,,0,,0,,0,,0,,0,,0,,0,,0,,0,,0,,0,,0,,0,,0,,0,,0,,0,,0,,0,45,2,0,3B1100,三聯式,台新國際商業銀行股份有限公司,86519539.0,32,71,25.0,20.0,1.0,C2110130564,,0,0,0,松山區,大安區,annlee@taishinbank.com.tw,2,121.562486,25.082118
C2110140678,0:00,,大安區,台北市大安區敦化南路二段180號11樓,台北市大安區敦化南路二段180號11樓,,松山區,民權東三53,,,0213860683,2.6,取付,120.0,否,120.0,1.0,,0,,0,,0,,0,,0,,0,,0,,0,,0,,0,,0,,0,,0,,0,,0,,0,,0,,0,,0,,0,,0,,0,,0,120,6,126,,三聯式,利多萊商務中心有限公司,54174787.0,71,19,30.0,80.0,,C2110130561,,0,0,0,大安區,文山區,a277111.duolai@msa.hinet.net,11,121.5481987,25.0235941
C2110140668,0:00,,大同區,承德路一段1號B2 (11點開門,台北市承德路一段1號B2 (11點開門,,大安區,忠孝東路四段45號10樓,,,0213752709,0.22,月結,80.0,否,80.0,,,0,,0,,0,,0,,0,,0,,0,,0,,0,,0,,0,,0,,0,,0,,0,,0,,0,,0,,0,,0,,0,,0,,0,80,4,0,,三聯式,余余飛股份有限公司,82918471.0,506,506,40.0,40.0,,C2110130553,,0,0,0,南港區,南港區,carolina@yuyu-active.com,None,121.5171959,25.0492576
C2110130403,0:00,,松山區,臺北市松山區民生東路三段156號3樓(12.-13.30午休),臺北市松山區民生東路三段156號3樓(12.-13.30午休),,大同區,承德路三10號,,,0213812964,22.22,月結,55.0,否,55.0,1.0,,0,,0,,0,,0,,0,,0,,0,,0,,0,,0,,0,,0,,0,,0,,0,,0,,0,,0,,0,,0,,0,,0,1.0,10,65,3,0,,三聯式,中華民國紡織業拓展會-市場開發處,4132290.0,722,13,30.0,35.0,1.0,C2110130548,,0,0,0,中正區,中山區,ya_ling@textiles.org.tw,3,121.5477531,25.0573596
C2110141273,0:00,,板橋區,新北市板橋區陽明街102號,新北市板橋區陽明街102號,,大安區,台北市大安區敦化南路一段224號,,,0213767416,2.6,取付,120.0,否,120.0,1.0,,0,,0,,0,,0,,0,,0,,0,,0,,0,,0,,0,,0,,0,,0,,0,,0,,0,,0,,0,,0,,0,,0,,0,120,6,126,,三聯式,,12142807.0,19,32,80.0,30.0,1.0,C2110130545,,0,0,0,新店區,松山區,jason5611@hsc.com.tw,None,121.4641068,25.023281
C2110141233,0:00,,中正區,台北市中正區愛國東路22號5樓-市場開發處,台北市中正區愛國東路22號5樓-市場開發處,,松山區,民權東三2,,,0213795436,2.22,月結,45.0,否,45.0,1.0,,0,,0,,0,,0,,0,,0,,0,,0,,0,,0,,0,,0,,0,,0,,0,,0,,0,,0,,0,,0,,0,,0,1.0,10,55,3,0,471200,三聯式,台新國際商業銀行股份有限公司,86519539.0,71,60,20.0,35.0,1.0,C2110130541,,0,0,0,大安區,松山區,annlee@taishinbank.com.tw,5,121.517717,25.034147
C2110141332,0:00,,信義區,台北市信義區東興路41號10樓,台北市信義區東興路41號10樓,,中和區,大勇79,,,0213859116,3@.22,月結,110.0,否,110.0,1.0,,0,,0,,0,,0,,0,,0,,0,,0,,0,,0,,0,,0,,0,,0,,0,,0,,0,,0,,0,,0,,0,,0,,0,110,6,0,,三聯式,(社團法人中華民)曦望美工,21714138.0,502,722,80.0,30.0,1.0,C2110130542,,0,0,0,中和區,中正區,hope23093138@gmail.com,10,121.5666564,25.0480733
C2110140653,0:00,,中正區,中正區寶慶路32號8樓(11點開門,台北市中正區寶慶路32號8樓(11點開門,,天母區,大葉高島屋,,,0213742443,22.22,月結,55.0,否,55.0,1.0,,0,,0,,0,,0,,0,,0,,0,,0,,0,,0,,0,,0,,0,,0,,0,,0,,0,,0,,0,,0,,0,,0,,0,55,3,0,,三聯式,艾恩尼森商行,31948579.0,71,505,25.0,30.0,1.0,C2110130535,,0,0,0,大安區,松山區,debrand.taco@gmail.com;sean1130ion@gmail.com,8,121.5092759,25.0416451
C2110141326,0:00,,大安區,台北市大安區敦化南路二段180號11樓,台北市大安區敦化南路二段180號11樓,,中正區,重慶南一66,,,0213812453,3@.22,月結,80.0,否,80.0,1.0,,0,,0,,0,,0,,0,,0,,0,,0,,0,,0,,0,,0,,0,,0,,0,,0,,0,,0,,0,,0,,0,,0,,0,80,4,0,業務部6214,三聯式,東森新媒體控股股份有限公司,24328949.0,31,22,50.0,30.0,1.0,C2110130532,,0,0,0,南港區,信義區,a468714@ettoday.net,11,121.5481987,25.0235941
C2110130418,0:00,,松山區,台北市松山區民生東路三段156號11樓,台北市松山區民生東路三段156號11樓,,大安區,敦南二97號,,,0213816669,0.2,月結,55.0,否,55.0,,,0,,0,,0,,0,,0,,0,,0,,0,,0,,0,,0,,0,,0,,0,,0,,0,,0,,0,,0,,0,,0,,0,,0,55,3,0,,三聯式,意妍堂製作股份有限公司,89602933.0,60,727,25.0,30.0,1.0,C2110130533,,0,0,0,松山區,內湖特區,annie.hsu@ezenhall.com;noor.annie@gmail.com,11,121.5477531,25.0573596
C2110141204,0:00,,信義區,台北市信義區東興路41號10樓,台北市信義區東興路41號10樓,,中和區,自強62,,,0213823888,0.22,月結,55.0,否,55.0,,,0,,0,,0,,0,,0,,0,,0,,0,,0,,0,,0,,0,,0,,0,,0,,0,,0,,0,,0,,0,,0,,0,,0,55,3,0,家外媒體業務112,三聯式,東森新媒體控股股份有限公司,24328949.0,505,57,25.0,30.0,1.0,C2110130528,,0,0,0,松山區,大安區,a468714@ettoday.net,10,121.5666564,25.0480733
C2110190820,0:00,,萬華區,台北市萬華區成都路10號,台北市萬華區成都路10號,,萬華區,台北市萬華區廣州街135號1樓,,,0213811858,0.22,月結,55.0,否,55.0,,,0,,0,,0,,0,,0,,0,,0,,0,,0,,0,,0,,0,,0,,0,,0,,0,,0,,0,,0,,0,,0,,0,,0,55,3,0,,三聯式,香港商賽維特保險公證人有限公司台灣分公司,70751953.0,76,57,25.0,30.0,1.0,C2110130527,,0,0,0,中山區,大安區,victoria.lin@tw.sedgwick.com;jennifer.wu@tw.sedgwick.com,None,121.5072876,25.04214
C2110140843,0:00,,大同區,台北市大同區長安西路106號10樓-5,台北市大同區長安西路106號10樓-5,,中山區,中山北一27,,,0213823887,0.2,月結,55.0,否,55.0,,,0,,0,,0,,0,,0,,0,,0,,0,,0,,0,,0,,0,,0,,0,,0,,0,,0,,0,,0,,0,,0,,0,,0,55,3,0,家外媒體業務112,三聯式,東森新媒體控股股份有限公司,24328949.0,505,727,25.0,30.0,1.0,C2110130526,,0,0,0,松山區,內湖特區,a468714@ettoday.net,10,121.5185131,25.0504138
C2110130424,0:00,,松山區,台北市松山區民生東路三段156號17F(專線是7742+分機),台北市松山區民生東路三段156號17F(專線是7742+分機),,松山區,敦化北236號,,,0213845513,3@.2,月結,55.0,否,110.0,1.0,,0,,0,,0,,0,,0,,0,,0,,0,,0,,0,,0,,0,,0,,0,,0,,0,,0,,0,,0,,0,,0,,0,,0,110,6,0,49864,三聯式,元大證券股份有限公司,97160609.0,503,76,50.0,60.0,1.0,C2110130525,,0,0,0,中山區,中山區,gjp071@yuanta.com,17,121.5477531,25.0573596
C2110140829,0:00,,南港區,台北市南港區重陽路72號,台北市南港區重陽路72號,,中山區,建國北路二65,,,0213430375,22.2,月結,55.0,否,55.0,1.0,,0,,0,,0,,0,,0,,0,,0,,0,,0,,0,,0,,0,,0,,0,,0,,0,,0,,0,,0,,0,,0,,0,,0,55,3,0,,三聯式,向度聯合建築師事務所,19329378.0,56,505,25.0,30.0,,C2110130524,,0,0,0,大安區,松山區,lwh.archi@gmail.com,None,121.5979112,25.0556604
C2110141282,0:00,,大安區,台北市大安區復興南路二段82號8F-2,台北市大安區復興南路二段82號8F-2,,板橋區,重慶157,,,0213653831,3@.2,月結,100.0,否,100.0,1.0,,0,,0,,0,,0,,0,,0,,0,,0,,0,,0,,0,,0,,0,,0,,0,,0,,0,,0,,0,,0,,0,,0,,0,100,5,0,6046,三聯式,光寶科技股份有限公司,23357403.0,727,515,30.0,70.0,1.0,C2110130517,,0,0,0,內湖特區,三重區,js.lee@liteon.com,8,121.5433079,25.0309505
C2110130430,0:00,,松山區,松山區民權東路三段178號13樓,台北市松山區民權東路三段178號13樓,,大安區,敦南二218,,,0213808784,0.22,月結,55.0,否,55.0,,,0,,0,,0,,0,,0,,0,,0,,0,,0,,0,,0,,0,,0,,0,,0,,0,,0,,0,,0,,0,,0,,0,,0,55,3,0,家外媒體業務119,三聯式,東森新媒體控股股份有限公司,24328949.0,505,367,20.0,35.0,1.0,C2110130520,,0,0,0,松山區,信義區,a468714@ettoday.net,13,121.5494638,25.0613757
C2110130405,0:00,,松山區,臺北市松山區民生東路三段156號3樓(12.-13.30午休),臺北市松山區民生東路三段156號3樓(12.-13.30午休),,大安區,仁愛四169號9樓,,,0213206336,0.22,月結,110.0,否,110.0,,,0,,0,,0,,0,,0,,0,,0,,0,,0,,0,,0,,0,,0,,0,,0,,0,,0,,0,,0,,0,,0,,0,,0,110,6,0,,三聯式,九典聯合建築師事務所,19332296.0,710,19,30.0,80.0,,C2110130523,,0,0,0,中山區,文山區,chih@bioarch.com.tw,3,121.5477531,25.0573596
C2110141328,0:00,,中山區,台北市中山區南京東路三段219號10樓,台北市中山區南京東路三段219號10樓,,中正區,忠孝西一6,,,0213743245,22.22,月結,55.0,否,55.0,1.0,,0,,0,,0,,0,,0,,0,,0,,0,,0,,0,,0,,0,,0,,0,,0,,0,1.0,30,,0,,0,,0,,0,,0,,0,85,4,0,,三聯式,香港商國際奧思禮有限公司台灣分公司,84896327.0,32,609,20.0,65.0,1.0,C2110130512,,0,0,0,松山區,中正區,leyna.yen@aspirelifestyles.com,10,121.5432529,25.052128
C2110130427,0:00,,松山區,台北市松山區南京東路三段311號12樓,台北市松山區南京東路三段311號12樓,,松山區,八德三20,,,0213851663,3@.22,月結,100.0,否,100.0,1.0,,0,,0,,0,1.0,50,,0,,0,,0,,0,,0,,0,,0,,0,,0,,0,,0,,0,,0,,0,,0,,0,,0,,0,,0,150,8,0,,三聯式,嘉威聯合會計師事務所,1020314.0,31,515,75.0,75.0,1.0,C2110130513,,0,0,0,南港區,重莊特區,alice@jwcpas.com.tw;pd7180305@jwcpas.com.tw,12,121.5470685,25.0520062
C2110141281,0:00,,信義區,信義區松高路11號B1樓,台北市信義區松高路11號B1樓,,汐止區,大同二253,,,0213697264,22.22,月結,50.0,否,50.0,1.0,,0,,0,,0,,0,,0,,0,,0,,0,,0,,0,,0,,0,,0,,0,,0,,0,,0,,0,,0,,0,,0,,0,,0,50,3,0,,三聯式,財團法人台北市文化基金會-影委會,975044.0,56,60,25.0,25.0,1.0,C2110130509,,0,0,0,大安區,松山區,shine@taipeifilmcommission.org,None,121.5658456,25.0395856
C2110140675,0:00,,松山區,台北市松山區八德路二段424號1F新大樓後棟,台北市松山區八德路二段424號1F新大樓後棟,,松山區,南東五66,,,0213206337,0.22,預購點數,80.0,否,80.0,,,0,,0,,0,,0,,0,,0,,0,,0,,0,,0,,0,,0,,0,,0,,0,,0,,0,,0,,0,,0,,0,,0,,0,80,4,0,,三聯式,晶準企業有限公司,54312108.0,710,506,30.0,50.0,,C2110130519,,0,0,0,中山區,南港區,jjsales57@jingjung.com.tw,1,121.5474831,25.0476829
C2110141240,0:00,,大安區,台北市大安區敦化南路二段267號5樓,台北市大安區敦化南路二段267號5樓,,板橋區,遠東1,,,0213808785,0.22,月結,55.0,否,55.0,,,0,,0,,0,,0,,0,,0,,0,,0,,0,,0,,0,,0,,0,,0,,0,,0,1.0,30,,0,,0,,0,,0,,0,,0,85,4,0,家外媒體業務119,三聯式,東森新媒體控股股份有限公司,24328949.0,505,66,20.0,65.0,1.0,C2110130511,,0,0,0,松山區,大同區,a468714@ettoday.net,5,121.5491423,25.0252498
C2110140556,0:00,,信義區,台北市信義區東興路41號10樓,台北市信義區東興路41號10樓,,大同區,市民大道一209,,,0213808808,0.22,月結,55.0,否,55.0,,,0,,0,,0,,0,,0,,0,,0,,0,,0,,0,,0,,0,,0,,0,,0,,0,,0,,0,,0,,0,,0,,0,,0,55,3,0,家外媒體業務119,三聯式,東森新媒體控股股份有限公司,24328949.0,505,32,25.0,30.0,1.0,C2110130506,,0,0,0,松山區,松山區,a468714@ettoday.net,10,121.5666564,25.0480733
C2110141253,0:00,,信義區,台北市信義區東興路41號10樓,台北市信義區東興路41號10樓,,信義區,忠孝東五37,,,0213761728,22.5,月結,50.0,否,250.0,1.0,,0,,0,,0,,0,,0,,0,,0,,0,,0,,0,,0,,0,,0,,0,,0,,0,,0,,0,,0,,0,,0,,0,,0,250,13,0,,三聯式,德久法律事務所,80911959.0,736,736,125.0,125.0,,C2110130505,,0,0,0,中正區,中正區,weisers.law@me.com,10,121.5666564,25.0480733
C2110140855,0:00,,大同區,台北市大同區南京西路18巷10號2樓,台北市大同區南京西路18巷10號2樓,,中山區,民權東三153,,,0213862211,22.2,月結,55.0,否,55.0,1.0,,0,,0,,0,,0,,0,,0,,0,,0,,0,,0,,0,,0,,0,,0,,0,,0,,0,,0,,0,,0,,0,,0,,0,55,3,0,,三聯式,新加坡商康安特股份有限公司,53009590.0,22,56,25.0,30.0,1.0,C2110130504,,0,0,0,大安區,大安區,mmeng@clinactis.com;kpng@clinactis.com,2,121.5201507,25.0515363
C2110130413,0:00,,松山區,台北市松山區民生東路三段156號17F(專線是7742+分機),台北市松山區民生東路三段156號17F(專線是7742+分機),,南港區,經貿二168號9樓A棟,,,0213768326,9@.2    (503叫件,月結,55.0,否,55.0,1.0,,0,,0,,0,,0,,0,,0,,0,,0,,0,,0,,0,,0,,0,,0,,0,,0,,0,,0,,0,,0,,0,1.0,10,,0,65,3,0,49879,三聯式,元大證券股份有限公司,97160609.0,32,503,35.0,30.0,1.0,C2110130502,,0,0,0,松山區,中山區,gjp071@yuanta.com,17,121.5477531,25.0573596
C2110140837,0:00,,中山區,台北市中山區南京東路三段219號10樓,台北市中山區南京東路三段219號10樓,,中山區,建國北二15,,,0213821066,0.6,取付,65.0,否,65.0,,,0,,0,,0,,0,,0,,0,,0,,0,,0,,0,,0,,0,,0,,0,,0,,0,,0,,0,,0,,0,,0,,0,,0,65,3,68,,三聯式,,16083364.0,32,76,25.0,30.0,1.0,C2110130495,,0,0,0,松山區,中山區,finance@tw.imshealth.com,10,121.5432529,25.052128
C2110130679,0:00,,內湖特區,台北市內湖區瑞光路423號3樓,台北市內湖區瑞光路423號3樓,,重莊特區,新莊區五權路28號,,,0213862428,3@.22,預購點數,55.0,否,55.0,1.0,,0,,0,,0,,0,,0,,0,,0,,0,,0,,0,,0,,0,,0,,0,,0,,0,,0,,0,,0,,0,,0,,0,,0,55,3,0,,三聯式,瑪爾克電影有限公司,29098734.0,505,56,25.0,30.0,,C2110130491,,0,0,0,松山區,大安區,dog111222333@gmail.com,3,121.5711559,25.0782999
C2110141319,0:00,,松山區,臺北市松山區光復北路11巷31-1號4樓,臺北市松山區光復北路11巷31-1號4樓,,信義區,忠孝東五68號,,,0213729499,22.22,月結,90.0,否,90.0,1.0,,0,,0,,0,,0,,0,,0,,0,,0,,0,,0,,0,,0,,0,,0,,0,,0,,0,,0,,0,,0,,0,,0,,0,90,5,0,,三聯式,財團法人台北市文化基金會藝術村營運部-國藝村,48956432.0,708,19,20.0,70.0,1.0,C2110130483,,0,0,0,中正區,文山區,sally@artistvillage.org,4,121.5588121,25.0498413
C2110130411,0:00,,松山區,台北市松山區民生東路三段156號17F(專線是7742+分機),台北市松山區民生東路三段156號17F(專線是7742+分機),,中山區,建國北二17號B1,,,0213803881,22.22,月結,55.0,否,55.0,1.0,,0,,0,,0,,0,,0,,0,,0,,0,,0,,0,,0,,0,,0,,0,,0,,0,,0,,0,,0,,0,,0,,0,,0,55,3,0,不搖就滾,三聯式,就是現場股份有限公司,42653360.0,71,367,20.0,35.0,1.0,C2110130481,,0,0,0,大安區,信義區,annieshih@justlive.com.tw,17,121.5477531,25.0573596
C2110140838,0:00,,內湖特區,台北市內湖區瑞光路76巷20號3樓,台北市內湖區瑞光路76巷20號3樓,,全省區,新竹,,,0213774567,2.9,預購點數,50.0,是,50.0,1.0,,0,,0,,0,,0,,0,,0,,0,,0,,0,1.0,0,,0,,0,,0,,0,,0,,0,,0,,0,,0,,0,,0,1.0,10,,0,60,3,0,,三聯式,很鬧工作室,72924066.0,731,99,60.0,0.0,,C2110130482,,0,0,0,內湖區,大安區,annasui750730@hotmail.com,3,121.581062,25.0710539
C2110140416,0:00,,松山區,台北市松山區八德路二段424號1F新大樓後棟,台北市松山區八德路二段424號1F新大樓後棟,,中山區,南東二188,,,0213705332,2.22,月結,96.0,是,240.0,1.0,,0,,0,,0,,0,,0,,0,,0,,0,,0,,0,,0,,0,,0,,0,,0,,0,,0,,0,,0,,0,,0,,0,,0,240,12,0,381300,三聯式,台新國際商業銀行股份有限公司,86519539.0,251,251,240.0,0.0,1.0,C2110130478,,0,0,0,三重區,三重區,annlee@taishinbank.com.tw,1,121.5474831,25.0476829
C2110140664,0:00,,松山區,台北市松山區市民大道五段99號4樓,台北市松山區市民大道五段99號4樓,,萬華區,台北市萬華區成都路10號,,,0213157228,2.22,預購點數,55.0,否,55.0,1.0,,0,,0,,0,,0,,0,,0,,0,,0,,0,,0,,0,,0,,0,,0,,0,,0,,0,,0,,0,,0,,0,,0,,0,55,3,0,,三聯式,華南商業銀行股份有限公司,3742301.0,29,609,25.0,30.0,1.0,C2110130472,,0,0,0,信義區,中正區,gracelee@hncb.com.tw,4,121.5613359,25.0477411
C2110140856,0:00,,大安區,台北市大安區敦化南路一段161巷73號1樓,台北市大安區敦化南路一段161巷73號1樓,,松山區,復興北380,,,0213716588,.6((21)已補收NO:0213715875$53元),取付,120.0,否,120.0,,,0,,0,,0,,0,,0,,0,,0,,0,,0,,0,,0,,0,,0,,0,,0,,0,,0,,0,,0,,0,,0,,0,,0,120,6,126,,三聯式,菜霸子有限公司,83688119.0,21,71,80.0,30.0,,C2110130471,,0,0,0,板橋區,大安區,vegeking.no1@gmail.com,1,121.5525705,25.0435557
C2110140680,0:00,,中正區,台北市中正區信義路二段175號,台北市中正區信義路二段175號,,板橋區,新北市板橋區文化路二段182巷3弄71號,,,0213599149,2.22,月結,70.0,否,70.0,1.0,,0,,0,,0,,0,,0,,0,,0,,0,,0,,0,,0,,0,,0,,0,,0,,0,1.0,30,,0,,0,,0,,0,,0,,0,100,5,0,,三聯式,統一資訊股份有限公司,16151427.0,727,31,20.0,80.0,1.0,C2110130470,,0,0,0,內湖特區,南港區,hjc@pic.net.tw,None,121.529243,25.034016
C2110140854,0:00,,內湖特區,台北市內湖區瑞湖街88號7樓,台北市內湖區瑞湖街88號7樓,,松山區,復興北337,,,0213861247,22.6,取付,120.0,否,120.0,1.0,,0,,0,,0,,0,,0,,0,,0,,0,,0,,0,,0,,0,,0,,0,,0,,0,,0,,0,,0,,0,,0,,0,,0,160,8,168,,二聯式,,,57,21,30.0,80.0,,C2110130468,,0,0,0,大安區,板橋區,,7,121.5759144,25.0723675
C2110140404,0:00,,大同區,台北市大同區長安西路106號10樓-5,台北市大同區長安西路106號10樓-5,,天母區,中山北五860,,,0213704111,22.9,月結,60.0,是,60.0,1.0,,0,,0,,0,,0,,0,,0,,0,,0,,0,,0,,0,,0,,0,,0,,0,,0,,0,,0,,0,,0,,0,,0,,0,60,3,0,,三聯式,史密斯華倫斯基餐飲股份有限公司,50799970.0,29,57,35.0,20.0,1.0,C2110130463,99.0,5,0,0,信義區,大安區,jojochou@swtpe.com,10,121.5185131,25.0504138
C2110140847,0:00,,信義區,台北市信義區東興路41號10樓,台北市信義區東興路41號10樓,,信義區,基隆一163,,,0213774336,22.6,取付,65.0,否,65.0,1.0,,0,,0,,0,,0,,0,,0,,0,,0,,0,,0,,0,,0,,0,,0,,0,,0,,0,,0,,0,,0,,0,,0,,0,105,5,110,,二聯式,,,367,510,25.0,30.0,,C2110130459,,0,0,0,信義區,萬華區,,10,121.5666564,25.0480733
C2110130426,0:00,,松山區,台北市松山區民生東路三段156號11樓,台北市松山區民生東路三段156號11樓,,板橋區,遠東1,,,0213748724,0.22,月結,150.0,否,150.0,,,0,,0,,0,,0,,0,,0,,0,,0,,0,,0,,0,,0,,0,,0,,0,,0,,0,,0,,0,,0,,0,,0,,0,150,8,0,,三聯式,全國公證檢驗-紡織部,12369971.0,23,513,30.0,120.0,,C2110130457,,0,0,0,內湖特區,土城區,sarah.chen@intertek.com,11,121.5477531,25.0573596
C2110130416,0:00,,松山區,台北市松山區民生東路三段156號17F(專線是7742+分機),台北市松山區民生東路三段156號17F(專線是7742+分機),,大安區,仁愛四169號6樓,,,0213665666,0.22,月結,110.0,否,110.0,,,0,,0,,0,,0,,0,,0,,0,,0,,0,,0,,0,,0,,0,,0,,0,,0,,0,,0,,0,,0,,0,,0,1.0,10,120,6,0,,三聯式,怎漾數位創意股份有限公司,85011751.0,609,21,30.0,90.0,1.0,C2110130462,,0,0,0,中正區,板橋區,lynn@howdesign.com.tw,17,121.5477531,25.0573596
C2110130680,0:00,,內湖特區,台北市內湖區瑞光路423號3樓,台北市內湖區瑞光路423號3樓,,中正區,台北市中正區重慶南路一段83號7樓,,,0213752630,0.22,月結,100.0,否,100.0,,,0,,0,,0,,0,,0,,0,,0,,0,,0,,0,,0,,0,,0,,0,,0,,0,,0,,0,,0,,0,,0,1.0,10,1.0,10,120,6,0,X,三聯式,健暘企業股份有限公司,53535828.0,57,21,40.0,80.0,1.0,C2110130452,,0,0,0,大安區,板橋區,doris@brighteyes.com.tw,3,121.5711559,25.0782999
C2110140551,0:00,,中山區,台北市中山區松江路59號4樓,台北市中山區松江路59號4樓,,大安區,忠孝東四560,,,0213779035,22.22,預購點數,55.0,否,55.0,1.0,,0,,0,,0,,0,,0,,0,,0,,0,,0,,0,,0,,0,,0,,0,,0,,0,,0,,0,,0,,0,,0,,0,,0,55,3,0,,三聯式,鄭月紅,,510,503,30.0,25.0,,C2110130451,,0,0,0,萬華區,中山區,red26@megabank.com.tw,4,121.533253,25.048316
C2110141239,0:00,,板橋區,新北市板橋區陽明街102號,新北市板橋區陽明街102號,,松山區,台北市松山區南京東路四段17號,,,0213686373,22.6,取付,90.0,否,90.0,1.0,,0,,0,,0,,0,,0,,0,,0,,0,,0,,0,,0,,0,,0,,0,,0,,0,,0,,0,,0,,0,,0,,0,,0,90,5,95,,二聯式,,,609,73,30.0,50.0,,C2110130447,,0,0,0,中正區,內湖區,duncankung73@gmail.com,None,121.4641068,25.023281
C2110141188,0:00,,中山區,台北市中山區南京東路一段96號11樓,台北市中山區南京東路一段96號11樓,,大安區,復興南二26,,,0213862210,0.22,月結,55.0,是,137.5,,,0,,0,,0,,0,,0,,0,,0,,0,,0,,0,,0,,0,,0,,0,,0,,0,,0,,0,,0,,0,,0,,0,,0,138,7,0,,三聯式,廣益管理顧問(股)公司,28196639.0,22,22,75.0,63.0,1.0,C2110130448,,0,0,0,信義區,大安區,lancy_hsiao@rsm.tw,11,121.5261535,25.0518727
C2110130409,0:00,,松山區,台北市松山區民生東路三段156號17F(專線是7742+分機),台北市松山區民生東路三段156號17F(專線是7742+分機),,南港區,市六151號15樓,,,0213766808,22.22,月結,110.0,否,110.0,1.0,,0,,0,,0,,0,,0,,0,,0,,0,,0,,0,,0,,0,,0,,0,,0,,0,,0,,0,,0,,0,,0,,0,,0,110,6,0,,三聯式,君綺時尚診所,77058731.0,510,19,30.0,80.0,1.0,C2110130446,,0,0,0,萬華區,新店區,huiru.zhu@jcbuty.com,17,121.5477531,25.0573596
C2110130422,0:00,,松山區,台北市松山區民生東路三段156號17F(專線是7742+分機),台北市松山區民生東路三段156號17F(專線是7742+分機),,內湖特區,瑞光路510號2樓,,,0213862167,9.2,月結,80.0,否,280.0,1.0,,0,,0,,0,,0,,0,,0,,0,,0,,0,,0,,0,,0,,0,,0,,0,,0,,0,,0,,0,,0,,0,,0,,0,280,14,0,,三聯式,歐陸食品檢驗股份有限公司,53968514.0,736,736,105.0,175.0,,C2110130437,,0,0,0,中正區,重莊特區,evashiao@eurofins.com,17,121.5477531,25.0573596
C2110140830,0:00,,大安區,台北市大安區敦化南路二段180號11樓,台北市大安區敦化南路二段180號11樓,,中山區,中山北一64,,,0213806702,1.22,預購點數,80.0,否,80.0,1.0,,0,,0,,0,,0,,0,,0,,0,,0,,0,,0,,0,,0,,0,,0,,0,,0,,0,,0,,0,,0,,0,,0,,0,80,4,0,,三聯式,鵬鎧國際,28908383.0,270,710,50.0,30.0,1.0,C2110130436,,0,0,0,重莊特區,大同區,jr1581@gmail.com,11,121.5481987,25.0235941
C2110130417,0:00,,松山區,台北市松山區民生東路三段156號17F(專線是7742+分機),台北市松山區民生東路三段156號17F(專線是7742+分機),,大安區,敦南二62號B1,,,0213818137,9.2,月結,55.0,否,55.0,1.0,,0,,0,,0,,0,,0,,0,,0,,0,,0,,0,,0,,0,,0,,0,,0,,0,,0,,0,,0,,0,,0,,0,,0,55,3,0,210363,三聯式,布爾喬亞公關顧問股份有限公司,24551405.0,60,69,20.0,35.0,1.0,C2110130434,,0,0,0,松山區,信義區,anita@vocalmiddle.com,17,121.5477531,25.0573596
C2110141227,0:00,,松山區,臺北市松山區光復北路11巷31-1號4樓,臺北市松山區光復北路11巷31-1號4樓,,板橋區,新站16號,,,0212531752,1.2,月結,60.0,否,60.0,1.0,,0,,0,,0,,0,,0,,0,,0,,0,,0,,0,,0,,0,,0,,0,,0,,0,,0,,0,,0,,0,,0,,0,,0,60,3,0,信義店,三聯式,星期五股份有限公司,23932928.0,56,29,25.0,30.0,1.0,C2110130432,99.0,5,0,0,大安區,信義區,carol.bai@casualrestaurants.com;joyce.hsieh@casualrestaurants.com;fa@casualrestaurants.com,4,121.5588121,25.0498413
C2110130419,0:00,,松山區,台北市松山區敦化北路222巷30號2樓,台北市松山區敦化北路222巷30號2樓,,重莊特區,五權八路6,,,0213818118,9.2,月結,110.0,否,110.0,1.0,,0,,0,,0,,0,,0,,0,,0,,0,,0,,0,,0,,0,,0,,0,,0,,0,,0,,0,,0,,0,,0,,0,1.0,10,120,6,0,210357,三聯式,布爾喬亞公關顧問股份有限公司,24551405.0,60,218,30.0,90.0,1.0,C2110130401,,0,0,0,松山區,中和區,anita@vocalmiddle.com,2,121.5474031,25.0597184
C2110141259,0:00,,信義區,台北市信義區東興路41號10樓,台北市信義區東興路41號10樓,,天母區,中山北七140,,,0213818140,9.2,月結,55.0,否,55.0,1.0,,0,,0,,0,,0,,0,,0,,0,,0,,0,,0,,0,,0,,0,,0,,0,,0,,0,,0,,0,,0,,0,,0,1.0,10,65,3,0,210113,三聯式,布爾喬亞公關顧問股份有限公司,24551405.0,60,13,25.0,40.0,1.0,C2110130400,,0,0,0,松山區,中山區,anita@vocalmiddle.com,10,121.5666564,25.0480733
C2110130407,0:00,,松山區,臺北市松山區民生東路三段156號3樓(12.-13.30午休),臺北市松山區民生東路三段156號3樓(12.-13.30午休),,中正區,愛國東216號412室,,,0213705333,1.6,取付,90.0,否,225.0,1.0,,0,,0,,0,,0,,0,,0,,0,,0,,0,,0,,0,,0,,0,,0,,0,,0,,0,,0,,0,,0,,0,1.0,-10,,0,215,11,226,,三聯式,華南銀行二重分行,86690068.0,251,251,115.0,75.0,,C2110130395,,0,0,0,重莊特區,內湖特區,tw1740m@hncb.com.tw,3,121.5477531,25.0573596
C2110141245,0:00,,大同區,台北市大同區長安西路106號10樓-5,台北市大同區長安西路106號10樓-5,,內湖區,民權東六11,,,0213775450,3@.2,月結,110.0,否,275.0,1.0,,0,,0,,0,,0,,0,,0,,0,,0,,0,,0,,0,,0,,0,,0,,0,,0,,0,,0,1.0,50,,0,,0,,0,,0,325,16,0,,三聯式,臺北表演藝術中心,88178332.0,721,721,250.0,75.0,1.0,C2110130399,,0,0,0,文山區,大同區,kevin.chen@tpac-taipei.org,10,121.5185131,25.0504138
C2110141219,0:00,,大同區,台北市大同區長安西路106號10樓-5,台北市大同區長安西路106號10樓-5,,大安區,仁愛四405,,,0213825916,0.5,預購點數,110.0,否,110.0,,,0,,0,,0,,0,,0,,0,,0,,0,,0,,0,,0,,0,,0,,0,,0,,0,,0,,0,,0,,0,,0,,0,,0,110,6,0,,三聯式,用力拍電影有限公司,42841315.0,367,19,30.0,80.0,1.0,C2110130435,,0,0,0,信義區,文山區,accounting@togofilm.net,10,121.5185131,25.0504138
C2110141228,0:00,,大安區,台北市大安區新生南路三段22巷7-8號4F,台北市大安區新生南路三段22巷7-8號4F,,大安區,台北市敦化南路二段1號2樓,,,0212941184,1.2,月結,80.0,否,80.0,1.0,,0,,0,,0,,0,,0,,0,,0,,0,,0,,0,,0,,0,,0,,0,,0,,0,,0,,0,,0,,0,,0,,0,,0,80,4,0,,三聯式,博英科技有限公司,52633245.0,76,65,30.0,50.0,1.0,C2110130394,,0,0,0,中山區,內湖區,shmily@popin.cc;misty@popin.cc,4,121.533905,25.0242923
C2110141270,0:00,,新莊區,新北市新莊區新北大道三段5號17樓之3,新北市新莊區新北大道三段5號17樓之3,,大安區,仁愛三136,,,0213818907,0.2,月結,80.0,否,80.0,,,0,,0,,0,,0,,0,,0,,0,,0,,0,,0,,0,,0,,0,,0,,0,,0,,0,,0,,0,,0,,0,,0,,0,80,4,0,,三聯式,卡芮詩國際貿易有限公司,53558666.0,13,23,30.0,50.0,1.0,C2110130391,,0,0,0,中山區,大直區,clarusbeautyshop@gmail.com,17,121.4582892,25.0602656
C2110141306,0:00,,內湖特區,台北市內湖區舊宗路二段181巷12號4樓,台北市內湖區舊宗路二段181巷12號4樓,,大同區,承德二77,,,0213821819,.2-Q,月結,140.0,否,140.0,,,0,,0,,0,,0,,0,,0,,0,,0,,0,,0,,0,,0,,0,,0,,0,,0,1.0,30,,0,,0,,0,,0,,0,,0,170,9,0,,三聯式,財團法人台北市文化基金會台北電影節統籌部,72948813.0,510,513,20.0,150.0,1.0,C2110130388,,0,0,0,萬華區,浮洲區,admin.a@taipeiff.org.tw;peggychen@taipeiff.org.tw;yenling@taipeiff.org.tw,4,121.5751292,25.0715994
C2110140394,0:00,,中山區,南京東路三段219,台北市南京東路三段219號,,信義區,松仁100,,,0213862636,3@.22,月結,36.0,是,90.0,1.0,,0,,0,,0,,0,,0,,0,,0,,0,,0,,0,,0,,0,,0,,0,,0,,0,,0,,0,,0,,0,,0,1.0,10,,0,100,5,0,318100,三聯式,台新國際商業銀行股份有限公司,86519539.0,76,76,100.0,0.0,1.0,C2110130386,,0,0,0,松山區,中山區,annlee@taishinbank.com.tw,None,121.5432529,25.052128
C2110140841,0:00,,中山區,台北市中山區中山北路二段42號2樓,台北市中山區中山北路二段42號2樓,,大同區,昌吉26,,,0213859119,3@.9,月結,60.0,是,60.0,1.0,,0,,0,,0,,0,,0,,0,,0,,0,,0,1.0,0,,0,,0,,0,,0,,0,,0,,0,,0,,0,,0,,0,,0,,0,60,3,0,5513,三聯式,光寶科技股份有限公司,23357403.0,502,99,60.0,0.0,1.0,C2110130379,,0,0,0,中和區,內湖特區,Henny.Tsai@liteon.com,2,121.522377,25.054823
C2110130412,0:00,,松山區,台北市松山區民生東路三段156號17F(專線是7742+分機),台北市松山區民生東路三段156號17F(專線是7742+分機),,中山區,南東三36號1樓,,,0213768324,3@.2,預購點數,55.0,否,55.0,1.0,,0,,0,,0,,0,,0,,0,,0,,0,,0,,0,,0,,0,,0,,0,,0,,0,,0,,0,,0,,0,,0,,0,,0,55,3,0,,三聯式,一月商行,72990451.0,32,710,20.0,35.0,,C2110130377,,0,0,0,松山區,大同區,kulajc@yahoo.com,17,121.5477531,25.0573596
C2110140417,0:00,,大安區,台北市大安區復興南路二段82號8F-2,台北市大安區復興南路二段82號8F-2,,中山區,建國北二3,,,0213811152,3@.2,預購點數,120.0,否,120.0,1.0,,0,,0,,0,,0,,0,,0,,0,,0,,0,,0,,0,,0,,0,,0,,0,,0,,0,,0,,0,,0,,0,,0,,0,120,6,0,,三聯式,競昇整合行銷股份有限公司,82879842.0,708,31,30.0,90.0,1.0,C2110130375,,0,0,0,中正區,汐止區,Jenny.Tsai@jstars.com.tw;iris.shao@jstars.com.tw,8,121.5433079,25.0309505
C2110141189,0:00,,大安區,台北市大安區仁愛路三段123巷26弄9號1F,台北市大安區仁愛路三段123巷26弄9號1F,,大安區,新生南一62,,,0213821814,0.2,月結,50.0,否,50.0,,,0,,0,,0,,0,,0,,0,,0,,0,,0,,0,,0,,0,,0,,0,,0,,0,,0,,0,,0,,0,,0,,0,,0,50,3,0,,三聯式,財團法人台北市文化基金會台北電影節統籌部,72948813.0,510,510,25.0,25.0,1.0,C2110130373,,0,0,0,萬華區,萬華區,admin.a@taipeiff.org.tw;peggychen@taipeiff.org.tw;yenling@taipeiff.org.tw,1,121.5414564,25.0391776
C2110140846,0:00,,中山區,台北市中山區南京東路三段219號10樓,台北市中山區南京東路三段219號10樓,,大安區,仁愛路四296,,,0213862165,3@.2-BC,月結,50.0,是,125.0,1.0,,0,,0,,0,,0,,0,,0,,0,,0,,0,,0,,0,,0,,0,,0,,0,,0,,0,,0,,0,,0,,0,,0,,0,125,6,0,,三聯式,凌越生醫股份有限公司,27558248.0,736,736,62.5,62.5,,C2110130371,,0,0,0,大安區,信義區,amy.lin@ebs.com.tw,10,121.5432529,25.052128
C2110140412,0:00,,永和區,新北市永和區永貞路398號2樓,新北市永和區永貞路398號2樓,,大同區,寧夏8,,,0213790955,2.2,月結,70.0,否,70.0,1.0,,0,,0,,0,,0,,0,,0,,0,,0,,0,,0,,0,,0,,0,,0,,0,,0,,0,,0,,0,,0,,0,,0,,0,70,4,0,,三聯式,利拓股份有限公司,86501469.0,69,270,30.0,40.0,1.0,C2110130363,,0,0,0,信義區,重莊特區,allison@writek.com.tw,2,121.5092654,25.0076162
C2110140400,0:00,,大安區,忠孝東路四段142號7樓之2(大安區),台北市忠孝東路四段142號7樓之2(大安區),,關渡區,立功街79,,,0213769964,2.2,預購點數,55.0,否,55.0,1.0,,0,,0,,0,,0,,0,,0,,0,,0,,0,,0,,0,,0,,0,,0,,0,,0,,0,,0,,0,,0,,0,,0,,0,55,3,0,,三聯式,寰辰資產管理股份有限公司,13098385.0,367,71,30.0,25.0,,C2110130361,,0,0,0,信義區,大安區,cindyliang@uni-star.com.tw,7,121.549398,25.041304
C2110130681,0:00,,內湖特區,台北市內湖區瑞光路423號3樓,台北市內湖區瑞光路423號3樓,,信義區,台北市信義區松高路9號11樓,,,0213628188,9.6,取付,90.0,否,90.0,1.0,,0,,0,,0,,0,,0,,0,,0,,0,,0,,0,,0,,0,,0,,0,,0,,0,,0,,0,,0,,0,,0,,0,,0,90,5,95,,三聯式,,12976069.0,73,76,50.0,30.0,,C2110130360,,0,0,0,內湖區,中山區,kelly.kung@santatron.com.tw,3,121.5711559,25.0782999
C2110130002,0:13,,中山區,臺北市中山區南京東路二段8號12樓之1,臺北市中山區南京東路二段8號12樓之1,,中正區,台北市中正區泉州街55號2樓,,,0213739137,2.2,月結,70.0,否,70.0,1.0,,0,,0,,0,2.0,100,2.0,100,,0,,0,,0,,0,,0,,0,,0,,0,,0,,0,,0,,0,,0,,0,,0,,0,,0,,0,270,14,0,BY,三聯式,台灣無印良品股份有限公司,80518858.0,218,367,150.0,120.0,1.0,C2110130357,,0,0,0,永和區,松山區,logistics@mail.muji.tw,12,121.528741,25.0517551
C2110130006,7:45,,南港區,經貿二路188號6F,台北市經貿二段路188號6F,,松山區,台北市松山區民生東路三段156號17F,,,0213541124,0.5,預購點數,55.0,否,55.0,,,0,,0,,0,,0,,0,,0,,0,,0,,0,,0,,0,,0,,0,,0,,0,,0,1.0,30,,0,,0,,0,,0,,0,,0,85,4,0,,三聯式,友量娛樂科技股份有限公司,54283814.0,76,231,20.0,65.0,1.0,C2110130374,,0,0,0,中山區,中正區,leichi67@gmail.com,6,121.6167358,25.0576002
C2110130030,8:30,,內湖特區,內湖區瑞光路399號3樓,台北市內湖區瑞光路399號3樓,,中山區,台北市中山區吉林路345號1樓,,,0213806300,0.22,月結,36.0,是,90.0,,,0,,0,,0,,0,,0,,0,,0,,0,,0,,0,,0,,0,,0,,0,,0,1.0,30,,0,,0,,0,,0,,0,,0,,0,120,6,0,318100,三聯式,台新國際商業銀行股份有限公司,86519539.0,251,251,120.0,0.0,,C2110130354,,0,0,0,中正區,中山區,,3,121.5726099,25.0781801
C2110130024,8:30,,信義區,信義區虎林街232巷10號1樓(右手邊第二間),台北市信義區虎林街232巷10號1樓(右手邊第路二段間),,松山區,八德四30,,,0213813775,2.5,月結,150.0,否,150.0,1.0,,0,,0,,0,,0,,0,,0,,0,,0,,0,,0,,0,,0,,0,,0,,0,,0,,0,,0,,0,,0,,0,,0,,0,150,8,0,,三聯式,台灣蝶理商業股份有限公司,55789240.0,60,270,30.0,120.0,1.0,C2110130352,,0,0,0,松山區,丹鳳區,mi-yu@chori.co.jp,1,121.5773356,25.0369711
C2110130028,8:30,,大安區,忠孝東路四段30號1樓保全取,台北市忠孝東路四段30號1樓保全取,,文山區,台北市文山區木柵路四段159巷1號,,,0213857957,3@.5,預購點數,150.0,否,150.0,1.0,,0,,0,,0,,0,,0,,0,,0,,0,,0,,0,,0,,0,,0,,0,,0,,0,1.0,30,,0,,0,,0,,0,,0,,0,180,9,0,,三聯式,宇田工商會計事務所,1007564.0,39,609,120.0,60.0,1.0,C2110130353,,0,0,0,天母區,中正區,alice94599@yahoo.com.tw,1,121.5447155,25.0414578
C2110130025,8:30,,松山區,敦化南路一段66號7F(通知放收發),台北市敦化南路一段66號7F(通知放收發),,松山區,台北市松山區民生東路三段156號17F(專線是7742+分機),,,0213814289,0.5,月結,120.0,否,120.0,,,0,,0,,0,1.0,50,1.0,50,,0,,0,,0,,0,,0,,0,,0,,0,,0,,0,,0,,0,,0,,0,,0,,0,,0,,0,220,11,0,,三聯式,緯泰創意行銷股份有限公司,42991209.0,76,506,80.0,140.0,1.0,C2110130355,,0,0,0,中山區,汐止區,jennifer.liu@wecreate.com.tw,7,121.5484378,25.0473196
C2110130035,8:30,,信義區,信義區虎林街232巷10號1樓(右手邊第二間),台北市信義區虎林街232巷10號1樓(右手邊第路二段間),,中山區,天祥路38號,,,0213860677,2.5,月結,80.0,否,80.0,1.0,,0,,0,,0,,0,,0,,0,,0,,0,,0,,0,,0,,0,,0,,0,,0,,0,1.0,30,,0,,0,,0,,0,,0,,0,110,6,0,,三聯式,德兆建設股份有限公司,1515619.0,71,506,30.0,80.0,,C2110130346,,0,0,0,大安區,南港區,derjey.co@msa.hinet.net;rosa00530@yahoo.com.tw,1,121.5773356,25.0369711
C2110130031,8:30,,中山區,台北市中山區南京東路二段77號3樓(收發在B1),台北市中山區南京東路二段77號3樓(收發在B1),,大安區,敦化南一108,,,0213860678,2.5,月結,55.0,否,55.0,1.0,,0,,0,,0,,0,,0,,0,,0,,0,,0,,0,,0,,0,,0,,0,,0,,0,,0,,0,,0,,0,,0,,0,,0,55,3,0,,三聯式,德兆建設股份有限公司,1515619.0,71,367,20.0,35.0,,C2110130345,,0,0,0,大安區,信義區,derjey.co@msa.hinet.net;rosa00530@yahoo.com.tw,3,121.5311368,25.0522793
C2110130033,8:30,,信義區,信義區虎林街232巷10號1樓(右手邊第二間),台北市信義區虎林街232巷10號1樓(右手邊第路二段間),,信義區,市府路1號B2,,,0213807559,0.5,月結,55.0,否,55.0,,,0,,0,,0,,0,,0,,0,,0,,0,,0,,0,,0,,0,,0,,0,,0,,0,,0,,0,,0,,0,,0,,0,,0,55,3,0,,三聯式,捷喜多媒體數位股份有限公司,53327552.0,60,710,25.0,30.0,1.0,C2110130349,,0,0,0,松山區,中山區,cathy.yen@juksy.com;amy.chen@juksy.com;tracy.lin@juksy.com,1,121.5773356,25.0369711
C2110130021,8:30,,中山區,台北市中山區林森北路85巷23號,台北市中山區林森北路85巷23號,,大安區,台北市大安區延吉街70巷5弄1號2樓,,,0213814291,0.5,月結,55.0,否,55.0,,,0,,0,,0,,0,1.0,50,,0,,0,,0,,0,,0,,0,,0,,0,,0,,0,,0,,0,,0,,0,,0,,0,,0,,0,105,5,0,,三聯式,緯泰創意行銷股份有限公司,42991209.0,76,60,50.0,55.0,1.0,C2110130344,,0,0,0,中山區,松山區,jennifer.liu@wecreate.com.tw,None,121.5247707,25.0493974
C2110130022,8:30,,大同區,台北市大同區承德路一段70號13樓,台北市大同區承德路一段70號13樓,,大安區,大安區忠孝東路四段219號4F,,,0213814292,0.5,月結,55.0,否,55.0,,,0,,0,,0,1.0,50,,0,,0,,0,,0,,0,,0,,0,,0,,0,,0,,0,,0,,0,,0,,0,,0,,0,,0,,0,105,5,0,,三聯式,緯泰創意行銷股份有限公司,42991209.0,76,56,50.0,55.0,1.0,C2110130342,,0,0,0,中山區,大安區,jennifer.liu@wecreate.com.tw,13,121.5171213,25.0522616
C2110130016,8:30,,內湖特區,B11台北市內湖區瑞光路423號10F,B11台北市內湖區瑞光路423號10F,,信義區,信義區忠孝東路四段550號5F請交本人@收發午休12.00-1.30,,,0213862341,9.5,月結,55.0,否,55.0,1.0,,0,,0,,0,,0,,0,,0,,0,,0,,0,,0,,0,,0,,0,,0,,0,,0,,0,,0,,0,,0,,0,,0,,0,55,3,0,,三聯式,信加實業(股)公司,23435442.0,727,57,25.0,30.0,1.0,C2110130338,,0,0,0,內湖特區,大安區,a4@tscpa.com.tw,10,121.5711559,25.0782999
C2110130012,8:30,,板橋區,縣民大道二段68號24F,新北市縣民大道二段68號24F,,松山區,臺北市松山區民生東路三段156號3F,,,0213672292,2.22,月結,60.0,否,60.0,1.0,,0,,0,,0,,0,,0,,0,,0,,0,,0,,0,,0,,0,,0,,0,,0,,0,,0,,0,,0,,0,,0,,0,,0,60,3,0,381200,三聯式,台新國際商業銀行股份有限公司,86519539.0,218,76,40.0,20.0,1.0,C2110130339,,0,0,0,永和區,中山區,annlee@taishinbank.com.tw,24,121.4634273,25.0124104
C2110130013,8:30,,中正區,中山南路7號2F護理部,台北市中山南路7號2F護理部,,萬華區,臺北市萬華區西園路二段261巷12弄44號1樓,,,0213820629,0.5,月結,55.0,否,55.0,,,0,,0,,0,,0,,0,,0,,0,,0,,0,,0,,0,,0,,0,,0,,0,,0,,0,,0,,0,,0,,0,,0,1.0,10,65,3,0,,三聯式,高虎(股)公司,13081716.0,76,505,25.0,40.0,1.0,C2110130350,,0,0,0,中山區,松山區,jennifer.hsieh@gac.com;kathy.lin@gac.com,2,121.5191987,25.0409785
C2110130008,8:30,,松山區,台北市松山區八德路二段424號5樓,台北市松山區八德路二段424號5樓,,大同區,重慶北路三段146號,,,0213768320,2.5,月結,50.0,否,50.0,1.0,,0,,0,,0,,0,,0,,0,,0,,0,,0,,0,,0,,0,,0,,0,,0,,0,,0,,0,,0,,0,,0,,0,,0,50,3,0,POS,三聯式,元大人壽保險(股)公司,80329815.0,32,32,25.0,25.0,1.0,C2110130334,,0,0,0,松山區,松山區,EvitaFang@yuanta.com,5,121.5473381,25.0480381
C2110130009,8:30,,松山區,台北市松山區民生東路三段156號17F,台北市松山區民生東路三段156號17F,,松山區,台北市民生東路四段52-1號1F,,,0213633701,9.5,預購點數,120.0,否,120.0,1.0,,0,,0,,0,,0,,0,,0,,0,,0,,0,,0,,0,,0,,0,,0,,0,,0,,0,,0,,0,,0,,0,,0,,0,120,6,0,,三聯式,順德,53731899.0,506,76,90.0,30.0,,C2110130335,,0,0,0,汐止區,中山區,kuovicky58@gmail.com,17,121.5477531,25.0573596
C2110130045,8:44,,松山區,台北市松山區八德路三段158巷20弄9號,台北市松山區八德路三段158巷20弄9號,,內湖區,內湖區內湖路二段103巷70號,,,0213768321,2.5,月結,50.0,否,50.0,1.0,,0,,0,,0,,0,,0,,0,,0,,0,,0,,0,,0,,0,,0,,0,,0,,0,,0,,0,,0,,0,,0,,0,,0,50,3,0,POS,三聯式,元大人壽保險(股)公司,80329815.0,32,32,25.0,25.0,1.0,C2110130333,,0,0,0,松山區,松山區,EvitaFang@yuanta.com,None,121.5549827,25.0472297
C2110130046,8:54,,中正區,台北市中正區館前路65號11樓(送宏泰掛經代,台北市中正區館前路65號11樓(送宏泰掛經代,,松山區,臺北市松山區民生東路三段156號3樓(12.-13.30午休),,,0213705330,3@.22,月結,36.0,是,180.0,1.0,,0,,0,,0,,0,,0,,0,,0,,0,,0,,0,,0,,0,,0,,0,,0,,0,,0,,0,,0,,0,,0,,0,,0,180,9,0,430018,三聯式,台新國際商業銀行股份有限公司,86519539.0,251,251,180.0,0.0,1.0,C2110130336,,0,0,0,中山區,中正區,annlee@taishinbank.com.tw,11,121.5151745,25.0442286
C2110130047,8:54,,文山區,台北市文山區景隆街103號1樓,台北市文山區景隆街103號1樓,,松山區,台北市松山區八德路三段158巷20弄9號,,,0213805688,9.5,月結,80.0,否,80.0,1.0,,0,,0,,0,,0,,0,,0,,0,,0,,0,,0,,0,,0,,0,,0,,0,,0,,0,,0,,0,,0,,0,,0,,0,80,4,0,,三聯式,君綺信義(君綺診所),38654021.0,69,65,30.0,50.0,1.0,C2110130332,,0,0,0,信義區,內湖區,mandy@dvbiomed.com,1,121.543335,24.9991139
C2110130048,8:58,,中正區,台北市中正區忠孝東路二段96號9樓,台北市中正區忠孝東路二段96號9樓,,內湖特區,B11台北市內湖區瑞光路423號10F,,,0213768322,2.5,月結,50.0,否,50.0,1.0,,0,,0,,0,,0,,0,,0,,0,,0,,0,,0,,0,,0,,0,,0,,0,,0,,0,,0,,0,,0,,0,,0,,0,50,3,0,POS,三聯式,元大人壽保險(股)公司,80329815.0,32,32,25.0,25.0,1.0,C2110130331,,0,0,0,松山區,松山區,EvitaFang@yuanta.com,9,121.5302186,25.0428155
C2110130041,9:00,,松山區,台北市松山區民生東路三段156號17F,台北市松山區民生東路三段156號17F,,板橋區,文化路二段285號-送18樓,,,0213862427,2.5,月結,50.0,否,50.0,1.0,,0,,0,,0,,0,,0,,0,,0,,0,,0,,0,,0,,0,,0,,0,,0,,0,,0,,0,,0,,0,,0,,0,,0,50,3,0,POS,三聯式,元大人壽保險(股)公司,80329815.0,505,32,25.0,25.0,1.0,C2110130328,,0,0,0,松山區,松山區,EvitaFang@yuanta.com,17,121.5477531,25.0573596
C2110130043,9:00,,松山區,臺北市松山區長安東路二段219號12樓,臺北市松山區長安東路二段219號12樓,,大安區,大安區延吉街70巷5弄1號2樓,,,0213742326,0.5,月結,50.0,否,50.0,,,0,,0,,0,,0,,0,,0,,0,,0,,0,,0,,0,,0,,0,,0,,0,,0,,0,,0,,0,,0,,0,,0,,0,50,3,0,,三聯式,酷聖石冰淇淋股份有限公司,28459597.0,73,367,25.0,25.0,1.0,C2110130330,,0,0,0,內湖特區,信義區,kitty317@coldstone.com.tw,12,121.5448361,25.0483319
C2110130042,9:00,,信義區,信義區永吉路18號1樓,台北市信義區永吉路18號1樓,,松山區,台北市松山區民生東路三段156號17F,,,0213860676,2.5,月結,50.0,否,50.0,1.0,,0,,0,,0,,0,,0,,0,,0,,0,,0,,0,,0,,0,,0,,0,,0,,0,,0,,0,,0,,0,,0,,0,,0,50,3,0,POS,三聯式,元大人壽保險(股)公司,80329815.0,71,32,25.0,25.0,1.0,C2110130327,,0,0,0,大安區,松山區,EvitaFang@yuanta.com,1,121.568366,25.0454298
C2110130038,9:00,,中正區,台北市中正區中華路一段59號9F  905室 (智觀念商務中心),台北市中正區中華路一段59號9F  905室 (智觀念商務中心),,全省區,高雄市三民區自由一路100號 高雄醫學大學附設中和紀念醫院神經外科,,,0213471888,2.5,月結,50.0,否,50.0,1.0,,0,,0,,0,,0,,0,,0,,0,,0,,0,,0,,0,,0,,0,,0,,0,,0,,0,,0,,0,,0,,0,,0,,0,50,3,0,POS,三聯式,元大人壽保險(股)公司,80329815.0,609,32,25.0,25.0,1.0,C2110130325,,0,0,0,中正區,松山區,EvitaFang@yuanta.com,9,121.5085052,25.0413677
C2110130037,9:00,,中正區,台北市中正區中華路一段59號9F  905室 (智觀念商務中心),台北市中正區中華路一段59號9F  905室 (智觀念商務中心),,全省區,苗栗縣竹南鎮科研路35號行政大樓2樓群健所A2262室 國家衛生研究院,,,0213808138,8.9,月結,120.0,否,300.0,1.0,,0,,0,,0,,0,,0,,0,,0,,0,,0,,0,,0,,0,,0,,0,,0,,0,,0,,0,,0,,0,,0,,0,,0,300,15,0,NS20,三聯式,藍天電腦股份有限公司,9424319.0,721,721,125.0,175.0,1.0,C2110130326,,0,0,0,重莊特區,新店區,lucy@clevo.com.tw,9,121.5085052,25.0413677
C2110130005,9:00,,中山區,臺北市中山區南京東路二段8號12樓之1,臺北市中山區南京東路二段8號12樓之1,,松山區,台北市信義區東興街51號九樓,,,0213845411,3.5,月結,55.0,否,55.0,1.0,,0,,0,,0,,0,,0,,0,,0,,0,,0,,0,,0,,0,,0,,0,,0,,0,,0,,0,,0,,0,,0,1.0,20,1.0,10,95,5,0,,三聯式,飾瑩有限公司,23723400.0,66,66,50.0,35.0,1.0,C2110130329,,0,0,588,大同區,中山區,kkshining@gmail.com,12,121.528741,25.0517551
C2110130004,9:00,,中山區,臺北市中山區南京東路二段8號12樓之1,臺北市中山區南京東路二段8號12樓之1,,中正區,台北市中正區博愛路17號8樓,,,0213775734,2.5,預購點數,55.0,否,55.0,1.0,,0,,0,,0,,0,,0,,0,,0,,0,,0,,0,,0,,0,,0,,0,,0,,0,,0,,0,,0,,0,,0,,0,,0,55,3,0,,三聯式,宏壹創意企畫有限公司,83610794.0,60,57,25.0,30.0,1.0,C2110130323,,0,0,0,松山區,大安區,lwganita@gmail.com,12,121.528741,25.0517551
C2110130003,9:00,,中山區,臺北市中山區南京東路二段8號12樓之1,臺北市中山區南京東路二段8號12樓之1,,信義區,台北市信義區吳興街607號6樓,,,0213430371,0.6,取付,65.0,否,65.0,1.0,,0,,0,,0,,0,,0,,0,,0,,0,,0,,0,,0,,0,,0,,0,,0,,0,,0,,0,,0,,0,,0,,0,,0,65,3,68,,二聯式,,,56,708,25.0,30.0,,C2110130324,,0,0,0,大安區,大安區,tuantuanqq@gmail.com,12,121.528741,25.0517551
C2110130001,9:00,,中山區,臺北市中山區南京東路二段8號12樓之1,臺北市中山區南京東路二段8號12樓之1,,大安區,台北市信義區光復南路421號3F之1,,,0213792600,3.5,月結,55.0,否,55.0,1.0,,0,,0,,0,,0,,0,,0,,0,,0,,0,,0,,0,,0,,0,,0,,0,,0,,0,,0,,0,,0,,0,,0,,0,55,3,0,,三聯式,智焰股份有限公司,24310292.0,708,367,25.0,30.0,1.0,C2110130321,,0,0,0,中正區,信義區,anita@tvgame.com.tw,12,121.528741,25.0517551
C2110121071,9:00,,文山區,台北市中正區汀州路三段230巷14弄2號,台北市中正區汀州路三段230巷14弄2號,,中正區,台北市中正區北平東路7號,,,0213862166,3@.2,月結,50.0,是,125.0,1.0,,0,,0,,0,,0,,0,,0,,0,,0,,0,,0,,0,,0,,0,,0,,0,,0,,0,,0,,0,,0,,0,,0,,0,125,6,0,,三聯式,凌越生醫股份有限公司,27558248.0,736,736,62.5,62.5,,C2110130320,,0,0,0,松山區,信義區,amy.lin@ebs.com.tw,None,121.5323848,25.0106466
C2110121060,9:00,,萬華區,台北市萬華區廣州街141號2樓(129號進入到1樓保全室取件),台北市萬華區廣州街141號2樓(129號進入到1樓保全室取件),,松山區,台北市松山區市民大道五段99號4樓,,,0213821283,0.5,月結,55.0,否,55.0,,,0,,0,,0,,0,,0,,0,,0,,0,,0,,0,,0,,0,,0,,0,,0,,0,,0,,0,,0,,0,,0,,0,,0,55,3,0,,三聯式,飾瑩有限公司,23723400.0,66,505,25.0,30.0,1.0,C2110130372,,0,0,0,中山區,大安區,kkshining@gmail.com,2,121.5021804,25.0366901
C2110121058,9:00,,中山區,台北市中山區中山北路二段129號9樓,台北市中山區中山北路二段129號9樓,,大安區,10596台北市復興北路181號15樓之1,,,0213775735,2.5 (結算錯誤，運費80→55，10/17補點數),預購點數,55.0,否,55.0,1.0,,0,,0,,0,,0,,0,,0,,0,,0,,0,,0,,0,,0,,0,,0,,0,,0,,0,,0,,0,,0,,0,,0,,0,55,3,0,,三聯式,宏壹創意企畫有限公司,83610794.0,60,56,25.0,30.0,1.0,C2110130322,,0,0,0,松山區,大安區,lwganita@gmail.com,9,121.523189,25.0614505
C2110121054,9:00,,新莊區,新北市新莊區新北大道二段312號4F,新北市新莊區新北大道二段312號4F,,內湖特區,台北市內湖區瑞光路423號10樓,,,0213808770,0.2,月結,120.0,否,120.0,,,0,,0,,0,,0,,0,,0,,0,,0,,0,,0,,0,,0,,0,,0,,0,,0,,0,,0,,0,,0,,0,,0,,0,120,6,0,家外媒體業務104,三聯式,東森新媒體控股股份有限公司,24328949.0,505,506,30.0,90.0,1.0,C2110130318,,0,0,0,松山區,汐止區,a468714@ettoday.net,4,121.4639921,25.061259
C2110121052,9:00,,信義區,台北市信義區東興路45號8樓,台北市信義區東興路45號8樓,,內湖特區,北市內湖區瑞光路70號5樓,,,0213716590,0.22,月結,60.0,否,60.0,,,0,,0,,0,,0,,0,,0,,0,,0,,0,,0,,0,,0,,0,,0,,0,,0,,0,,0,,0,,0,,0,,0,,0,60,3,0,430915,三聯式,台新國際商業銀行股份有限公司,86519539.0,21,71,40.0,20.0,,C2110130316,,0,0,0,板橋區,大安區,1070691@taishinbank.com.tw,8,121.5663743,25.0477518
C2110121049,9:00,,萬華區,台北市萬華區漢中街147巷5號9樓之8,台北市萬華區漢中街147巷5號9樓之8,,松山區,臺北市松山區南京東路5段161號10樓,,,0213860675,0.5,月結,50.0,否,50.0,,,0,,0,,0,,0,,0,,0,,0,,0,,0,,0,,0,,0,,0,,0,,0,,0,,0,,0,,0,,0,,0,,0,1.0,10,60,3,0,BSD,三聯式,元大人壽保險(股)公司,80329815.0,71,32,25.0,35.0,,C2110130312,,0,0,0,大安區,松山區,EvitaFang@yuanta.com,9,121.5071921,25.0407456
C2110121047,9:00,,中山區,中山北路二段26巷2號6樓,台北市中山北路二段26巷2號6樓,,大安區,台北市大安區金山南路二段165號4F,,,0213815565,0.5,月結,80.0,否,80.0,,,0,,0,,0,,0,,0,,0,,0,,0,,0,,0,,0,,0,,0,,0,,0,,0,,0,,0,,0,,0,,0,,0,,0,80,4,0,,三聯式,晶偉電子(台北),12188401.0,22,515,30.0,50.0,,C2110130315,,0,0,0,信義區,重莊特區,nitashuang@commotec.com.tw,6,121.5221295,25.0538943
C2110121046,9:00,,松山區,台北市松山區南京東路四段130號9樓之1,台北市松山區南京東路四段130號9樓之1,,南港區,經貿二66號,,,0213705714,0.22,月結,55.0,否,55.0,,,0,,0,,0,1.0,50,2.0,100,,0,,0,,0,,0,,0,,0,,0,,0,,0,,0,,0,,0,,0,,0,,0,,0,,0,,0,205,10,0,,三聯式,全國公證檢驗-紡織部,12369971.0,23,22,100.0,105.0,,C2110130310,,0,0,0,內湖特區,信義區,sarah.chen@intertek.com,9,121.555723,25.0513946
C2110121037,9:00,,大安區,大安區敦化南路二段77號10F-1B,台北市大安區敦化南路二段77號10F-1B,,大安區,仁愛四118,,,0213739364,0.9,月結,80.0,是,80.0,,,0,,0,,0,,0,,0,,0,,0,,0,,0,,0,,0,,0,,0,,0,,0,,0,,0,,0,,0,,0,,0,,0,,0,80,4,0,,三聯式,台灣安達企業行,1355893.0,99,21,0.0,80.0,1.0,C2110130314,,0,0,0,松山區,板橋區,yyy.toofast@gmail.com,10,121.5492421,25.0302128
C2110121031,9:00,,中山區,臺北市中山區南京東路二段123號14樓,臺北市中山區南京東路二段123號14樓,,大安區,復興南二151,,,0213845371,3@.5,月結,100.0,否,100.0,1.0,,0,,0,,0,2.0,100,2.0,100,,0,,0,,0,,0,,0,,0,,0,,0,,0,,0,,0,,0,,0,,0,,0,,0,,0,,0,300,15,0,,三聯式,群光電子-CM開發處,20954200.0,501,23,150.0,150.0,,C2110130319,,0,0,0,重莊特區,大直區,(付現不發MAIL) teresa_tsai@chicony.com.tw,14,121.5340112,25.0522623
C2110121032,9:00,,內湖特區,台北市內湖區瑞光路513巷33號8樓,台北市內湖區瑞光路513巷33號8樓,,大直區,中山區樂群二路178號2樓,,,0213554214,2.5,月結,120.0,否,120.0,1.0,,0,,0,,0,,0,,0,,0,,0,,0,,0,,0,,0,,0,,0,,0,,0,,0,,0,,0,,0,,0,,0,,0,,0,120,6,0,,三聯式,匠運企業有限公司,21256457.0,66,31,30.0,90.0,1.0,C2110130308,,0,0,0,大同區,汐止區,queenie.hrs@uniquearts.com.tw,8,121.5703027,25.0798158
C2110121028,9:00,,信義區,台北市信義區基隆路一段180號8樓,台北市信義區基隆路一段180號8樓,,板橋區,新北市板橋區漢生東路73巷29號1F,,,0213134827,22.5,月結,120.0,否,120.0,1.0,,0,,0,,0,,0,,0,,0,,0,,0,,0,,0,,0,,0,,0,,0,,0,,0,,0,,0,,0,,0,,0,,0,,0,120,6,0,,三聯式,匠運企業有限公司,21256457.0,69,506,30.0,90.0,1.0,C2110130307,,0,0,0,信義區,汐止區,queenie.hrs@uniquearts.com.tw,8,121.5648608,25.04233
C2110121022,9:00,,中山區,台北市復興北路150號11樓之8,台北市復興北路150號11樓之8,,南港區,經貿二188號,,,0213807557,0.5,月結,55.0,否,55.0,,,0,,0,,0,,0,,0,,0,,0,,0,,0,,0,,0,,0,,0,,0,,0,,0,,0,,0,,0,,0,,0,,0,,0,55,3,0,,三聯式,捷喜多媒體數位股份有限公司,53327552.0,60,710,25.0,30.0,1.0,C2110130341,,0,0,0,松山區,中山區,cathy.yen@juksy.com;amy.chen@juksy.com;tracy.lin@juksy.com,11,121.5436926,25.0528797
C2110121019,9:00,,新店區,新店區寶橋路235巷123號7樓,新北市新店區寶橋路235巷123號7樓,,重莊特區,新北市新莊區五工五路28號3樓,,,0213749258,22.5,月結,110.0,否,110.0,1.0,,0,,0,,0,,0,,0,,0,,0,,0,,0,,0,,0,,0,,0,,0,,0,,0,,0,,0,,0,,0,,0,1.0,10,,0,120,6,0,,三聯式,資拓宏宇國際股份有限公司,28859051.0,505,21,40.0,80.0,1.0,C2110130304,,0,0,0,松山區,板橋區,annie.hsu@iisigroup.com;lynn.wu@iisigroup.com; eva.kuo@iisigroup.com,7,121.5508534,24.9834571
C2110120381,9:00,,中山區,中山區天祥路45號2樓,台北市中山區天祥路45號2樓,,中山區,台北市中山區松江路3號10樓,,,0213857795,2.5,預購點數,110.0,否,110.0,1.0,,0,,0,,0,,0,,0,,0,,0,,0,,0,,0,,0,,0,,0,,0,,0,,0,,0,,0,,0,,0,,0,,0,,0,110,6,0,,三聯式,佑松企管顧問有限公司,80455093.0,231,218,30.0,80.0,,C2110130303,,0,0,0,中正區,永和區,nieeye@gmail.com,2,121.5211361,25.0620534
C2110121034,9:00,,大同區,台北市大同區華陰街137號1樓,台北市大同區華陰街137號1樓,,重莊特區,新北市三重區光復路一段88-10號4樓,,,0213807500,0.5,月結,55.0,否,55.0,,,0,,0,,0,,0,,0,,0,,0,,0,,0,,0,,0,,0,,0,,0,,0,,0,,0,,0,,0,,0,,0,,0,,0,55,3,0,,三聯式,捷喜多媒體數位股份有限公司,53327552.0,60,71,25.0,30.0,1.0,C2110130306,,0,0,0,松山區,大安區,cathy.yen@juksy.com;amy.chen@juksy.com;tracy.lin@juksy.com,1,121.5161106,25.0501802
C2110050277,9:00,,文山區,木柵路三段69號12樓   (警衛室取),台北市木柵路三段69號12樓   (警衛室取),,松山區,台北市松山區八德路四段315號,,,0213859032,3@.5,月結,80.0,否,80.0,1.0,,0,,0,,0,,0,,0,,0,,0,,0,,0,,0,,0,,0,,0,,0,,0,,0,,0,,0,,0,,0,,0,,0,,0,80,4,0,707,三聯式,元大商業銀行股份有限公司,86517315.0,509,502,40.0,40.0,,C2110130302,,0,0,0,新莊區,中和區,chyang@yuanta.com,12,121.566707,24.988706
C2110130052,9:01,,松山區,台北市松山區民生東路三段156號17F(專線是7742+分機),台北市松山區民生東路三段156號17F(專線是7742+分機),,信義區,松智路1號,,,0213649807,0.2,月結,55.0,是,55.0,,,0,,0,,0,,0,,0,,0,,0,,0,,0,,0,1.0,40,,0,,0,,0,,0,,0,,0,,0,,0,,0,,0,,0,,0,95,5,0,,三聯式,瑞奧股份有限公司,54225569.0,66,76,30.0,50.0,1.0,C2110130301,99.0,15,0,0,大同區,大安區,katie@pressplay.cc;budin@pressplay.cc,17,121.5477531,25.0573596
C2110130054,9:02,,板橋區,新北市板橋區中山路一段161號1樓,新北市板橋區中山路一段161號1樓,,信義區,台北市信義區東興路65號2樓,,,0213787094,5.5,月結,55.0,否,55.0,1.0,,0,,0,,0,,0,,0,,0,,0,,0,,0,,0,,0,,0,,0,,0,,0,,0,,0,,0,,0,,0,,0,,0,,0,55,3,0,,三聯式,元大證券(股)有限公司,97160609.0,29,13,30.0,25.0,,C2110130299,,0,0,0,信義區,中山區,in@yuanta.com;jennywu@yuanta.com,1,121.4655369,25.0122763
C2110130050,9:02,,信義區,台北市信義區信義路五段7號41F,台北市信義區信義路五段7號41F,,松山區,台北市松山區民生東路三段156號17F(專線是7742+分機),,,0213792412,3@.5,月結,400.0,是,400.0,1.0,,0,,0,,0,,0,,0,,0,,0,,0,,0,,0,,0,,0,,0,,0,,0,,0,,0,,0,,0,,0,,0,,0,,0,400,20,0,,三聯式,群創管理顧問有限公司,28833460.0,722,205,30.0,370.0,1.0,C2110130297,,0,0,0,中正區,其他區,yutinglin115@gmail.com,41,121.5645389,25.033976
C2110130053,9:02,,內湖特區,台北市內湖區瑞光路513巷26號5樓-2,台北市內湖區瑞光路513巷26號5樓-2,,永和區,新北市永和區福和路184號4樓,,,0213746275,5.5,月結,110.0,否,110.0,1.0,,0,,0,,0,,0,,0,,0,,0,,0,,0,,0,,0,,0,,0,,0,,0,1.0,30,1.0,30,,0,,0,,0,,0,,0,,0,170,9,0,,三聯式,資拓宏宇國際股份有限公司,28859051.0,21,66,110.0,60.0,1.0,C2110130296,,0,0,0,板橋區,大同區,annie.hsu@iisigroup.com;lynn.wu@iisigroup.com; eva.kuo@iisigroup.com,5,121.5696888,25.0797065
C2110130055,9:03,,松山區,台北市松山區光復北路35號7F,台北市松山區光復北路35號7F,,大安區,潮州116,,,0213649806,0.5,月結,200.0,否,200.0,,,0,,0,,0,,0,,0,,0,,0,,0,,0,,0,,0,,0,,0,,0,,0,,0,,0,,0,,0,,0,,0,,0,,0,200,10,0,,三聯式,瑞奧股份有限公司,54225569.0,66,509,30.0,170.0,1.0,C2110130298,,0,0,0,大同區,樹林區,katie@pressplay.cc;budin@pressplay.cc,7,121.5581635,25.0499721
C2110130056,9:04,,中山區,台北市中山北路二段45巷21-1號2F,台北市中山北路二段45巷21-1號2F,,板橋區,新北市板橋區三民路二段31號9樓,,,0213607795,2.5,月結,230.0,否,230.0,1.0,,0,,0,,0,,0,,0,,0,,0,,0,,0,,0,,0,,0,,0,,0,,0,,0,,0,,0,,0,,0,,0,,0,,0,230,12,0,,三聯式,匠運企業有限公司,21256457.0,39,31,120.0,90.0,1.0,C2110130294,99.0,20,0,0,天母區,汐止區,queenie.hrs@uniquearts.com.tw,2,121.5237836,25.05452
C2110130059,9:05,,中和區,新北市中和區中正路957號2樓,新北市中和區中正路957號2樓,,蘆洲區,新北市蘆洲區中正路437號之1,,,0213762047,3@.5,預購點數,55.0,否,55.0,1.0,,0,,0,,0,,0,,0,,0,,0,,0,,0,,0,,0,,0,,0,,0,,0,,0,,0,,0,,0,,0,,0,,0,,0,55,3,0,,三聯式,林軒T/S-林淑娥,,708,503,30.0,25.0,,C2110130293,,0,0,0,中正區,中山區,shuer16888@gmail.com,2,121.4831611,25.0071381
C2110130061,9:06,,內湖特區,內湖區基湖路35巷16號5樓,台北市內湖區基湖路35巷16號5樓,,重莊特區,H02新北市三重區光復路二段69號 @收送都在後門收發,,,0213817913,2.5,月結,55.0,否,55.0,1.0,,0,,0,,0,,0,,0,,0,,0,,0,,0,,0,,0,,0,,0,,0,,0,,0,,0,,0,,0,,0,,0,,0,,0,55,3,0,,三聯式,翰新實業股份有限公司,22022289.0,66,66,20.0,35.0,1.0,C2110130291,,0,0,0,中山區,大同區,snow@hst.com.tw,5,121.5663002,25.0792646
C2110130065,9:07,,信義區,信義區莊敬路168號1F櫃檯,台北市信義區莊敬路168號1F櫃檯,,內湖區,內湖區內湖路一段392號6樓,,,0213649808,0.5,月結,80.0,否,80.0,,,0,,0,,0,,0,,0,,0,,0,,0,,0,,0,,0,,0,,0,,0,,0,,0,,0,,0,,0,,0,,0,,0,,0,80,4,0,,三聯式,瑞奧股份有限公司,54225569.0,66,23,30.0,50.0,1.0,C2110130290,,0,0,0,大同區,大直區,katie@pressplay.cc;budin@pressplay.cc,1,121.5611392,25.0317005
C2110130062,9:07,,中山區,台北市中山區南京東路二段111號4F(一樓取),台北市中山區南京東路二段111號4F(一樓取),,中正區,羅斯斯二100號23樓,,,0213860679,22.5,月結,150.0,否,150.0,1.0,,0,,0,,0,,0,,0,,0,,0,,0,,0,,0,,0,,0,,0,,0,,0,,0,,0,,0,,0,,0,,0,,0,,0,150,8,0,,三聯式,星醫美學股份有限公司,53317111.0,71,39,30.0,120.0,1.0,C2110130289,,0,0,0,大安區,北投區,star.101@starnic.com.tw,4,121.5334644,25.0522484
C2110130064,9:08,,松山區,台北市松山區光復南路35號6樓之1,台北市松山區光復南路35號6樓之1,,中正區,中正區忠孝西路一段4號14樓,,,0213670678,3@.5,月結,50.0,否,50.0,1.0,,0,,0,,0,,0,,0,,0,,0,,0,,0,,0,,0,,0,,0,,0,,0,,0,,0,,0,,0,,0,,0,,0,,0,50,3,0,CX,三聯式,台灣無印良品股份有限公司,80518858.0,510,367,25.0,25.0,1.0,C2110130287,,0,0,0,萬華區,松山區,logistics@mail.muji.tw,6,121.5579705,25.0465838
C2110130067,9:09,,信義區,台北市信義區基隆路一段200號10F,台北市信義區基隆路一段200號10F,,大安區,忠東路四212,,,0213858301,22.5,月結,48.0,否,48.0,1.0,,0,,0,,0,,0,,0,,0,,0,,0,,0,,0,,0,,0,,0,,0,,0,,0,,0,,0,,0,,0,,0,,0,,0,48,2,0,整銷推廣組,三聯式,國家表演藝術中心,38533239.0,722,722,24.0,24.0,1.0,C2110130288,,0,0,0,中正區,中正區,yuny0819@mail.npac-ntch.org,10,121.5634423,25.0402449
C2110130072,9:10,,北投區,北投區珠海路133巷10號(找1F管理室吳組長取,台北市北投區珠海路133巷10號(找1F管理室吳組長取,,內湖特區,台北市內湖區瑞光路212號9樓,,,0213846751,2.22,月結,120.0,否,120.0,1.0,,0,,0,,0,,0,,0,,0,,0,,0,,0,,0,,0,,0,,0,,0,,0,,0,,0,,0,,0,,0,,0,,0,,0,120,6,0,382D00,三聯式,台新國際商業銀行股份有限公司,86519539.0,270,71,100.0,20.0,1.0,C2110130286,,0,0,0,迴龍區,大安區,annlee@taishinbank.com.tw,None,121.5071679,25.1424634
C2110130073,9:12,,中和區,新北市中和區建一路90號1樓(3202,新北市中和區建一段路90號1樓(3202,,重莊特區,重新五609巷,,,0213862208,22.22,月結,45.0,否,45.0,1.0,,0,,0,,0,,0,,0,,0,,0,,0,,0,,0,,0,,0,,0,,0,,0,,0,,0,,0,,0,,0,,0,,0,,0,45,2,0,440735,三聯式,台新國際商業銀行股份有限公司,86519539.0,22,76,20.0,25.0,1.0,C2110130285,,0,0,0,信義區,中山區,annlee@taishinbank.com.tw,1,121.4853103,24.9962178
C2110130074,9:12,,大安區,台北市羅斯福路二段75之1號10樓之1,台北市羅斯福路二段75之1號10樓之1,,大安區,敦南二289號3樓,,,0213862209,2.5,月結,55.0,否,55.0,1.0,,0,,0,,0,,0,,0,,0,,0,,0,,0,,0,,0,,0,,0,,0,,0,,0,,0,,0,,0,,0,,0,,0,,0,55,3,0,,三聯式,睿濠實業有限公司,24532610.0,22,13,30.0,25.0,1.0,C2110130284,,0,0,0,信義區,松山區,cara@ocg.tw;zin@ne-sense.com;amyyu@ne-sense.com,10,121.5231783,25.0264883
C2110130075,9:13,,大安區,台北市大安區和平東路一段59號11樓之1,台北市大安區和平東路一段59號11樓之1,,信義區,信義區富陽街79號1樓,,,0213331308,0.5,月結,110.0,否,110.0,,,0,,0,,0,,0,1.0,50,,0,,0,,0,,0,,0,,0,,0,,0,,0,,0,,0,1.0,30,,0,,0,,0,,0,1.0,10,,0,200,10,0,,三聯式,資拓宏宇國際股份有限公司,28859051.0,505,21,65.0,135.0,1.0,C2110130282,,0,0,0,松山區,板橋區,annie.hsu@iisigroup.com;lynn.wu@iisigroup.com; eva.kuo@iisigroup.com,11,121.524434,25.0271208
C2110130081,9:14,,文山區,台北市中正區永春街204號1樓,台北市中正區永春街204號1樓,,中山區,台北市中山區民權東路一段72號11樓之11(之12),,,0213775080,22.5,月結,120.0,否,120.0,1.0,,0,,0,,0,,0,,0,,0,,0,,0,,0,,0,,0,,0,,0,,0,,0,,0,,0,,0,,0,,0,,0,,0,,0,120,6,0,,三聯式,苗林實業股份有限公司,53789651.0,506,510,90.0,30.0,1.0,C2110130280,,0,0,0,汐止區,萬華區,ga@miaolin.com.tw,1,121.526635,25.0156009
C2110130078,9:14,,大安區,台北市大安區仁愛路4段151巷38號2樓,台北市大安區仁愛路4段151巷38號2樓,,士林區,台北市士林區華聲街41號,,,0213758579,3@.5,月結,80.0,否,80.0,1.0,,0,,0,,0,,0,,0,,0,,0,,0,,0,,0,,0,,0,,0,,0,,0,,0,,0,,0,,0,,0,,0,,0,,0,80,4,0,716,三聯式,元大商業銀行股份有限公司,86517315.0,65,270,40.0,40.0,,C2110130281,,0,0,0,內湖區,新莊區,chyang@yuanta.com,2,121.5515536,25.040598
C2110130076,9:14,,三重區,三重區新北大道二段252號7樓,新北市三重區新北大道二段252號7樓,,大安區,台北市大安區光復南路432號10樓,,,0213820400,3@.5,預購點數,55.0,否,55.0,1.0,,0,,0,,0,,0,,0,,0,,0,,0,,0,,0,,0,,0,,0,,0,,0,,0,,0,,0,,0,,0,,0,,0,,0,55,3,0,,三聯式,良人協影業有限公司,42989013.0,60,32,25.0,30.0,1.0,C2110130279,,0,0,0,松山區,中山區,judy.chiang@thirdman.com.tw,7,121.4669228,25.0616797
C2110130079,9:15,,中正區,忠孝東路二段130號8F-1,台北市忠孝東路二段130號8F-1,,三重區,三重區重陽路三段99號3樓,,,0213820399,3@.5,預購點數,55.0,否,55.0,1.0,,0,,0,,0,,0,,0,,0,,0,,0,,0,,0,,0,,0,,0,,0,,0,,0,,0,,0,,0,,0,,0,,0,,0,55,3,0,,三聯式,良人協影業有限公司,42989013.0,60,503,25.0,30.0,1.0,C2110130278,,0,0,0,松山區,中山區,judy.chiang@thirdman.com.tw,8,121.531806,25.042371
C2110130170,9:16,,中山區,台北市中山區民權東路一段72號11樓之11(之12),台北市中山區民權東路一段72號11樓之11(之12),,新店區,新北市新店區北新路1段86號16樓,,,0213845423,0.5,預購點數,55.0,否,55.0,,,0,,0,,0,,0,1.0,50,,0,,0,,0,,0,,0,,0,,0,,0,,0,,0,,0,,0,,0,,0,,0,,0,,0,,0,105,5,0,,三聯式,鍼還中醫診所,76623870.0,66,22,50.0,55.0,,C2110130283,,0,0,0,大同區,信義區,zh27200627@zhenhuan.org,11,121.5252317,25.0624022
C2110130082,9:16,,大同區,台北市大同區民權西路127號1樓,台北市大同區民權西路127號1樓,,中正區,羅斯福三275,,,0213665830,22.6,取付,65.0,否,65.0,1.0,,0,,0,,0,,0,,0,,0,,0,,0,,0,,0,,0,,0,,0,,0,,0,,0,,0,,0,,0,,0,,0,1.0,10,,0,75,4,79,,三聯式,香港商大永紙通商(香港)有限公司,89404841.0,76,66,35.0,30.0,1.0,C2110130276,,0,0,0,中山區,中山區,daiei@ms31.hinet.net,1,121.5172673,25.0631277
C2110130085,9:16,,內湖特區,台北市內湖區洲子街108號8樓,台北市內湖區洲子街108號8樓,,中正區,台北市中正區博愛路72號1樓,,,0213705710,22.6,送付,90.0,否,90.0,1.0,,0,,0,,0,,0,,0,,0,,0,,0,,0,,0,,0,,0,,0,,0,,0,,0,,0,,0,,0,,0,,0,1.0,10,1.0,10,120,6,126,,二聯式,,,23,506,40.0,60.0,,C2110130274,,0,0,200,內湖特區,南港區,camti150@gmail.com,8,121.5696172,25.0804492
C2110130080,9:16,,大同區,台北市大同區民權西路127號1樓,台北市大同區民權西路127號1樓,,中正區,許昌17,,,0213755370,0.2,月結,55.0,否,55.0,,,0,,0,,0,,0,,0,,0,,0,,0,,0,,0,,0,,0,,0,,0,,0,,0,,0,,0,,0,,0,,0,,0,1.0,10,65,3,0,家外媒體業務123,三聯式,東森新媒體控股股份有限公司,24328949.0,505,367,20.0,45.0,1.0,C2110130273,,0,0,0,松山區,信義區,a468714@ettoday.net,1,121.5172673,25.0631277
C2110130086,9:17,,中山區,台北市中山區松江路168號9F,台北市中山區松江路168號9F,,大安區,仁愛四376,,,0213806101,3@.5,月結,80.0,否,80.0,1.0,,0,,0,,0,,0,,0,,0,,0,,0,,0,,0,,0,,0,,0,,0,,0,,0,,0,,0,,0,,0,,0,,0,,0,80,4,0,,三聯式,台灣英聯食品飲料股份有限公司,27553855.0,76,23,30.0,50.0,1.0,C2110130272,,0,0,0,中山區,大直區,TWO.taiwan@twiningsovo.com,9,121.532763,25.05581
C2110130091,9:18,,大安區,台北市大安區安和路一段27號14樓,台北市大安區安和路一段27號14樓,,信義區,台北市信義區東興路65號2樓,,,0213641848,0.5,預購點數,55.0,否,55.0,,,0,,0,,0,,0,,0,,0,,0,,0,,0,,0,,0,,0,,0,,0,,0,,0,,0,,0,,0,,0,,0,,0,,0,55,3,0,,三聯式,智岩法律事務所,26329845.0,56,609,20.0,35.0,,C2110130270,,0,0,0,大安區,中正區,wisestonewin@gmail.com,14,121.5504728,25.0393534
C2110130093,9:19,,中和區,板南路492號6樓,新北市板南路492號6樓,,內湖區,台北市內湖區內湖路一段120巷13號3樓之1,,,0213500406,0.5,預購點數,55.0,否,55.0,,,0,,0,,0,,0,,0,,0,,0,,0,,0,,0,,0,,0,,0,,0,,0,,0,,0,,0,,0,,0,,0,,0,,0,55,3,0,,三聯式,日商麒麟技術股份有限公司,27930921.0,13,503,25.0,30.0,,C2110130268,,0,0,0,松山區,中山區,miyabi@kirineng.tw,6,121.4860949,25.0075543
C2110130090,9:19,,中山區,臺北市中山區民權東路三段2號12樓,臺北市中山區民權東路三段2號12樓,,松山區,光復南35,,,0213800797,3@.5,月結,55.0,否,55.0,1.0,,0,,0,,0,,0,,0,,0,,0,,0,,0,,0,,0,,0,,0,,0,,0,,0,,0,,0,,0,,0,,0,,0,,0,55,3,0,,三聯式,錦達貿易有限公司,84119798.0,66,710,25.0,30.0,1.0,C2110130266,,0,0,0,大同區,大同區,jendarco@gmail.com,12,121.5375539,25.0621615
C2110130092,9:20,,大安區,台北市大安區安和路一段27號14樓,台北市大安區安和路一段27號14樓,,內湖區,台北市內湖區內湖路一段120巷15弄25號4樓,,,0213691897,22.5,預購點數,80.0,否,80.0,1.0,,0,,0,,0,1.0,50,,0,,0,,0,,0,,0,,0,,0,,0,,0,,0,,0,,0,,0,,0,,0,,0,,0,,0,,0,130,7,0,,三聯式,飛信國際有限公司,23286175.0,32,727,55.0,75.0,1.0,C2110130267,,0,0,0,松山區,內湖區,donnams74@livemail.tw,14,121.5504728,25.0393534
C2110130095,9:20,,大安區,台北市大安區仁愛路四段308號7樓,台北市大安區仁愛路四段308號7樓,,中正區,羅二,,,0213861246,3@.5,月結,150.0,否,150.0,1.0,,0,,0,,0,,0,,0,,0,,0,,0,,0,,0,,0,,0,,0,,0,,0,,0,,0,,0,,0,,0,,0,,0,,0,150,8,0,,三聯式,飛躍文創股份有限公司,53328686.0,57,2,30.0,120.0,1.0,C2110130263,,0,0,0,大安區,蘆洲區,kiki@jump-media.com;felix.yu@jump-media.com,7,121.554779,25.0374259
C2110130099,9:22,,中正區,臺北市中正區忠孝西路一段4號16樓,臺北市中正區忠孝西路一段4號16樓,,信義區,台北市信義區忠孝東路五段68號8樓,,,0213676909,3@.5,月結,50.0,否,50.0,1.0,,0,,0,,0,,0,,0,,0,,0,,0,,0,,0,,0,,0,,0,,0,,0,,0,,0,,0,,0,,0,,0,,0,,0,50,3,0,ML,三聯式,台灣無印良品股份有限公司,80518858.0,56,367,25.0,25.0,1.0,C2110130262,,0,0,0,大安區,松山區,logistics@mail.muji.tw,16,121.5185251,25.045696
C2110130097,9:23,,永和區,永和區水源街21巷3號1F,新北市永和區水源街21巷3號1F,,中山區,建國北路一96,,,0213862340,9.5,預購點數,200.0,否,200.0,1.0,,0,,0,,0,,0,,0,,0,,0,,0,,0,,0,,0,,0,,0,,0,,0,,0,,0,,0,,0,,0,,0,,0,,0,200,10,0,6210,三聯式,友俊國際股份有限公司,22340658.0,727,509,30.0,170.0,,C2110130260,,0,0,0,內湖特區,樹林區,adm_tpe02@eugene-elec.com,1,121.5115566,25.0045071
C2110130105,9:25,,松山區,民生東路五段151號(管理室取件,台北市民生東路五段151號(管理室取件,,松山區,南京東路四16,,,0213794444,3.5,月結,50.0,否,50.0,1.0,,0,,0,,0,,0,,0,,0,,0,,0,,0,,0,,0,,0,,0,,0,,0,,0,,0,,0,,0,,0,,0,,0,,0,50,3,0,,三聯式,西園醫療社團法人西園醫院,72975590.0,510,609,25.0,25.0,1.0,C2110130257,,0,0,0,萬華區,中正區,aling@westgarden.com.tw;Jill@westgarden.com.tw,None,121.5621851,25.059107
C2110130100,9:25,,松山區,民權東路三段178號10樓 @午休12~1,台北市民權東路三段178號10樓 @午休12~1,,南港區,園區街3-2,,,0213762045,2.5,預購點數,55.0,否,55.0,1.0,,0,,0,,0,,0,,0,,0,,0,,0,,0,,0,,0,,0,,0,,0,,0,,0,,0,,0,,0,,0,,0,,0,,0,55,3,0,,三聯式,瑞觀國際有限公司,53402778.0,708,609,20.0,35.0,,C2110130259,,0,0,0,大安區,中正區,jchen520@yahoo.com.tw;nan@jsense.com.tw,10,121.5494638,25.0613757
C2110130107,9:26,,大安區,台北市大安區復興南路一段390號11樓1107室,台北市大安區復興南路一段390號11樓1107室,,中正區,台北市中正區中山北路一段2號7樓,,,0213862206,9.22-,月結,45.0,是,45.0,1.0,,0,,0,,0,,0,,0,,0,,0,,0,,0,,0,,0,,0,,0,,0,,0,,0,,0,,0,,0,,0,,0,,0,,0,45,2,0,311300,三聯式,台新國際商業銀行股份有限公司,86519539.0,22,76,25.0,20.0,1.0,C2110130258,,0,0,0,信義區,中山區,annlee@taishinbank.com.tw,11,121.5433038,25.033701
C2110130174,9:27,,松山區,臺北市松山區富錦街116號1樓,臺北市松山區富錦街116號1樓,,三重區,新北市三重區三民街102號4樓,,,0213862207,2.6,取付,65.0,否,65.0,1.0,,0,,0,,0,,0,,0,,0,,0,,0,,0,,0,,0,,0,,0,,0,,0,,0,,0,,0,,0,,0,,0,,0,,0,65,3,68,,三聯式,遠雄營造股份有限公司,5159128.0,22,505,30.0,25.0,,C2110130255,,0,0,0,信義區,松山區,ivy@mail.obayashi.com.tw,1,121.552883,25.0596752
C2110130103,9:27,,大安區,台北市大安區敦化南路二段99號15F,台北市大安區敦化南路二段99號15F,,松山區,南東三 36,,,0213858203,3.22,月結,60.0,否,60.0,1.0,,0,,0,,0,,0,,0,,0,,0,,0,,0,,0,,0,,0,,0,,0,,0,,0,,0,,0,,0,,0,,0,,0,,0,60,3,0,381300,三聯式,台新國際商業銀行股份有限公司,86519539.0,2,76,40.0,20.0,1.0,C2110130254,,0,0,0,三重區,中山區,annlee@taishinbank.com.tw,15,121.5494544,25.0288227
C2110130116,9:29,,中正區,台北市中正區新生南路一段50號4樓之5,台北市中正區新生南路一段50號4樓之5,,大同區,民權西路69號2樓,,,0213851661,2.5,月結,80.0,否,80.0,1.0,,0,,0,,0,,0,,0,,0,,0,,0,,0,,0,,0,,0,,0,,0,,0,1.0,30,,0,,0,,0,,0,,0,,0,,0,110,6,0,,三聯式,台灣中小企業銀行建國分行,1194807.0,31,76,80.0,30.0,,C2110130253,,0,0,0,南港區,中山區,b081@mail.tbb.com.tw,4,121.532479,25.0418525
C2110130068,9:30,,大安區,和平東路一段179號1樓,台北市和平東路一段179號1樓,,重莊特區,五股區五工六路30號,,,0213768319,3.5,月結,80.0,否,80.0,1.0,,0,,0,,0,,0,,0,,0,,0,,0,,0,,0,,0,,0,,0,,0,,0,,0,,0,,0,,0,,0,,0,1.0,10,,0,90,5,0,730,三聯式,元大商業銀行股份有限公司,86517315.0,32,509,40.0,50.0,,C2110130252,,0,0,0,松山區,新莊區,chyang@yuanta.com,1,121.5329414,25.0265083
C2110130069,9:30,,板橋區,板橋區文化二285號9樓,新北市板橋區文化路二段285號9樓,,中山區,台北市中山區南京東路二段77號7樓(收發在B1),,,0213845512,2.22,月結,45.0,是,45.0,1.0,,0,,0,,0,,0,,0,,0,,0,,0,,0,,0,,0,,0,,0,,0,,0,,0,,0,,0,,0,,0,,0,,0,,0,45,2,0,318100,三聯式,台新國際商業銀行股份有限公司,86519539.0,503,76,25.0,20.0,1.0,C2110130251,,0,0,0,中山區,中山區,annlee@taishinbank.com.tw,9,121.4714691,25.0293024
C2110130049,9:30,,內湖特區,台北市內湖區瑞光路423號9樓實驗室,台北市內湖區瑞光路423號9樓實驗室,,天母區,天玉街38巷23號,,,0213795438,2.22,月結,45.0,否,45.0,1.0,,0,,0,,0,,0,,0,,0,,0,,0,,0,,0,,0,,0,,0,,0,,0,,0,,0,,0,,0,,0,,0,,0,,0,45,2,0,318100,三聯式,台新國際商業銀行股份有限公司,86519539.0,71,503,20.0,25.0,1.0,C2110130250,,0,0,0,大安區,中山區,annlee@taishinbank.com.tw,9,121.5711559,25.0782999
C2110130039,9:30,,中山區,台北市中山區朱崙街60號7樓,台北市中山區朱崙街60號7樓,,大同區,台北市大同區長安西路117號4樓,,,0213754476,2.5,月結,80.0,否,80.0,1.0,,0,,0,,0,,0,,0,,0,,0,,0,,0,,0,,0,,0,,0,,0,,0,,0,,0,,0,,0,,0,,0,,0,,0,80,4,0,,三聯式,簡單行動支付股份有限公司,54352706.0,31,56,50.0,30.0,1.0,C2110130247,,0,0,0,南港區,大安區,purchase@ezpay.com.tw,7,121.5435492,25.0498442
C2110121045,9:30,,中山區,台北市中山區復興北路80號4樓,台北市中山區復興北路80號4樓,,萬華區,台北市萬華區中華路1段2號3樓,,,0213800333,3@.5,月結,110.0,否,110.0,1.0,,0,,0,,0,,0,,0,,0,,0,,0,,0,,0,,0,,0,,0,,0,,0,,0,,0,,0,,0,,0,,0,,0,,0,110,6,0,,三聯式,飛躍文創股份有限公司,53328686.0,2,367,80.0,30.0,1.0,C2110130245,,0,0,0,三重區,信義區,kiki@jump-media.com;felix.yu@jump-media.com,4,121.5437927,25.0510261
C2110121033,9:30,,中和區,中和區中山路二段417號7樓,新北市中和區中山路二段417號7樓,,中和區,中和自立路16巷1號4樓,,,0213585610,3.5,預購點數,55.0,否,55.0,1.0,,0,,0,,0,,0,,0,,0,,0,,0,,0,,0,,0,,0,,0,,0,,0,,0,,0,,0,,0,,0,,0,,0,,0,55,3,0,,三聯式,謙翊企業有限公司,53927459.0,66,22,30.0,25.0,1.0,C2110130244,,0,0,0,大同區,大安區,no7store@hotmail.com,7,121.4857113,25.0047712
C2110121017,9:30,,中和區,新北市中和區建三路50號2樓,新北市中和區建三段路50號2樓,,中正區,台北市中正區羅斯福路二段136號11樓,,,0213814562,22.5,月結,55.0,否,55.0,1.0,,0,,0,,0,,0,,0,,0,,0,,0,,0,,0,,0,,0,,0,,0,,0,,0,,0,,0,,0,,0,,0,,0,,0,55,3,0,803328,三聯式,SONY總公司,23529362.0,503,708,20.0,35.0,1.0,C2110130243,,0,0,0,中山區,中正區,Jo.Wu@sony.com;accounting@sony.com.tw,2,121.4724134,25.0010915
C2110130117,9:31,,松山區,松山區敦化北路153-2號2樓(上樓取),台北市松山區敦化北路153-2號2樓(上樓取),,信義區,台北市信義區松德路36號5樓,,,0213206332,22.5,預購點數,80.0,否,80.0,1.0,,0,,0,,0,,0,,0,,0,,0,,0,,0,,0,,0,,0,,0,,0,,0,,0,,0,,0,,0,,0,,0,,0,,0,80,4,0,,三聯式,合作金庫股份有限公司大同分公司,70797000.0,710,501,30.0,50.0,,C2110130240,,0,0,0,大同區,重莊特區,paywen777@tcb-bank.com.tw,2,121.5493566,25.054211
C2110130147,9:31,,大安區,台北市大安區復興南路一段203號10樓,台北市大安區復興南路一段203號10樓,,中正區,台北市中正區開封街一段27號6樓,,,0213774333,3.6(10/14已和(367)確認收現$68元),取付,65.0,否,65.0,1.0,,0,,0,,0,,0,,0,,0,,0,,0,,0,,0,,0,,0,,0,,0,,0,,0,,0,,0,,0,,0,,0,,0,,0,65,3,68,,三聯式,元大寶來證券股份有限公司信義分公司,28416599.0,367,503,30.0,25.0,,C2110130241,,0,0,0,信義區,中山區,leolin@yuanta.com,10,121.5439937,25.0395949
C2110130133,9:34,,松山區,台北市松山區光復南路35號6樓之1,台北市松山區光復南路35號6樓之1,,板橋區,板橋區三民路二段37號25樓之2,,,0213793418,2.5,預購點數,80.0,否,80.0,1.0,,0,,0,,0,,0,,0,,0,,0,,0,,0,,0,,0,,0,,0,,0,,0,,0,,0,,0,,0,,0,,0,,0,,0,80,4,0,,三聯式,傑吟貿易,9426219.0,501,57,50.0,30.0,1.0,C2110130239,,0,0,0,重莊特區,大安區,sabrina@jyt.com.tw,6,121.5579705,25.0465838
C2110130137,9:35,,松山區,臺北市松山區南京東路五段202號7樓之5,臺北市松山區南京東路五段202號7樓之5,,萬華區,台北市萬華區中華路一段74號7樓,,,0213846753,0.5,月結,230.0,否,230.0,,,0,,0,,0,,0,,0,,0,,0,,0,,0,,0,,0,,0,,0,,0,,0,,0,,0,,0,,0,,0,,0,,0,,0,230,12,0,,三聯式,金漢實業股份有限公司,86199450.0,270,2,90.0,120.0,,C2110130238,99.0,20,0,0,新莊區,五股區,kitty@khm89.com.tw;sara@khm89.com.tw,7,121.5646179,25.0512161
C2110130135,9:35,,松山區,台北市松山區南京東路四段130號9樓之1,台北市松山區南京東路四段130號9樓之1,,大安區,光復南438號9樓,,,0213684767,3@.5,月結,50.0,是,125.0,1.0,,0,,0,,0,,0,,0,,0,,0,,0,,0,,0,,0,,0,,0,,0,,0,,0,,0,,0,,0,,0,,0,,0,,0,125,6,0,,三聯式,凌越生醫股份有限公司,27558248.0,736,736,50.0,75.0,,C2110130236,,0,0,0,中正區,信義區,amy.lin@ebs.com.tw,9,121.555723,25.0513946
C2110130134,9:35,,新莊區,新莊區福德三街70號3樓,新北市新莊區福德三街70號3樓,,三重區,重新路四97,,,0213861243,0.5,預購點數,55.0,否,55.0,,,0,,0,,0,,0,,0,,0,,0,,0,,0,,0,,0,,0,,0,,0,,0,,0,,0,,0,,0,,0,,0,,0,,0,55,3,0,,三聯式,二合一網路行銷(股)公司,16629999.0,57,76,25.0,30.0,,C2110130237,,0,0,0,大安區,中山區,ylchang21@gmail.com,3,121.4603668,25.0589285
C2110130136,9:35,,中正區,臺北市中正區臨沂街44巷5號2樓,臺北市中正區臨沂街44巷5號2樓,,中正區,台北市中正區北平東路7號,,,0213430374,5.5,月結,50.0,否,50.0,1.0,,0,,0,,0,,0,,0,,0,,0,,0,,0,,0,,0,,0,,0,,0,,0,,0,,0,,0,,0,,0,,0,,0,,0,50,3,0,,三聯式,依然好餐飲管理顧問股份有限公司,50796502.0,56,708,20.0,30.0,,C2110130234,,0,0,0,大安區,中正區,shmair2012@gmail.com,2,121.5286292,25.0373836
C2110130044,9:35,,中山區,中山區伊通街63號5樓,台北市中山區伊通街63號5樓,,大安區,台北市大安區復興南路二段236號3樓-5,,,0213577116,3.5,預購點數,55.0,否,55.0,1.0,,0,,0,,0,,0,,0,,0,,0,,0,,0,,0,,0,,0,,0,,0,,0,,0,,0,,0,,0,,0,,0,,0,,0,55,3,0,,三聯式,玩美獨衣企業有限公司,24937020.0,609,367,25.0,30.0,1.0,C2110130233,,0,0,0,中正區,信義區,uni152taipei@gmail.com,5,121.5349759,25.0514646
C2110130139,9:37,,內湖特區,台北市內湖區瑞光路423號8F出電梯旁邊的籃子裏面,台北市內湖區瑞光路423號8F出電梯旁邊的籃子裏面,,中正區,台北市中正區重慶南路一段83號7樓,,,0213818994,22.5,月結,55.0,否,55.0,1.0,,0,,0,,0,,0,,0,,0,,0,,0,,0,,0,,0,,0,,0,,0,,0,,0,,0,,0,,0,,0,,0,,0,,0,55,3,0,,三聯式,財團法人法律扶助基金會 法扶會,99624605.0,231,609,20.0,35.0,1.0,C2110130232,,0,0,0,大安區,中正區,sally@laf.org.tw;pauline_lee@laf.org.tw,8,121.5711559,25.0782999
C2110130140,9:37,,松山區,台北市松山區民生東路三段156號15F(專線是7742+分機),台北市松山區民生東路三段156號15F(專線是7742+分機),,板橋區,文化路二段285號-送18樓,,,0213845511,2.5-A,月結,55.0,否,55.0,1.0,,0,,0,,0,,0,,0,,0,,0,,0,,0,,0,,0,,0,,0,,0,,0,,0,,0,,0,,0,,0,,0,,0,,0,55,3,0,3625,三聯式,元大證券股份有限公司,97160609.0,503,57,25.0,30.0,1.0,C2110130235,,0,0,0,中山區,大安區,gjp071@yuanta.com,15,121.5477531,25.0573596
C2110130144,9:38,,大同區,台北市大同區承德路二段81號12樓,台北市大同區承德路二段81號12樓,,中山區,台北市中山區松江路3號10樓,,,0213784368,22.5,月結,50.0,否,50.0,1.0,,0,,0,,0,,0,,0,,0,,0,,0,,0,,0,,0,,0,,0,,0,,0,,0,,0,,0,,0,,0,,0,,0,,0,50,3,0,,三聯式,統一聖娜多堡股份有限公司,70790935.0,367,60,25.0,25.0,1.0,C2110130231,,0,0,0,信義區,松山區,s2091@semeur.com.tw,12,121.5184792,25.0560686
C2110130138,9:38,,松山區,松山區民族東路735號4樓-3,台北市松山區民族東路735號4樓-3,,內湖區,台北市內湖區康寧路三段185號3樓,,,0213862338,2.22,月結,45.0,是,45.0,1.0,,0,,0,,0,,0,,0,,0,,0,,0,,0,,0,,0,,0,,0,,0,,0,,0,,0,,0,,0,,0,,0,,0,,0,45,2,0,253950,三聯式,台新國際商業銀行股份有限公司,86519539.0,727,32,20.0,25.0,1.0,C2110130230,,0,0,0,內湖特區,松山區,annlee@taishinbank.com.tw,4,121.549057,25.0628985
C2110130143,9:39,,大同區,台北市長安西路106號9樓-3 (12:00-13:30午休,台北市長安西路106號9樓-3 (12:00-13:30午休,,重莊特區,五權七39,,,0213795437,9.22,月結,60.0,否,60.0,1.0,,0,,0,,0,,0,,0,,0,,0,,0,,0,,0,,0,,0,,0,,0,,0,,0,,0,,0,,0,,0,,0,,0,,0,60,3,0,311700,三聯式,台新國際商業銀行股份有限公司,86519539.0,71,506,20.0,40.0,1.0,C2110130226,,0,0,0,大安區,汐止區,annlee@taishinbank.com.tw,9,121.5654268,25.0329636
C2110130145,9:39,,松山區,臺北市松山區光復北路11巷31-1號4樓,臺北市松山區光復北路11巷31-1號4樓,,松山區,復興北231巷19號,,,0213861242,0.5,預購點數,55.0,否,55.0,,,0,,0,,0,,0,,0,,0,,0,,0,,0,,0,,0,,0,,0,,0,,0,,0,,0,,0,,0,,0,,0,,0,,0,55,3,0,,三聯式,米特交通運輸股份有限公司,35877364.0,57,722,20.0,35.0,,C2110130228,,0,0,0,大安區,中正區,eva@metetw.com,4,121.5588121,25.0498413
C2110130141,9:39,,中山區,台北市南京東路二段95號7F,台北市南京東路二段95號7F,,松山區,台北市松山區富錦街442之3號3樓,,,0213774335,22.5,預購點數,55.0,否,55.0,1.0,,0,,0,,0,,0,,0,,0,,0,,0,,0,,0,,0,,0,,0,,0,,0,,0,,0,,0,,0,,0,,0,1.0,10,,0,65,3,0,,三聯式,恒薪企業管理顧問,16609797.0,367,722,35.0,30.0,1.0,C2110130227,,0,0,0,信義區,中正區,li6080@yahoo.com.tw,7,121.5323364,25.0523277
C2110130151,9:44,,中正區,台北市中正區忠孝東路一段54號5樓,台北市中正區忠孝東路一段54號5樓,,土城區,自由2號,,,0213808840,3.5,月結,55.0,否,55.0,1.0,,0,,0,,0,,0,,0,,0,,0,,0,,0,,0,,0,,0,,0,,0,,0,,0,,0,,0,,0,,0,,0,,0,,0,55,3,0,265,三聯式,三采文化股份有限公司,23628454.0,23,510,25.0,30.0,1.0,C2110130222,,0,0,0,內湖特區,萬華區,nico_hsu@suncolor.com.tw,5,121.5228694,25.0446867
C2110130154,9:45,,大同區,臺北市大同區重慶北路二段195-3號,臺北市大同區重慶北路二段195-3號,,中山區,台北市松山區八德路二段387號,,,0213845078,22.5,月結,55.0,否,55.0,1.0,,0,,0,,0,,0,,0,,0,,0,,0,,0,,0,,0,,0,,0,,0,,0,,0,,0,,0,,0,,0,,0,,0,1.0,10,65,3,0,,三聯式,日盛證券投資信託股份有限公司,97172295.0,722,76,30.0,35.0,1.0,C2110130220,,0,0,0,中正區,中山區,peter_chou@JSFUNDS.com.tw;wilson_kao@JSFUNDS.com.tw,None,121.5137909,25.0603715
C2110130158,9:46,,南港區,台北市南港區經貿二路188號10樓,台北市南港區經貿二段路188號10樓,,中山區,A31台北市中山區建國北路一段80號11樓,,,0213664993,2.5,月結,55.0,否,55.0,1.0,,0,,0,,0,,0,,0,,0,,0,,0,,0,,0,,0,,0,,0,,0,,0,,0,,0,,0,,0,,0,,0,,0,,0,55,3,0,,三聯式,美商費尼克斯有限公司台灣分公司,83360661.0,727,73,25.0,30.0,1.0,C2110130218,,0,0,0,內湖特區,內湖特區,vicky_hung@phoenix.com;annie_kao@phoenix.com,10,121.6167358,25.0576002
C2110130155,9:47,,松山區,台北市松山區民生東路四段133號11樓,台北市松山區民生東路四段133號11樓,,中山區,台北市中山區建國北路二段196號,,,0213757807,9.5,月結,150.0,否,150.0,1.0,,0,,0,,0,,0,,0,,0,,0,,0,,0,,0,,0,,0,,0,,0,,0,,0,,0,,0,,0,,0,,0,,0,,0,150,8,0,803510,三聯式,SONY總公司,23529362.0,503,39,30.0,120.0,1.0,C2110130217,,0,0,0,中山區,北投區,Jo.Wu@sony.com;accounting@sony.com.tw,11,121.5546076,25.0587415
C2110130159,9:48,,中和區,中和區連城路194巷4號3樓,新北市中和區連城路194巷4號3樓,,大安區,台北市大安區敦化南路一段200號7樓之3,,,0213861240,22.6,取付,90.0,否,90.0,1.0,,0,,0,,0,,0,,0,,0,,0,,0,,0,,0,,0,,0,,0,,0,,0,1.0,30,,0,,0,,0,,0,,0,,0,,0,120,6,126,,三聯式,愛必食股份有限公司,54667298.0,57,65,60.0,50.0,,C2110130216,,0,0,0,大安區,內湖區,jwufang.teng@abc-cooking.com.tw,3,121.4920767,24.9977225
C2110130162,9:49,,新莊區,新北市新莊區新北大道二段312號4F,新北市新莊區新北大道二段312號4F,,大同區,台北市長安西路106號9樓-3 (12:00-13:30午休,,,0213845510,3@.5,月結,110.0,否,110.0,1.0,,0,,0,,0,,0,,0,,0,,0,,0,,0,,0,,0,,0,,0,,0,,0,,0,,0,,0,,0,,0,,0,,0,,0,110,6,0,49864,三聯式,元大證券股份有限公司,97160609.0,503,513,30.0,80.0,1.0,C2110130214,,0,0,0,中山區,中和區,gjp071@yuanta.com,4,121.4639921,25.061259
C2110130163,9:50,,南港區,南港區經貿二路105巷工地(特殊點),台北市南港區經貿二段路105巷工地(特殊點)號,,大安區,台北市大安區敦化南路二段267號5樓,,,0213743375,0.5,月結,55.0,否,55.0,,,0,,0,,0,,0,,0,,0,,0,,0,,0,,0,,0,,0,,0,,0,,0,,0,,0,,0,,0,,0,,0,,0,,0,55,3,0,,三聯式,廣益管理顧問(股)公司,28196639.0,22,29,20.0,35.0,1.0,C2110130213,,0,0,0,大安區,信義區,lancy_hsiao@rsm.tw,None,121.6167358,25.0576002
C2110130166,9:51,,大安區,台北市大安區忠孝東路四段77號中心診所10樓,台北市大安區忠孝東路四段77號中心診所10樓,,中山區,台北市中山區民生東路二段141號11樓,,,0213716582,5.22,月結,110.0,否,110.0,1.0,,0,,0,,0,,0,,0,,0,,0,,0,,0,,0,,0,,0,,0,,0,,0,,0,,0,,0,,0,,0,,0,,0,,0,110,6,0,,三聯式,全國公證檢驗-紡織部,12369971.0,21,23,80.0,30.0,1.0,C2110130211,,0,0,0,板橋區,內湖特區,sarah.chen@intertek.com,None,121.5474838,25.0418516
C2110130164,9:52,,大同區,台北市大同區涼州街2-12號,台北市大同區涼州街2-12號,,中正區,銅山街6,,,0213859112,2.22,月結,60.0,否,60.0,1.0,,0,,0,,0,,0,,0,,0,,0,,0,,0,,0,,0,,0,,0,,0,,0,,0,,0,,0,,0,,0,,0,,0,,0,60,3,0,381200,三聯式,台新國際商業銀行股份有限公司,86519539.0,502,76,40.0,20.0,1.0,C2110130209,,0,0,0,永和區,中山區,annlee@taishinbank.com.tw,None,121.5153142,25.0607565
C2110130165,9:52,,信義區,台北市信義區永吉路168號9樓之1,台北市信義區永吉路168號9樓之1,,中山區,台北市中山區南京東路二段20號10樓,,,0213851658,22.5,月結,100.0,否,100.0,1.0,,0,,0,,0,1.0,50,,0,,0,,0,,0,,0,,0,,0,,0,,0,,0,,0,,0,,0,,0,,0,,0,,0,,0,,0,150,8,0,,三聯式,SGS-CPCH  (五權七路38號),23928467.0,31,515,75.0,75.0,,C2110130208,,0,0,0,南港區,重莊特區,gloria.lee@sgs.com;sonia.yu@sgs.com;vivian.hsu@sgs.com,9,121.5710128,25.0454849
C2110130157,9:52,,松山區,台北市南京東路四段130號9樓-1,台北市南京東路四段130號9樓-1,,中山區,中山區建國北路二段65號7樓,,,0213808625,0.9,月結,55.0,否,55.0,,,0,,0,,0,,0,,0,,0,,0,,0,,0,,0,,0,,0,,0,,0,,0,,0,,0,,0,,0,,0,,0,,0,1.0,10,65,3,0,家外媒體業務368,三聯式,東森新媒體控股股份有限公司,24328949.0,505,22,20.0,45.0,1.0,C2110130206,,0,0,0,松山區,信義區,a468714@ettoday.net,9,121.555723,25.0513946
C2110130172,9:54,,新店區,新店區北新路三段207-5號15樓,新北市新店區北新路三段207-5號15樓,,土城區,自由2號,,,0213809477,5.5,月結,80.0,否,80.0,1.0,,0,,0,,0,,0,,0,,0,,0,,0,,0,,0,,0,,0,,0,,0,,0,,0,1.0,30,,0,,0,,0,,0,,0,,0,110,6,0,10AC7-10003T,三聯式,財團法人中衛發展中心,1107297.0,708,506,30.0,80.0,1.0,C2110130207,,0,0,0,中正區,南港區,w001@csd.org.tw,15,121.5399642,24.9848767
C2110130167,9:54,,松山區,台北市松山區南京東路四段130號9樓之1,台北市松山區南京東路四段130號9樓之1,,中和區,中和區建一路92號,,,0213790143,3.5,月結,55.0,否,55.0,1.0,,0,,0,,0,,0,,0,,0,,0,,0,,0,,0,,0,,0,,0,,0,,0,,0,,0,,0,,0,,0,,0,,0,,0,55,3,0,BK200038,三聯式,經貿聯網科技股份有限公司,70543978.0,727,710,25.0,30.0,1.0,C2110130205,,0,0,0,內湖特區,大同區,vivianchen@cybersoft4u.com,9,121.555723,25.0513946
C2110130177,9:55,,大安區,台北市大安區光復南路102號3樓,台北市大安區光復南路102號3樓,,中正區,台北市中正區中華路一段39號6樓,,,0213808755,0.9,月結,110.0,否,110.0,,,0,,0,,0,,0,,0,,0,,0,,0,,0,,0,,0,,0,,0,,0,,0,,0,,0,,0,,0,,0,,0,,0,,0,110,6,0,家外媒體業務104,三聯式,東森新媒體控股股份有限公司,24328949.0,505,729,30.0,80.0,1.0,C2110130204,,0,0,0,松山區,文山區,a468714@ettoday.net,3,121.5574278,25.0433959
C2110130175,9:57,,內湖特區,台北市內湖區瑞光路76巷49號3樓,台北市內湖區瑞光路76巷49號3樓,,永和區,永和二147,,,0213792610,2.5,月結,55.0,否,55.0,1.0,,0,,0,,0,,0,,0,,0,,0,,0,,0,,0,,0,,0,,0,,0,,0,,0,,0,,0,,0,,0,,0,,0,,0,55,3,0,,三聯式,華娛網路娛樂股份有限公司,25108582.0,71,722,25.0,30.0,1.0,C2110130201,,0,0,0,大安區,大安區,peggywu@walkie.com.tw;hsinnichen@walkie.com.tw,3,121.5805321,25.0703379
C2110130176,9:58,,大安區,台北市大安區安和路一段27號5樓,台北市大安區安和路一段27號5樓,,松山區,八德路三段20號2F,,,0212767807,2.5,月結,50.0,否,50.0,1.0,,0,,0,,0,2.0,100,,0,,0,,0,,0,,0,,0,,0,,0,,0,,0,,0,,0,,0,,0,,0,,0,,0,,0,,0,150,8,0,SG,三聯式,台灣無印良品股份有限公司,80518858.0,57,367,75.0,75.0,1.0,C2110130198,,0,0,0,大安區,松山區,logistics@mail.muji.tw,5,121.5504581,25.0393381
C2110130180,10:00,,新莊區,新北市新莊區新泰路246號1F,新北市新莊區新泰路246號1F,,松山區,敦化南一66,,,0213716583,0.5,月結,110.0,否,110.0,,,0,,0,,0,,0,,0,,0,,0,,0,,0,,0,,0,,0,,0,,0,,0,,0,,0,,0,,0,,0,,0,,0,,0,110,6,0,,三聯式,廣益管理顧問(股)公司,28196639.0,21,22,80.0,30.0,1.0,C2110130203,,0,0,0,板橋區,大安區,lancy_hsiao@rsm.tw,1,121.446545,25.0396275
C2110130112,10:00,,大安區,忠孝東路四段231號4F(掛理賠,台北市忠孝東路四段231號4F(掛理賠,,松山區,臺北市松山區民生東路三段156號3樓(12.-13.30午休),,,0213845417,3@.5,預購點數,55.0,否,55.0,1.0,,0,,0,,0,,0,,0,,0,,0,,0,,0,,0,,0,,0,,0,,0,,0,,0,,0,,0,,0,,0,,0,,0,,0,55,3,0,,三聯式,栩栩設計有限公司,55856063.0,66,22,20.0,35.0,1.0,C2110130199,,0,0,0,中山區,信義區,vicky208_uk@hotmail.com,4,121.5531853,25.0416835
C2110130115,10:00,,中正區,懷寧街53號1F,台北市懷寧街53號1F,,大安區,台北市大安區敦化南路二段69號4樓,,,0213364173,3@.5,預購點數,55.0,否,55.0,1.0,,0,,0,,0,,0,1.0,50,,0,,0,,0,,0,,0,,0,,0,,0,,0,,0,,0,,0,,0,,0,,0,,0,,0,,0,105,5,0,,三聯式,達達音響行,13824040.0,57,510,45.0,60.0,1.0,C2110130197,,0,0,0,大安區,中正區,sandy52507@yahoo.com.tw,1,121.5144292,25.0441667
C2110130113,10:00,,中正區,中正區武昌街一段49號4樓後棟,台北市中正區武昌街一段49號4樓後棟,,大安區,台北市大安區敦化南路二段69號4樓,,,0213817158,22.5,月結,80.0,否,80.0,1.0,,0,,0,,0,,0,,0,,0,,0,,0,,0,,0,,0,,0,,0,,0,,0,,0,,0,,0,,0,,0,,0,1.0,10,,0,90,5,0,,三聯式,宏將廣告股份有限公司,16293208.0,503,65,40.0,50.0,1.0,C2110130195,,0,0,0,中山區,內湖區,jilllin@mediadrive.com.tw;ZhixuanNg@mdrive.com.tw,4,121.5108825,25.0443581
C2110130109,10:00,,土城區,新北市土城區中央路四段51號7樓之1,新北市土城區中央路四段51號7樓之1,,萬華區,台北市萬華區漢中街193號,,,0213817157,22.5,月結,45.0,是,112.5,1.0,,0,,0,,0,,0,,0,,0,,0,,0,,0,,0,,0,,0,,0,,0,,0,,0,,0,,0,,0,,0,,0,1.0,10,,0,123,6,0,,三聯式,宏將廣告股份有限公司,16293208.0,90,90,66.0,57.0,1.0,C2110130191,,0,0,0,中山區,中山區,jilllin@mediadrive.com.tw;ZhixuanNg@mdrive.com.tw,7,121.4211303,24.9598747
C2110130110,10:00,,中正區,臺北市中正區延平南路189號B1樓之2,臺北市中正區延平南路189號B1樓之2,,大安區,仁愛路四段75號2樓,,,0213811850,0.5,月結,55.0,否,55.0,,,0,,0,,0,,0,,0,,0,,0,,0,,0,,0,,0,,0,,0,,0,,0,,0,,0,,0,,0,,0,,0,,0,,0,55,3,0,,三聯式,香港商賽維特保險公證人有限公司台灣分公司,70751953.0,76,609,20.0,35.0,1.0,C2110130193,,0,0,0,中山區,中正區,victoria.lin@tw.sedgwick.com;jennifer.wu@tw.sedgwick.com,None,121.5075571,25.0337995
C2110130114,10:00,,土城區,新北市土城區中央路四段51號7樓之1,新北市土城區中央路四段51號7樓之1,,大同區,台北市大同區重慶北路3段139號1樓,,,0213651490,0.5,月結,55.0,否,55.0,,,0,,0,,0,,0,,0,,0,,0,,0,,0,,0,,0,,0,,0,,0,,0,,0,,0,,0,,0,,0,,0,1.0,10,,0,65,3,0,,三聯式,大瀚國際開發股份有限公司民權分公司,50763360.0,76,71,35.0,30.0,1.0,C2110130194,,0,0,0,中山區,大安區,redsu@globaltown.com.tw;cindylin@globaltown.com.tw,7,121.4211303,24.9598747
C2110130108,10:00,,土城區,新北市土城區中央路四段51號7樓之1,新北市土城區中央路四段51號7樓之1,,中正區,台北市忠孝東路一段85號,,,0212974842,2.5,月結,120.0,否,120.0,1.0,,0,,0,,0,,0,,0,,0,,0,,0,,0,,0,,0,,0,,0,,0,,0,,0,,0,,0,,0,,0,,0,,0,1.0,10,130,7,0,CC20,三聯式,藍天電腦股份有限公司,9424319.0,501,2,50.0,80.0,1.0,C2110130190,,0,0,0,重莊特區,三重區,lucy@clevo.com.tw,7,121.4211303,24.9598747
C2110130118,10:00,,南港區,台北市(南港區)研究院路一段130巷99號F棟6樓,台北市(南港區)研究院路一段130巷99號F棟6樓,,全省區,高雄市三民區自由一路100號 啟川大樓17樓,,,0213746385,22.5,預購點數,80.0,否,80.0,1.0,,0,,0,,0,,0,,0,,0,,0,,0,,0,,0,,0,,0,,0,,0,,0,,0,,0,,0,,0,,0,,0,,0,,0,80,4,0,,三聯式,崇偉營造工程(股)公司,12313718.0,65,66,50.0,30.0,1.0,C2110130188,,0,0,0,內湖區,大同區,kay@cwcl.com.tw,None,121.6116098,25.0488983
C2110130101,10:00,,松山區,台北市松山區三民路156號3樓,台北市松山區三段民路156號3樓,,松山區,臺北市松山區南京東路五段291巷47弄50號1樓,,,0213845405,9.9,月結,55.0,否,55.0,1.0,,0,,0,,0,,0,,0,,0,,0,,0,,0,,0,,0,,0,,0,,0,,0,,0,,0,,0,,0,,0,,0,,0,,0,55,3,0,,三聯式,橘子支行動支付股份有限公司,24706576.0,66,727,25.0,30.0,1.0,C2110130189,,0,0,0,中山區,內湖特區,cammykuo@gamapay.com.tw;yafangchi@gamapay.com.tw,3,121.5373278,25.0091768
C2110130071,10:00,,蘆洲區,新北市蘆洲區正和街75號5樓,新北市蘆洲區正和街75號5樓,,重莊特區,新北市新莊區五工五路28號3樓,,,0213819242,0.5,月結,55.0,否,55.0,,,0,,0,,0,,0,,0,,0,,0,,0,,0,,0,,0,,0,,0,,0,,0,,0,,0,,0,,0,,0,,0,,0,,0,55,3,0,,三聯式,香港商慧科訊業有限公司台灣分公司,70776981.0,22,23,25.0,30.0,1.0,C2110130196,,0,0,0,信義區,內湖特區,mayting@wisers.com,5,121.4684615,25.0808176
C2110130058,10:00,,松山區,臺北市松山區三民路96巷7號,臺北市松山區三段民路96巷7號,,汐止區,新北市汐止區新台五路一段93號8樓之11,,,0213675089,22.5,月結,80.0,否,80.0,1.0,,0,,0,,0,,0,,0,,0,,0,,0,,0,,0,,0,,0,,0,,0,,0,,0,,0,,0,,0,,0,,0,,0,,0,80,4,0,,三聯式,君綺整形外科診所,74710272.0,76,731,30.0,50.0,1.0,C2110130186,,0,0,0,中山區,內湖區,accountjc@jcbuty.com,None,121.5408777,25.0231044
C2110130010,10:00,,信義區,台北市信義區菸廠路88號1樓大廳櫃台,台北市信義區菸廠路88號1樓大廳櫃台,,大安區,台北市仁愛路四段169號25樓,,,0213845406,3@.5,月結,55.0,否,55.0,1.0,,0,,0,,0,,0,,0,,0,,0,,0,,0,,0,,0,,0,,0,,0,,0,,0,,0,,0,,0,,0,,0,,0,,0,55,3,0,,二聯式,,,66,505,30.0,25.0,,C2110130187,,0,0,0,大同區,松山區,aa0926733150@gmail.com,1,121.5614467,25.0445662
C2110121067,10:00,,大同區,臺北市大同區重慶北路一段49巷14號,臺北市大同區重慶北路一段49巷14號,,新莊區,新北市新莊區中智街50號3樓,,,0213653734,0.5,月結,55.0,否,55.0,,,0,,0,,0,,0,,0,,0,,0,,0,,0,,0,,0,,0,,0,,0,,0,,0,,0,,0,,0,,0,,0,,0,,0,55,3,0,,三聯式,寶瓶文化事業(股)有限公司,96967514.0,22,609,25.0,30.0,1.0,C2110130183,,0,0,0,信義區,中正區,aquarius@udngroup.com,None,121.5143252,25.050918
C2110121063,10:00,,大同區,臺北市大同區重慶北路一段49巷14號,臺北市大同區重慶北路一段49巷14號,,安坑區,新北市新店區安成街2巷1號3樓-3,,,0213794566,22.5,預購點數,150.0,否,150.0,1.0,,0,,0,,0,,0,,0,,0,,0,,0,,0,,0,,0,,0,,0,,0,,0,,0,,0,,0,,0,,0,,0,,0,,0,150,8,0,,三聯式,京華中醫聯合診所,18476338.0,503,39,30.0,120.0,1.0,C2110130182,,0,0,0,中山區,北投區,kelly_0011@yahoo.com.tw,None,121.5143252,25.050918
C2110121061,10:00,,大同區,臺北市大同區重慶北路一段49巷14號,臺北市大同區重慶北路一段49巷14號,,信義區,台北市信義區忠孝東路四段500號2樓之6,,,0213705329,9.5,月結,80.0,否,200.0,1.0,,0,,0,,0,,0,,0,,0,,0,,0,,0,,0,,0,,0,,0,,0,,0,,0,,0,,0,,0,,0,,0,,0,,0,200,10,0,702,三聯式,元大商業銀行股份有限公司,86517315.0,251,251,125.0,75.0,,C2110130180,,0,0,0,新莊區,松山區,chyang@yuanta.com,None,121.5143252,25.050918
C2110130183,10:01,,信義區,台北市信義區基隆路一段180號8樓,台北市信義區基隆路一段180號8樓,,中正區,台北市開封街一段48號13樓之5,,,0213805956,0.5,月結,55.0,否,55.0,,,0,,0,,0,,0,1.0,50,,0,,0,,0,,0,,0,,0,,0,,0,,0,,0,,0,,0,,0,,0,,0,,0,,0,,0,105,5,0,理賠,三聯式,宏泰人壽保險股份有限公司,84894313.0,32,71,50.0,55.0,,C2110130178,,0,0,0,松山區,大安區,mag.chung@hontai.com.tw;vera.huang@hontai.com.tw;hr067@htsys1.hontai.com.tw,8,121.5648608,25.04233
C2110130182,10:01,,中山區,中山區松江路95-1號1樓,台北市中山區松江路95-1號1樓,,北投區,三合路一82,,,0213788405,0.5,月結,50.0,否,50.0,,,0,,0,,0,,0,,0,,0,,0,,0,,0,,0,,0,,0,,0,,0,,0,,0,,0,,0,,0,,0,,0,,0,,0,50,3,0,,三聯式,長德有線電視股份有限公司,16085813.0,503,727,25.0,25.0,,C2110130179,,0,0,0,中山區,內湖特區,soyuuka@mail.cdtv.com.tw,1,121.5333483,25.0508865
C2110130187,10:02,,大同區,重慶北路二段8號1F(取東達的模),台北市重慶北路二段8號1F(取東達的模),,松山區,八德路三段8巷52號B1,,,0213206334,0.5,預購點數,55.0,否,55.0,,,0,,0,,0,,0,,0,,0,,0,,0,,0,,0,,0,,0,,0,,0,,0,,0,,0,,0,,0,,0,,0,,0,,0,55,3,0,,三聯式,永達會計師事務所,72960822.0,710,231,25.0,30.0,,C2110130181,,0,0,0,大同區,中正區,yuta.co@msa.hinet.net,1,121.514142,25.054413
C2110130186,10:04,,中山區,南京東路二段111號2樓,台北市南京東路二段111號2樓,,內湖區,行愛77,,,0213862488,3.5,月結,110.0,否,110.0,1.0,,0,,0,,0,,0,,0,,0,,0,,0,,0,,0,,0,,0,,0,,0,,0,1.0,30,,0,,0,,0,,0,,0,,0,,0,140,7,0,,三聯式,雅村企業有限公司,31134074.0,69,39,60.0,80.0,1.0,C2110130184,,0,0,0,信義區,士林區,account@yatsun.com.tw,2,121.5333576,25.052296
C2110130189,10:05,,中山區,台北市中山區中山北路二段61號7樓,台北市中山區中山北路二段61號7樓,,內湖特區,台北市內湖區瑞湖街111號B1(收發室),,,0213661347,2.5,預購點數,110.0,否,110.0,1.0,,0,,0,,0,,0,,0,,0,,0,,0,,0,,0,,0,,0,,0,,0,,0,,0,,0,,0,,0,,0,,0,,0,,0,110,6,0,,三聯式,音利佳股份有限公司,13068143.0,727,502,30.0,80.0,1.0,C2110130175,,0,0,0,內湖特區,永和區,info@ilc.com.tw,7,121.5230064,25.0561427
C2110130197,10:07,,大安區,台北市大安區復興南路一段295巷1號,台北市大安區復興南路一段295巷1號,,中正區,洛陽街71號1樓,,,0213775449,9.6,送付,65.0,是,162.5,1.0,,0,,0,,0,,0,,0,,0,,0,,0,,0,,0,,0,,0,,0,,0,,0,,0,,0,,0,,0,,0,,0,0.0,0,,0,163,8,171,,三聯式,台北玉泉扶輪社,99974428.0,721,721,63.0,75.0,,C2110130173,,0,0,0,內湖特區,中山區,jadespri@ms75.hinet.net,None,121.5440292,25.0352304
C2110130191,10:07,,中山區,台北市中山區建國北路一段80號12樓,台北市中山區建國北路一段80號12樓,,中山區,中山北二61,,,0213860672,0.6,取付,65.0,否,65.0,,,0,,0,,0,,0,,0,,0,,0,,0,,0,,0,,0,,0,,0,,0,,0,,0,,0,,0,,0,,0,,0,,0,,0,65,3,68,,三聯式,智泓科技(股)公司,54165295.0,71,609,20.0,35.0,1.0,C2110130177,,0,0,0,大安區,中正區,jeannie@mobiinsight.com,12,121.5362676,25.049464
C2110130201,10:09,,大安區,台北市大安區忠孝東路四段285號2樓,台北市大安區忠孝東路四段285號2樓,,大安區,新生南二86,,,0213740449,2.9,月結,220.0,否,220.0,1.0,,0,,0,,0,,0,,0,,0,,0,,0,,0,,0,,0,,0,,0,,0,,0,,0,,0,,0,,0,,0,,0,,0,,0,220,11,0,,三聯式,康聯生醫科技股份有限公司,24291669.0,729,513,80.0,120.0,1.0,C2110130172,99.0,20,0,0,新店區,土城區,brownie.huang@healthconn.com;smallodie@gmail.com;larry.hsiao@healthconn.com,2,121.5540773,25.0417042
C2110130203,10:09,,板橋區,220板橋區雙十路三段70巷9號,新北市220板橋區雙十路三段70巷9號,,大安區,大安區信義路四段415號12樓/8樓之3/11樓-6,,,0213823896,0.9,月結,110.0,否,110.0,,,0,,0,,0,,0,,0,,0,,0,,0,,0,,0,,0,,0,,0,,0,,0,,0,,0,,0,,0,,0,,0,,0,,0,110,6,0,家外媒體業務113,三聯式,東森新媒體控股股份有限公司,24328949.0,505,218,30.0,80.0,1.0,C2110130167,,0,0,0,松山區,中和區,a468714@ettoday.net,None,121.4705627,25.0326102
C2110130204,10:10,,松山區,台北市南京東路四段130號9樓-1,台北市南京東路四段130號9樓-1,,文山區,文山區景中街41號2樓,,,0213659829,2.5,月結,70.0,否,140.0,1.0,,0,,0,,0,,0,,0,,0,,0,,0,,0,,0,,0,,0,,0,,0,,0,,0,,0,,0,,0,,0,,0,,0,,0,140,7,0,,三聯式,嘉威聯合會計師事務所,1020314.0,515,66,80.0,60.0,1.0,C2110130168,,0,0,0,重莊特區,中山區,alice@jwcpas.com.tw;pd7180305@jwcpas.com.tw,9,121.555723,25.0513946
C2110130206,10:11,,松山區,台北市松山區南京東路四段130號9樓之1,台北市松山區南京東路四段130號9樓之1,,信義區,信義路五段108號6樓,,,0213380843,3@.6,取付,65.0,否,130.0,1.0,,0,,0,,0,,0,,0,,0,,0,,0,,0,,0,,0,,0,,0,,0,,0,,0,,0,,0,,0,,0,,0,,0,,0,130,7,137,,三聯式,毅聯建設股份有限公司,53564127.0,710,708,50.0,60.0,1.0,C2110130164,,0,0,0,大同區,中正區,kaarae5866@yahoo.com.tw;a94982023@gmail.com,9,121.555723,25.0513946
C2110130207,10:11,,中正區,臺北市中正區杭州南路一段15-1號3樓,臺北市中正區杭州南路一段15-1號3樓,,南港區,園區街3,,,0213774332,0.5,月結,55.0,否,55.0,,,0,,0,,0,,0,,0,,0,,0,,0,,0,,0,,0,,0,,0,,0,,0,,0,,0,,0,,0,,0,,0,,0,,0,55,3,0,,三聯式,華陽專業顧問有限公司,96996187.0,367,503,30.0,25.0,,C2110130165,,0,0,0,信義區,中山區,mf.cpa99192938@gmail.com,3,121.5267675,25.0427628
C2110130205,10:11,,內湖特區,台北市內湖區陽光街321巷56號3F(部門BK200038,台北市內湖區陽光街321巷56號3F(部門BK200038,,大同區,重慶北二243,,,0213861239,0.5,月結,55.0,否,55.0,,,0,,0,,0,,0,,0,,0,,0,,0,,0,,0,,0,,0,,0,,0,,0,,0,,0,,0,,0,,0,,0,,0,,0,55,3,0,,三聯式,捨得健康事業股份有限公司,83506835.0,57,76,25.0,30.0,,C2110130166,,0,0,0,大安區,中山區,tina761010@gmail.com;cch10hc@gmail.com,3,121.577932,25.0716189
C2110130208,10:13,,南港區,昆陽街161-2號,台北市昆陽街161-2號,,重莊特區,新北市五股區五權七路38號1F,,,0213858201,22.6,取付,160.0,否,160.0,1.0,,0,,0,,0,,0,,0,,0,,0,,0,,0,,0,,0,,0,,0,,0,,0,,0,,0,,0,1.0,50,,0,,0,,0,,0,250,13,263,,三聯式,,80690077.0,2,71,170.0,30.0,,C2110130169,,0,0,0,五股區,大安區,38youplay@gmail.com,None,121.594746,25.0489095
C2110130200,10:13,,信義區,台北市信義區基隆路一段396號9樓,台北市信義區基隆路一段396號9樓,,內湖區,台北市內湖區堤頂大道一段331號3樓,,,0213793532,22.5,月結,80.0,否,80.0,1.0,,0,,0,,0,,0,,0,,0,,0,,0,,0,,0,,0,,0,,0,,0,,0,1.0,30,,0,,0,,0,,0,,0,,0,,0,110,6,0,台肥工地,三聯式,遠揚營造工程股份有限公司,5117325.0,31,56,80.0,30.0,1.0,C2110130163,,0,0,0,南港區,大安區,lunlun@mail.fegc.com.tw,9,121.5601136,25.0344439
C2110130193,10:13,,中山區,台北市中山區南京東路三段219號10樓,台北市中山區南京東路三段219號10樓,,中正區,台北市中正區武昌街一段58號2樓,,,0213846897,9.5,月結,120.0,否,120.0,1.0,,0,,0,,0,,0,,0,,0,,0,,0,,0,,0,,0,,0,,0,,0,,0,,0,,0,,0,,0,,0,,0,,0,1.0,10,130,7,0,,三聯式,京昇紡織,7667113.0,270,66,90.0,40.0,1.0,C2110130162,,0,0,0,新莊區,大同區,debby@jsfiber.com.tw,10,121.5432529,25.052128
C2110130196,10:13,,信義區,台北市信義區基隆路一段396號9樓,台北市信義區基隆路一段396號9樓,,內湖特區,台北市內湖區瑞光路631號,,,0213857306,3.5,月結,130.0,否,130.0,1.0,,0,,0,,0,,0,,0,,0,,0,,0,,0,,0,,0,,0,,0,,0,,0,,0,,0,,0,,0,,0,,0,,0,,0,130,7,0,印務課-廣告用樣,三聯式,龍騰文化事業股份有限公司,23593217.0,515,218,50.0,80.0,,C2110130161,,0,0,0,重莊特區,中和區,chiaohio.huang@lungteng.com.tw,9,121.5601136,25.0344439
C2110130192,10:13,,大安區,台北市大安區敦化南路二段216號20樓B區1號,台北市大安區敦化南路二段216號20樓B區1號,,板橋區,新北市板橋區縣民大道二段7號17樓,,,0213761108,9.5,月結,110.0,否,110.0,1.0,,0,,0,,0,,0,,0,,0,,0,,0,,0,,0,,0,,0,,0,,0,,0,,0,,0,,0,,0,,0,,0,,0,,0,110,6,0,,三聯式,信加實業(股)公司,23435442.0,218,57,80.0,30.0,1.0,C2110130159,,0,0,0,中和區,大安區,a4@tscpa.com.tw,20,121.5479456,25.0222251
C2110130194,10:14,,中山區,台北市中山區民權東路三段2-1號15樓,台北市中山區民權東路三段2-1號15樓,,大安區,台北市大安區忠孝東路四段285號5樓,,,0213749257,0.5,月結,55.0,否,55.0,,,0,,0,,0,,0,,0,,0,,0,,0,,0,,0,,0,,0,,0,,0,,0,,0,,0,,0,,0,,0,,0,1.0,10,,0,65,3,0,,三聯式,資拓宏宇國際股份有限公司,28859051.0,505,76,35.0,30.0,1.0,C2110130155,,0,0,0,松山區,中山區,annie.hsu@iisigroup.com;lynn.wu@iisigroup.com; eva.kuo@iisigroup.com,15,121.5378875,25.0621027
C2110130210,10:15,,松山區,台北市松山區南京東路五段89號9樓,台北市松山區南京東路五段89號9樓,,信義區,信義四456,,,0213775448,2.5,月結,80.0,否,200.0,1.0,,0,,0,,0,,0,,0,,0,,0,,0,,0,,0,,0,,0,,0,,0,,0,1.0,30,,0,,0,,0,,0,,0,,0,,0,230,12,0,,三聯式,佳聖媒體-Y,28176937.0,721,721,155.0,75.0,1.0,C2110130158,,0,0,0,南港區,中山區,yumilin@mdrive.com.tw,9,121.5601021,25.0518161
C2110130211,10:16,,板橋區,板橋區新站路16號41F,新北市板橋區新站路16號41F,,內湖特區,台北市內湖區瑞光路423號10樓,,,0213774565,9.5,月結,80.0,否,80.0,1.0,,0,,0,,0,,0,,0,,0,,0,,0,,0,,0,,0,,0,,0,,0,,0,,0,,0,,0,,0,,0,,0,1.0,10,,0,90,5,0,,三聯式,美商史賽克(遠東)有限公司台灣分公司.電洽,22765253.0,731,722,60.0,30.0,,C2110130156,,0,0,0,內湖區,中正區,nancy.lin@stryker.com,41,121.4670082,25.013132
C2110130213,10:17,,大安區,大安區信義路四段415號11樓-6,台北市大安區信義路四段415號11樓-6,,信義區,忠孝東路五段68號26樓,,,0213774564,2.5,月結,80.0,否,80.0,1.0,,0,,0,,0,,0,,0,,0,,0,,0,,0,,0,,0,,0,,0,,0,,0,,0,,0,,0,,0,,0,,0,,0,,0,80,4,0,,三聯式,財團法人法律扶助基金會 法扶會,99624605.0,731,722,50.0,30.0,1.0,C2110130152,,0,0,0,內湖區,大安區,sally@laf.org.tw;pauline_lee@laf.org.tw,11,121.5593413,25.0333069
C2110130215,10:18,,大安區,忠孝東路四段142號7樓之2(大安區),台北市忠孝東路四段142號7樓之2(大安區),,中正區,羅一7,,,0213606317,3.9,月結,150.0,否,150.0,1.0,,0,,0,,0,,0,,0,,0,,0,,0,,0,,0,,0,,0,,0,,0,,0,,0,,0,,0,,0,,0,,0,,0,,0,150,8,0,,三聯式,康聯生醫科技股份有限公司,24291669.0,708,513,30.0,120.0,1.0,C2110130151,,0,0,0,中正區,土城區,brownie.huang@healthconn.com;smallodie@gmail.com;larry.hsiao@healthconn.com,7,121.549398,25.041304
C2110130214,10:18,,中山區,台北市中山區南京東路二段77號7樓(收發在B1),台北市中山區南京東路二段77號7樓(收發在B1),,中和區,員山506,,,0213819114,3@.5,月結,120.0,否,120.0,1.0,,0,,0,,0,1.0,50,,0,,0,,0,,0,,0,,0,,0,,0,,0,,0,,0,,0,,0,,0,,0,,0,,0,,0,,0,170,9,0,,三聯式,SGS-EHS-ESPC (五權路38號6F),23928467.0,515,729,75.0,95.0,1.0,C2110130150,,0,0,0,重莊特區,文山區,gloria.lee@sgs.com;sonia.yu@sgs.com;vivian.hsu@sgs.com,7,121.5311517,25.0523011
C2110130219,10:19,,內湖特區,堤頂大道二段181號9樓,台北市堤頂大道二段181號9樓,,大同區,大同區南京西路352號5F,,,0213705715,3.5,月結,70.0,否,70.0,1.0,,0,,0,,0,1.0,50,,0,,0,,0,,0,,0,,0,,0,,0,,0,,0,,0,,0,,0,,0,,0,,0,,0,,0,,0,120,6,0,,三聯式,程智科技股份有限公司,23611117.0,23,515,55.0,65.0,,C2110130148,,0,0,0,內湖特區,重莊特區,minnie.chang@sgs.com,9,121.570009,25.077339
C2110130217,10:19,,中山區,台北市中山北路二段42號5樓 午休11.45~12.45,台北市中山北路二段42號5樓 午休11.45~12.45,,北投區,石牌路二315,,,0213861342,2.22,月結,45.0,否,45.0,1.0,,0,,0,,0,,0,,0,,0,,0,,0,,0,,0,,0,,0,,0,,0,,0,1.0,30,,0,,0,,0,,0,,0,,0,,0,75,4,0,311300,三聯式,台新國際商業銀行股份有限公司,86519539.0,506,71,55.0,20.0,1.0,C2110130149,,0,0,0,南港區,大安區,annlee@taishinbank.com.tw,5,121.522377,25.054823
C2110130216,10:19,,大安區,敦化南路一段246號5樓(特殊點),台北市敦化南路一段246號5樓(特殊點),,內湖區,內湖新湖一路139號5樓,,,0213861344,0.6,送付,130.0,否,130.0,,,0,,0,,0,,0,,0,,0,,0,,0,,0,,0,,0,,0,,0,,0,,0,,0,,0,,0,,0,,0,,0,,0,,0,130,7,137,,三聯式,鉅勝,84115646.0,506,503,90.0,30.0,,C2110130153,,0,0,0,汐止區,中山區,js8411@yahoo.com.tw,5,121.5483119,25.0402759
C2110130218,10:20,,內湖特區,台北市內湖區瑞湖街88號7樓,台北市內湖區瑞湖街88號7樓,,內湖特區,瑞光70,,,0213861341,2.22,月結,45.0,否,45.0,1.0,,0,,0,,0,,0,,0,,0,,0,,0,,0,,0,,0,,0,,0,,0,,0,1.0,30,,0,,0,,0,,0,,0,,0,,0,75,4,0,311300,三聯式,台新國際商業銀行股份有限公司,86519539.0,506,71,55.0,20.0,1.0,C2110130146,,0,0,0,南港區,大安區,annlee@taishinbank.com.tw,7,121.5759144,25.0723675
