id,叫件時間,收件車手,pickup_zone,收件地址(不完整),收件地址(補全),送件車手,floor,pickup_lng,pickup_lat,送件區域,fare,抬頭,統編,status
C2110011072,2023-12-17 10:00:00,,中山區,台北市中山區中山北二段27巷3-3號8樓,台北市中山區中山北二段27巷3-3號8樓,57,8,121.5427093,25.0792018,大安區,255,慶陽會計師事務所,28755464,unfinished
C2110010918,2023-12-17 10:00:00,,新店區,北宜路二段30號2樓,新北市北宜路二段30號2樓,23,2,121.5482412,24.9514358,大直區,340,美商費尼克斯有限公司台灣分公司,83360661,unfinished
C2110040158,2023-12-17 10:01:00,,內湖特區,台北市內湖區民權東路六段21巷31號4樓,台北市內湖區民權東路六段21巷31號4樓,729,4,121.5812726,25.0691335,文山區,150,亞億營造股份有限公司,12955374,unfinished
C2110040832,2023-12-17 10:07:00,,松山區,臺北市松山區光復北路11巷31-1號4樓,臺北市松山區光復北路11巷31-1號4樓,889,4,121.5588121,25.0498413,全省區,150,香港商群邑有限公司,80335062,unfinished
C2110040171,2023-12-17 10:08:00,,內湖特區,台北市內湖區陽光街246號6樓,台北市內湖區陽光街246號6樓,29,6,121.5778717,25.0735472,信義區,50,統一資訊股份有限公司,16151427,unfinished
C2110040170,2023-12-17 10:08:00,,內湖特區,台北市內湖區陽光街246號6樓,台北市內湖區陽光街246號6樓,727,6,121.5778717,25.0735472,內湖特區,50,統一資訊股份有限公司,16151427,unfinished
C2110040172,2023-12-17 10:09:00,,松山區,台北市松山區南京東路四段130號9樓之1,台北市松山區南京東路四段130號9樓之1,56,9,121.555723,25.0513946,大安區,55,東森新媒體控股股份有限公司,24328949,unfinished
C2110040179,2023-12-17 10:09:00,,內湖特區,台北市內湖區陽光街246號6樓,台北市內湖區陽光街246號6樓,60,6,121.5778717,25.0735472,松山區,50,統一資訊股份有限公司,16151427,unfinished
C2110040176,2023-12-17 10:09:00,,信義區,信義區東興路41號3樓,台北市信義區東興路41號3樓,729,3,121.5666564,25.0480733,新店區,110,捍衛科技,23791096,unfinished
C2110040175,2023-12-17 10:10:00,,大安區,台北市大安區敦化南路二段289號6樓,台北市大安區敦化南路二段289號6樓,503,6,121.5491093,25.02401,中山區,55,新邁國際企業有限公司,80660566,unfinished
C2110040174,2023-12-17 10:10:00,,松山區,台北市松山區南京東路四段130號9樓之1,台北市松山區南京東路四段130號9樓之1,71,9,121.555723,25.0513946,大安區,55,東森新媒體控股股份有限公司,24328949,unfinished
C2110040177,2023-12-17 10:11:00,,信義區,北市光復南路449-3號,台北市北市光復南路449-3號,609,None,121.5577351,25.0348911,中正區,65,國泰牙醫診所,38527460,unfinished
C2110040180,2023-12-17 10:13:00,,內湖特區,台北市內湖區陽光街246號6樓,台北市內湖區陽光街246號6樓,727,6,121.5778717,25.0735472,內湖特區,50,統一資訊股份有限公司,16151427,unfinished
C2110040183,2023-12-17 10:15:00,,內湖特區,內湖區民權東路6段109號4樓之1,台北市內湖區民權東路6段109號4樓之1,66,4,121.5916254,25.069281,中山區,80,上品不動產有限公司,80526219,unfinished
C2110040186,2023-12-17 10:17:00,,中山區,台北市中山區中山北路三段47號8樓803室,台北市中山區中山北路三段47號8樓803室,513,8,121.5227522,25.0665923,板橋區,110,九典聯合建築師事務所,19332296,unfinished
C2110040187,2023-12-17 10:18:00,,松山區,台北市松山區敦化北路238巷32號1樓,台北市松山區敦化北路238巷32號1樓,56,1,121.5480047,25.060689,大安區,55,德來空間設計室內裝修有限公司,84192609,unfinished
C2110040190,2023-12-17 10:19:00,,中山區,台北市中山區南京東路二段77號7樓(收發在B1),台北市中山區南京東路二段77號7樓(收發在B1),71,7,121.5311517,25.0523011,大安區,55,元大證券股份有限公司,97160609,unfinished
C2110040193,2023-12-17 10:20:00,,南港區,台北市南港區重陽路273號8樓(一樓取),台北市南港區重陽路273號8樓(一段樓取),727,8,121.6040312,25.0579077,內湖特區,80,法蘭絲(股)公司,97311851,unfinished
C2110040191,2023-12-17 10:20:00,,中山區,台北市中山區長安東路一段27號8樓,台北市中山區長安東路一段27號8樓,66,8,121.524297,25.0493345,大同區,55,翰新實業股份有限公司,22022289,unfinished
