﻿案件序號,叫件時間,收件車手,收件區域,收件地址,送件車手,送件地區,送件地址,送件地址(修復)
C2110220327,00:00:00,23,內湖特區,台北市内湖區瑞光路513巷26號6樓之2,32,松山區,敦北170,台北市敦北170號
C2110071065,00:00:00,60,松山區,臺北市松山區光復北路11巷31-1號4樓,31,南港區,重陽72,台北市重陽72號
C2110080964,00:00:00,21,板橋區,板橋區四川路一段389號1樓,505,松山區,民生東四54,台北市民生東路四段54號
C2110072010,00:00:00,57,大安區,建國南一172號,205,天母區,忠誠路二段55號2樓,台北市忠誠路二段55號2樓
C2110071960,0:00,76,中山區,台北市中山區民生東路三段2號12樓,57,大安區,信義四6,台北市信義路四段6號
C2110080736,00:00:00,99,泰山區,新五路一段106-18號,60,松山區,民權東路四段100號,台北市民權東路四段100號
C2110071952,00:00:00,506,舊莊區,忠孝東路七段369號C棟3樓(11點開門,66,中山區,台北市中山區南京西路12號B1樓,台北市中山區南京西路12號B1樓
C2110120358,00:00:00,65,內湖區,台北市內湖區新湖一路128巷15號5樓,506,汐止區,新台五一79,新北市新台五路一段79號
C2110080952,00:00:00,22,信義區,台北市信義區東興路41號10樓,13,中山區,南東三68,台北市南東三68號
C2110080707,00:00:00,99,泰山區,新五路一段106-18號,817,中正區,杭州南路一段31號7樓,台北市杭州南路一段31號7樓
C2110071895,00:00:00,60,松山區,台北市松山區東興路12號9樓櫃台,231,中正區,羅斯福路二11,台北市羅斯福路二段11號
C2110080717,00:00:00,99,泰山區,新五路一段106-18號,609,中正區,台北市中正區忠孝西路一段72號2樓605室(代收稅金+手續費：44),台北市中正區忠孝西路一段72號2樓605室(代收稅金+手續費：44)
C2110071934,00:00:00,71,大安區,台北市大安區忠孝東路四段270號13樓,722,中正區,愛國西9號,台北市愛國西9號
C2110071930,00:00:00,71,大安區,台北市大安區忠孝東路四段270號13樓,609,中正區,寶慶37,台北市寶慶37號
C2110080971,0:00,501,重莊特區,三重區光復路一段88-10號5樓,71,大安區,敦南一111,台北市敦南路一段111號
C2110071061,00:00:00,60,松山區,臺北市松山區光復北路11巷31-1號4樓,513,板橋區,新站16號,新北市新站16號
C2110070337,00:00:00,32,松山區,台北市松山區民生東路三段156號17F(專線是7742+分機),710,中山區,德惠街9號9樓,台北市德惠街9號9樓
C2110070334,00:00:00,32,松山區,台北市松山區民生東路三段156號17F(專線是7742+分機),31,南港區,經貿二168號9樓A棟,台北市經貿路二段168號9樓A棟
C2110130119,00:00:00,22,信義區,台北市信義區東興路41號10樓,881,全省區,新店  頂城二街,新店  頂城路二段街
C2110071888,00:00:00,60,松山區,台北市松山區市民大道五段99號4樓,510,萬華區,台北市萬華區成都路10號,台北市萬華區成都路10號
C2110080730,00:00:00,99,泰山區,新五路一段106-18號,503,中山區,新生北路二段60巷13號,台北市新生北路二段60巷13號
C2110080696,00:00:00,99,泰山區,新五路一段106-18號,505,松山區,台北市 敦化北路201号台塑大楼后栋10F台北工务部（0937884660）,台北市 敦化北路201号台塑大楼后栋10F台北工务部（0937884660）號
C2110080744,00:00:00,99,泰山區,新五路一段106-18號,817,中山區,龍江路120巷9號9樓之1,台北市龍江路120巷9號9樓之1
C2110071901,00:00:00,22,信義區,台北市信義區東興路41號10樓,23,內湖特區,瑞光333,台北市瑞光333號
C2110080933,00:00:00,367,信義區,台北市信義區東興路65號2樓,731,內湖區,新湖一89,台北市新湖路一段89號
C2110071898,00:00:00,60,松山區,台北市松山區光復南路65號6樓,609,中正區,許昌17-18,台北市許昌17-18號
C2110071885,00:00:00,57,大安區,台北市大安區復興南路二段82號8F-2,57,松山區,東興37,台北市東興37號
C2110071953,00:00:00,32,松山區,台北市松山區民權東路三段142號16樓,76,中山區,南東二123,台北市南東路二段123號
C2110071959,00:00:00,21,板橋區,縣民大道二段68號24F,99,松山區,台北市松山區八德路四段36巷42號1F即刻送,台北市松山區八德路四段36巷42號1F即刻送
C2110080648,00:00:00,66,大同區,台北市大同區長安西路106號10樓-5,73,內湖特區,港墘185,台北市港墘185號
C2110080983,00:00:00,60,松山區,臺北市松山區光復北路11巷31-1號4樓,32,松山區,復興北367,台北市復興北367號
C2110071925,00:00:00,71,大安區,台北市大安區忠孝東路四段270號13樓,731,內湖區,環山二109,台北市環山路二段109號
C2110080704,00:00:00,99,泰山區,新五路一段106-18號,722,中山區,德惠街182號5樓,台北市德惠街182號5樓
C2110071915,00:00:00,71,大安區,台北市大安區忠孝東路四段270號13樓,2,蘆洲區,蘆洲民族422,新北市蘆洲民族422號
C2110071993,00:00:00,76,中山區,台北市中山區民生東路三段2號12樓,609,中正區,忠孝西一50,台北市忠孝西路一段50號
C2110080725,00:00:00,99,泰山區,新五路一段106-18號,76,中山區,民生東路三段73巷6號3樓,台北市民生東路三段73巷6號3樓
C2110080695,00:00:00,99,泰山區,新五路一段106-18號,66,中山區,台北市 中山区中山北路一段83巷20號4樓之4,台北市 中山区中山北路一段83巷20號4樓之4
C2110080710,00:00:00,99,泰山區,新五路一段106-18號,60,松山區,三民路180巷67號,台北市三段民路180巷67號
C2110080745,00:00:00,99,泰山區,新五路一段106-18號,722,中山區,林森北路145巷21号→133巷32號1F,台北市林森北路145巷21号→133巷32號1F
C2110071954,00:00:00,501,重莊特區,新北市三重區重新路五段609巷10號7樓之1,13,松山區,敦南一2,台北市敦南路一段2號
C2110080731,00:00:00,99,泰山區,新五路一段106-18號,66,大同區,太原路155號七樓之二,台北市太原路155號七樓之二段
C2110080660,00:00:00,65,內湖區,台北市內湖區南京東路六段461號4樓之2,69,信義區,松仁58,台北市松仁58號
C2110080990,00:00:00,65,內湖區,台北市內湖區南京東路六段461號4樓之2,39,天母區,忠誠二55,台北市忠誠路二段55號
C2110071972,00:00:00,722,中正區,台北市中正區愛國東路22號5樓-市場開發處,57,大安區,復興南一62,台北市復興南路一段62號
C2110080975,00:00:00,367,信義區,台北市信義區東興路65號2樓,69,信義區,忠孝東五8,台北市忠孝東路五段8號
C2110071062,00:00:00,60,松山區,臺北市松山區光復北路11巷31-1號4樓,76,中山區,龍江240-1,台北市龍江240-1號
C2110072003,00:00:00,31,南港區,台北市南港區重陽路72號,731,內湖特區,陽光292,台北市陽光292號
C2110071928,00:00:00,71,大安區,台北市大安區忠孝東路四段270號13樓,731,內湖區,內湖路一68,台北市內湖路一段68號
C2110071926,00:00:00,71,大安區,台北市大安區忠孝東路四段270號13樓,609,中正區,忠孝西一66,台北市忠孝西路一段66號
C2110080927,00:00:00,515,重莊特區,H07新北市五股區五權七路38號1F,31,南港區,昆陽161-2,台北市昆陽161-2號
C2110080642,00:00:00,501,重莊特區,三重區重新路五段609巷20號7樓之8,23,內湖特區,台北市內湖區瑞光路423號10樓,台北市內湖區瑞光路423號10樓
C2110080989,00:00:00,73,內湖特區,台北市(內湖區)內湖路一段120巷17號2樓,39,士林區,重慶北四53,台北市重慶北路四段53號
C2110080741,00:00:00,99,泰山區,新五路一段106-18號,60,松山區,健康路228號2樓,台北市健康路228號2樓
C2110080737,00:00:00,99,泰山區,新五路一段106-18號,23,中山區,敬業二路199號4樓,台北市敬業二段路199號4樓
C2110070335,00:00:00,32,松山區,台北市松山區民生東路三段156號17F(專線是7742+分機),505,松山區,民生東四54號2樓,台北市民生東路四段54號2樓
C2110071907,00:00:00,71,大安區,台北市大安區忠孝東路四段270號13樓,31,南港區,南港三190,台北市南港三190號
C2110120659,00:00:00,515,重莊特區,H07新北市五股區五工路125號,23,大直區,敬業四33,台北市敬業路四段33號
C2110071977,00:00:00,31,南港區,台北市南港區重陽路72號,71,大安區,安和一27,台北市安和路一段27號
C2110080974,00:00:00,367,信義區,台北市信義區東興路65號2樓,731,內湖區,康寧三54,台北市康寧三54號
C2110071713,00:00:00,60,松山區,台北市松山區南京東五段188號7樓之10,735,南港區,三重19-2,台北市三重19-2號
C2110071994,00:00:00,76,中山區,台北市中山區民生東路三段2號12樓,609,中正區,衡陽6號,台北市衡陽6號
C2110072031,00:00:00,71,大安區,台北市大安區忠孝東路四段300號3F,56,大安區,敦化南路二247,台北市敦化南路二段247號
C2110072011,00:00:00,76,中山區,台北市中山區龍江路151號2樓,23,內湖特區,瑞光468,台北市瑞光468號
C2110080734,00:00:00,99,泰山區,新五路一段106-18號,66,中山區,中山北路二段59巷45號10樓之13,台北市中山北路二段59巷45號10樓之13
C2110071897,00:00:00,60,松山區,台北市松山區光復南路65號6樓,609,中正區,忠孝西一6,台北市忠孝西路一段6號
C2110120683,00:00:00,22,信義區,台北市信義區東興路41號10樓,505,松山區,八德三20,台北市八德三20號
C2110120675,00:00:00,73,內湖區,台北市內湖區新湖一路370號3/4樓,270,泰山區,福星二街24,新北市泰山區福星路二段街24號
C2110071904,00:00:00,22,信義區,台北市信義區東興路41號10樓,729,新店區,新店建國268,新北市新店建國268號
C2110080948,00:00:00,367,南港區,台北市南港區八德路四段778號3樓,66,中山區,南京西12,台北市南京西12號
C2110071900,00:00:00,22,信義區,台北市信義區嘉興街175巷2弄16號1樓,66,中山區,長安東一36,台北市長安東路一段36號
C2110080739,00:00:00,99,泰山區,新五路一段106-18號,60,松山區,撫遠街400巷1號3樓,台北市撫遠街400巷1號3樓
C2110080718,00:00:00,99,泰山區,新五路一段106-18號,76,中山區,農安街271巷5號2樓,台北市農安街271巷5號2樓
C2110070338,00:00:00,32,松山區,台北市松山區民生東路三段156號11樓,506,汐止區,大同一369號4樓,新北市大同路一段369號4樓
C2110071962,00:00:00,66,中山區,台北市中山區民生東路一段42號5樓之5,32,松山區,復興北311,台北市復興北311號
C2110071889,00:00:00,60,松山區,台北市松山區市民大道五段99號4樓,367,信義區,台北市信義區光復南路133號2樓(園區內),台北市信義區光復南路133號2樓(園區內)
C2110071933,00:00:00,71,大安區,台北市大安區忠孝東路四段270號13樓,367,信義區,永吉278,台北市永吉278號
C2110080726,00:00:00,99,泰山區,新五路一段106-18號,503,中山區,民生東路2段83號6樓之5,台北市民生東路2段83號6樓之5
C2110071679,00:00:00,32,松山區,台北市松山區民生東路三段156號11樓,71,大安區,安和一27,台北市安和路一段27號
C2110080641,00:00:00,515,重莊特區,H07新北市五股區五工路136-1號,509,樹林區,鶯歌中山路三212,238新北市樹林區中山路三段212號
C2110080652,00:00:00,73,內湖特區,台北市內湖區瑞湖街58號4樓,39,天母區,忠誠二55,台北市忠誠路二段55號
C2110072034,00:00:00,56,大安區,台北市大安區敦化南路二段180號11樓,76,中山區,錦州街259,台北市錦州街259號
C2110070332,00:00:00,32,松山區,台北市松山區民生東路三段156號17F(專線是7742+分機),76,中山區,建國北二17號B1,台北市建國北路二段17號B1
C2110072007,00:00:00,31,南港區,台北市南港區重陽路72號,367,信義區,東興51,台北市東興51號
C2110080732,00:00:00,99,泰山區,新五路一段106-18號,76,中山區,遼寧街211號4-2樓,台北市遼寧街211號4-2樓
C2110071967,00:00:00,32,松山區,松山區民權東路三段178號13樓,60,松山區,南東五63,台北市南東路五段63號
C2110080950,00:00:00,501,重莊特區,新北市(新莊區)新北大道二段217號14樓,503,中山區,南東二2,台北市南東路二段2號
C2110071961,00:00:00,73,內湖區,台北市內湖區新湖一路370號3/4樓,76,中山區,建國北二17,台北市建國北路二段17號
C2110080646,00:00:00,505,松山區,台北市松山區南京東路四段193號1F,708,中正區,濟南路一段1,台北市濟南路一段1號
C2110080728,00:00:00,99,泰山區,新五路一段106-18號,13,中山區,長安東路二段166號13樓之5,台北市長安東路二段166號13樓之5
C2110071886,00:00:00,57,大安區,台北市大安區復興南路二段82號8F-2,76,中山區,建國北二15,台北市建國北路二段15號
C2110071893,00:00:00,60,松山區,台北市松山區市民大道五段99號4樓,729,文山區,臺北市中正區汀洲路三段230巷18弄7-1號,臺北市中正區汀洲路三段230巷18弄7-1號
C2110072001,00:00:00,31,南港區,台北市南港區重陽路72號,367,信義區,菸廠路88,台北市菸廠路88號
C2110071066,00:00:00,60,松山區,臺北市松山區光復北路11巷31-1號4樓,205,天母區,中山北六728巷9弄9號,台北市中山北路六段728巷9弄9號
C2110072008,00:00:00,31,南港區,台北市南港區經貿二路186-1號C棟2F(11點開門,57,大安區,忠孝東路三段300號6樓(11點營業),台北市忠孝東路三段300號6樓(11點營業)
C2110080644,00:00:00,73,內湖區,台北市內湖區環山路一段32號4F,513,板橋區,和平33,新北市和平33號
C2110072036,00:00:00,56,大安區,台北市大安區敦化南路二段180號11樓,710,大同區,民生西199,台北市民生西199號
C2110080930,00:00:00,65,內湖區,台北市內湖區成功路四段223巷15弄3號1樓,513,板橋區,環河西路五502,新北市環河西路五段502號
C2110080924,00:00:00,66,大同區,台北市大同區承德路一段70號13樓,513,板橋區,新站16,新北市新站16號
C2110080742,00:00:00,99,泰山區,新五路一段106-18號,503,中山區,民權東路二段65號,台北市民權東路二段65號
C2110080661,00:00:00,32,松山區,台北市松山區民生東路三段156號11樓,722,大安區,羅二100,台北市羅路二段100號
C2110080713,00:00:00,99,泰山區,新五路一段106-18號,367,松山區,八德路四段650號11樓之13,台北市八德路四段650號11樓之13
C2110080655,00:00:00,73,內湖區,台北市內湖區新湖一路370號3/4樓,60,松山區,南東五346,台北市南東路五段346號
C2110080931,00:00:00,515,重莊特區,H07新北市五股區五工路136-1號,367,信義區,松德65,台北市松德65號
C2110080698,00:00:00,99,泰山區,新五路一段106-18號,505,松山區,台北市松山区八德路三段199巷12-1號5樓,台北市松山区八德路三段199巷12-1號5樓
C2110070331,00:00:00,32,松山區,台北市松山區民生東路三段156號17F(專線是7742+分機),722,中正區,愛國東216號4樓,台北市愛國東216號4樓
C2110080986,00:00:00,367,信義區,台北市信義區東興路69號11樓,513,板橋區,中山一11,新北市中山路一段11號
C2110071063,00:00:00,60,松山區,臺北市松山區光復北路11巷31-1號4樓,22,信義區,基隆二51,台北市基隆路二段51號
C2110080659,00:00:00,65,內湖區,台北市內湖區南京東路六段461號4樓-2,69,信義區,信義區松高路12號1樓,台北市信義區松高路12號1樓
C2110071912,00:00:00,71,大安區,台北市大安區忠孝東路四段270號13樓,729,新店區,新店中央一39,新北市新店中央路一段39號
C2110071903,00:00:00,22,信義區,台北市信義區東興路41號10樓,729,新店區,新店安康二149,新北市新店區安康路二段149號
C2110071964,00:00:00,73,內湖特區,台北市(內湖區)內湖路一段120巷17號2樓,71,大安區,仁愛四376,台北市仁愛路四段376號
C2110080712,00:00:00,99,泰山區,新五路一段106-18號,817,大同區,台北市大同區民生西路323號10樓之5,台北市大同區民生西路323號10樓之5
C2110071980,00:00:00,32,松山區,台北市松山區民權東路三段142號16樓,57,大安區,和平東路二107,台北市和平東路二段107號
C2110120666,00:00:00,515,重莊特區,H07新北市五股區五權路38號6F,19,文山區,基隆三155,台北市基隆三155號
C2110071971,00:00:00,510,萬華區,台北市萬華區廣州街141號2樓(129號進入到1樓保全室取件),32,松山區,南東三261,台北市南東三261號
C2110080643,00:00:00,510,萬華區,台北市萬華區莒光路310號3樓(由312號旁進入),503,中山區,松江87,台北市松江87號
C2110071892,00:00:00,60,松山區,台北市松山區市民大道五段99號4樓,708,中正區,台北市中正區北平東路7號,台北市中正區北平東路7號
C2110080674,00:00:00,509,丹鳳區,(丹鳳)新莊區中正路657-10號7F,23,內湖特區,台北市內湖區瑞光路423號10樓,台北市內湖區瑞光路423號10樓
C2110080670,00:00:00,73,內湖特區,台北市內湖區瑞光路76巷20號3樓,39,北投區,中央南二18,台北市中央南路二段18號
C2110071999,00:00:00,505,松山區,台北市松山區敦化南路一段57號3樓之6,367,南港區,市民大道七8,台北市市民大道路七段8號
C2110072029,00:00:00,60,松山區,台北市松山區南京東路五段1號5樓,270,新莊區,立信三12,新北市立信三12號
C2110080727,00:00:00,99,泰山區,新五路一段106-18號,710,中山區,10435台灣台北市中山北路三段22號北設工3樓,10435台灣台北市中山北路三段22號北設工3樓
C2110072012,00:00:00,57,大安區,忠孝東路四段45號10樓,65,內湖區,內湖區民善街205號2樓(11點開門,台北市內湖區民善街205號2樓(11點開門
C2110120667,00:00:00,367,信義區,台北市信義區東興路65號2樓,19,文山區,三福街9,台北市三福街9號
C2110072005,00:00:00,31,南港區,台北市南港區重陽路72號,505,松山區,八德路三232>富錦街2,台北市八德路三段232>富錦街2號
C2110080994,00:00:00,66,中山區,台北市中山區民生東路一段42號5樓之5,722,中正區,汀洲一328,台北市汀洲路一段328號
C2110071890,00:00:00,60,松山區,台北市松山區市民大道五段99號4樓,205,北投區,台北市北投區七星街1號(七星公園內),台北市北投區路七段星街1號(七星公園內)
C2110071899,00:00:00,60,松山區,台北市松山區光復南路65號6樓,76,中山區,遼寧179,台北市遼寧179號
C2110072004,00:00:00,31,南港區,台北市南港區重陽路72號,505,松山區,南京東四23,台北市南京東路四段23號
C2110080972,00:00:00,367,信義區,台北市信義區東興路65號2樓,367,南港區,市民大道七3,台北市市民大道路七段3號
C2110130990,00:00:00,367,信義區,台北市信義區東興路65號2樓,270,三重區,光復一82-6,241新北市三重區光復路一段82-6號
C2110080715,00:00:00,99,泰山區,新五路一段106-18號,99,中正區,思源街16-2號太子學舍水源舍區A棟1樓15房,台北市思源街16-2號太子學舍水源舍區A棟1樓15房
C2110080961,00:00:00,73,內湖特區,台北市內湖區瑞湖街58號4樓(一樓取),69,信義區,松仁58,台北市松仁58號
C2110080721,00:00:00,99,泰山區,新五路一段106-18號,710,中山區,農安街20號7樓之6,台北市農安街20號7樓之6
C2110071951,00:00:00,21,C,板橋區文化路二段287號14樓(掛帳不一定,76,中山區,建國北二17,10491台北市中山區建國北路二段17號
C2110080944,00:00:00,722,中正區,台北市中正區愛國東路22號5樓-市場開發處,23,內湖特區,洲子69,台北市洲子69號
C2110080993,00:00:00,22,信義區,台北市信義區東興路41號10樓,39,社子區,永平75,永平75
C2110080738,00:00:00,99,泰山區,新五路一段106-18號,710,大同區,哈密街59巷78弄5號11樓之二,台北市哈密街59巷78弄5號11樓之路二段
C2110071067,00:00:00,60,松山區,臺北市松山區光復北路11巷31-1號4樓,76,中山區,南東三65號,台北市南東三65號
C2110071887,00:00:00,60,松山區,台北市松山區光復南路65號13樓,231,中正區,羅斯福路二100,台北市羅斯福路二段100號
C2110072025,00:00:00,60,松山區,台北市松山區南京東路五段1號5樓,889,全省區,高雄,高雄
C2110080928,00:00:00,66,大同區,台北市大同區長安西路39號1樓-警衛室,60,松山區,市民大道五99,台北市市民大道路五段99號
C2110080647,00:00:00,501,重莊特區,三重區光復路一段88-10號5樓,69,信義區,信義五7,台北市信義路五段7號
C2110120680,00:00:00,367,信義區,台北市信義區東興路65號2樓,735,南港區,經貿二188,台北市經貿路二段188號
C2110071974,00:00:00,510,中正區,臺北市中正區延平南路189號B1樓之2,609,中正區,忠孝西一7,台北市忠孝西路一段7號
C2110080740,00:00:00,99,泰山區,新五路一段106-18號,722,中正區,衡陽路108號5樓之8,台北市衡陽路108號5樓之8
C2110070583,00:00:00,23,內湖特區,台北市內湖區瑞光路423號3樓,609,中正區,台北市中正區重慶南路一段83號7樓,台北市中正區重慶南路一段83號7樓
C2110071970,00:00:00,66,中山區,台北市中山區民生東路一段42號5樓之5,505,松山區,敦北201-24,台北市敦北201-24號
C2110080984,00:00:00,66,A,中山區中山北路二段44號1樓 (掛430017,205,C,文昌95,文昌95
C2110120692,00:00:00,73,內湖特區,台北市內湖區瑞湖街111號B1(收發室),735,南港區,忠孝東六481,台北市忠孝東路六段481號
C2110080656,00:00:00,65,內湖區,台北市內湖區安美街181號3樓,367,南港區,八德四760,台北市八德路四段760號
C2110080733,00:00:00,99,泰山區,新五路一段106-18號,13,中山區,復興北路48號,台北市復興北路48號
C2110080724,00:00:00,99,泰山區,新五路一段106-18號,708,中正區,新生南路一段120巷3號6F,台北市新生南路一段120巷3號6F
C2110080945,00:00:00,722,中正區,台北市中正區愛國東路22號5樓-市場開發處,889,全省區,台中,台中
C2110070336,00:00:00,32,松山區,台北市松山區民生東路三段156號17F(專線是7742+分機),32,中山區,復興北203號,台北市復興北203號
C2110071997,00:00:00,13,中山區,台北市中山區南京東路三段248號4樓,503,中山區,松江90,台北市松江90號
C2110080673,00:00:00,66,中山區,台北市中山區民生東路一段42號5樓之5,71,大安區,安和一83,台北市安和路一段83號
C2110071922,00:00:00,71,大安區,台北市大安區忠孝東路四段270號13樓,76,中山區,南京東三163,台北市南京東三163號
C2110120334,00:00:00,73,內湖特區,台北市內湖區瑞湖街111號B1(收發室),19,新店區,北宜一8,新北市新店區北宜路一段8號
C2110072009,00:00:00,57,大安區,台北市大安區仁愛路三段123巷26弄7號,710,大同區,延平北三61,台北市延平北三61號
C2110071998,00:00:00,13,中山區,台北市中山區南京東路三段248號4樓,367,信義區,基隆路一101,台北市基隆路一段101號
C2110080667,00:00:00,73,內湖特區,台北市內湖區瑞湖街111號B1(收發室),73,內湖區,內湖一91,台北市內湖路一段91號
C2110080962,00:00:00,60,松山區,台北市松山區南京東路五段1號5樓,22,信義區,基隆一200,台北市基隆路一段200號
C2110070330,00:00:00,32,松山區,台北市松山區民生東路三段156號17F(專線是7742+分機),31,南港區,市六151號15樓,台北市市路六段151號15樓
C2110070326,00:00:00,32,松山區,臺北市松山區民生東路三段156號3樓(12.-13.30午休),76,中山區,建國北二17號b1,台北市建國北路二段17號b1
C2110080996,00:00:00,515,重莊特區,新北市新莊區五工二路50巷11號,23,內湖特區,台北市內湖區瑞光路423號10樓,台北市內湖區瑞光路423號10樓
C2110131020,00:00:00,503,中山區,台北市中山區松江路59號4樓,722,中正區,許昌17,台北市許昌17號
C2110080929,00:00:00,65,內湖區,台北市內湖區南京東路六段461號4樓之2,69,信義區,松仁28,台北市松仁28號
C2110120699,00:00:00,367,信義區,台北市信義區東興路65號2樓,29,信義區,信義五7,台北市信義路五段7號
C2110080654,00:00:00,21,板橋區,新北市板橋區陽明街102號,505,松山區,台北市松山區南京東路四段17號,台北市松山區南京東路四段17號
C2110071910,00:00:00,71,大安區,台北市大安區忠孝東路四段270號13樓,503,中山區,松江168,台北市松江168號
C2110080960,00:00:00,32,松山區,台北市松山區民生東路三段109號14樓,505,松山區,民生東四133,台北市民生東路四段133號
C2110072028,00:00:00,60,松山區,台北市松山區南京東路五段1號5樓,889,全省區,高雄,高雄
C2110080720,00:00:00,99,泰山區,新五路一段106-18號,23,中山區,明水路602號5樓,台北市明水路602號5樓
C2110072035,00:00:00,56,大安區,台北市大安區敦化南路二段180號11樓,505,松山區,延吉街38,台北市延吉街38號
C2110071712,00:00:00,60,松山區,台北市松山區南京東路五段54號5樓,57,大安區,仁愛四99,台北市仁愛路四段99號
C2110190822,00:00:00,510,萬華區,台北市萬華區成都路10號,510,萬華區,台北市萬華區廣州街135號1樓,台北市萬華區廣州街135號1樓
C2110070328,00:00:00,32,松山區,臺北市松山區民生東路三段156號3樓(12.-13.30午休),609,中正區,重慶南一38號,台北市重慶南路一段38號
C2110080942,00:00:00,22,信義區,台北市信義區東興路41號10樓,39,士林區,小東28,台北市小東28號
C2110071931,00:00:00,71,大安區,台北市大安區忠孝東路四段270號13樓,205,社子區,倫等街57,士林區
C2110120701,00:00:00,76,中山區,台北市中山區民生東路三段2號12樓,505,松山區,敦北201,台北市敦北201號
C2110080981,00:00:00,66,大同區,台北市大同區天水路34號1F,2,三重區,三重區溪尾街14號7F-4 (12:00-13:30午休,新北市三重區溪尾街14號7F-4 (12:00-13:30午休
C2110072017,00:00:00,60,松山區,台北市松山區南京東路五段1號5樓,889,全省區,高雄,高雄
C2110072006,00:00:00,31,南港區,台北市南港區重陽路72號,39,社子區,社中街與永平街交叉口,社中街與永平街交叉口
C2110071916,00:00:00,71,大安區,台北市大安區忠孝東路四段270號13樓,708,中正區,仁愛二43,台北市仁愛路二段43號
C2110080671,00:00:00,22,信義區,台北市信義區東興路41號10樓,513,板橋區,漢生東312-1,新北市漢生東312-1號
C2110072014,00:00:00,506,舊莊區,忠孝東路七段369號C棟3樓(11點開門,39,天母區,天母區忠誠路二段55號4F,台北市天母區忠誠路二段55號4F
C2110071891,00:00:00,60,松山區,台北市松山區市民大道五段99號4樓,510,萬華區,台北市萬華區廣州街141號2樓(129號進入到1樓保全室取件),台北市萬華區廣州街141號2樓(129號進入到1樓保全室取件)
C2110080966,00:00:00,73,內湖區,台北市內湖區新湖一路370號3/4樓,73,大安區,忠孝東四59,台北市忠孝東路四段59號
C2110080697,00:00:00,99,泰山區,新五路一段106-18號,505,松山區,台北市 松山区敦化北路201号南亚电子部,台北市 松山区敦化北路201号南亚电子部號
C2110080702,00:00:00,99,泰山區,新五路一段106-18號,13,中山區,遼寧街101巷1號3樓之2,台北市遼寧街101巷1號3樓之2
C2110080965,00:00:00,66,中山區,台北市中山區民生東路一段42號5樓之5,13,松山區,南東三346,台北市南東三346號
C2110080939,0:00,710,中山區,臺北市中山區中山北路二段114號9樓,57,大安區,大安一75,台北市大安路一段75號
C2110072013,00:00:00,506,舊莊區,忠孝東路七段369號C棟3樓(11點開門,513,中和區,中和區中山路三段122號2樓(請從員工出入口進出)(11:00開門,新北市中和區中山路三段122號2樓(請從員工出入口進出)(11:00開門
C2110120719,00:00:00,13,中山區,長安東路二段215號8樓806室(管理室取),731,內湖區,台北市內湖區成功路二段115巷30號1樓,台北市內湖區成功路二段115巷30號1樓
C2110080672,00:00:00,22,信義區,台北市信義區東興路41號10樓,73,內湖區,內湖二103,台北市內湖路二段103號
C2110070585,00:00:00,23,內湖特區,台北市內湖區瑞光路423號3樓,510,萬華區,台北市萬華區康定路64號8樓,台北市萬華區康定路64號8樓
C2110072016,00:00:00,60,松山區,台北市松山區南京東路五段1號5樓,889,全省區,台中,台中
C2110080735,00:00:00,99,泰山區,新五路一段106-18號,32,松山區,敦化北120巷54號7F,台北市敦化北120巷54號7F
C2110080954,00:00:00,367,松山區,台北市松山區八德路四段760號13樓,731,內湖區,內湖一149,台北市內湖路一段149號
C2110072023,00:00:00,60,松山區,台北市松山區南京東路五段1號5樓,889,全省區,高雄,高雄
C2110071917,00:00:00,71,大安區,台北市大安區忠孝東路四段270號13樓,515,蘆洲區,蘆洲長樂8號,新北市蘆洲長樂8號
C2110071896,00:00:00,60,松山區,台北市松山區東興路12號9樓櫃台,503,中山區,長春149,台北市長春149號
C2110071924,00:00:00,71,大安區,台北市大安區忠孝東路四段270號13樓,722,中正區,杭州南二98,台北市杭州南路二段98號
C2110080662,00:00:00,32,松山區,台北市松山區民生東路三段156號11樓,21,板橋區,縣民大道二7,新北市縣民大道路二段7號
C2110080963,00:00:00,21,板橋區,新北市板橋區陽明街102號,21,板橋區,新北市板橋區文化路二段182巷3弄71號,新北市板橋區文化路二段182巷3弄71號
C2110071711,00:00:00,60,松山區,台北市松山區光復南路33巷12號6樓,270,新莊區,中平439,新北市中平439號
C2110080938,00:00:00,73,內湖特區,台北市內湖區瑞湖街111號B1(收發室),23,內湖特區,瑞光392,台北市瑞光392號
C2110080703,00:00:00,99,泰山區,新五路一段106-18號,710,大同區,酒泉街10巷23弄8號,台北市酒泉街10巷23弄8號
C2110080714,00:00:00,99,泰山區,新五路一段106-18號,503,中山區,松江路190號3樓,台北市松江路190號3樓
C2110130719,00:00:00,22,信義區,台北市信義區東興路41號10樓,722,大安區,泰順街38,台北市泰順街38號
C2110071678,00:00:00,32,松山區,台北市松山區民生東路三段156號11樓,29,信義區,信義五7,台北市信義路五段7號
C2110070325,00:00:00,32,松山區,臺北市松山區民生東路三段156號3樓(12.-13.30午休),710,大同區,承德路三10號,台北市承德路三段10號
C2110080723,00:00:00,99,泰山區,新五路一段106-18號,817,中正區,金門街2號,台北市金門街2號
C2110080709,00:00:00,99,泰山區,新五路一段106-18號,817,松山區,敦化北路168號11樓,台北市敦化北路168號11樓
C2110070327,00:00:00,32,松山區,臺北市松山區民生東路三段156號3樓(12.-13.30午休),71,大安區,仁愛四169號9樓,台北市仁愛路四段169號9樓
C2110120693,00:00:00,503,中山區,台北市中山區松江路59號4樓,32,松山區,民生東三156,台北市民生東三156號
C2110072018,00:00:00,60,松山區,台北市松山區南京東路五段1號5樓,889,全省區,台中,台中
C2110120707,00:00:00,367,南港區,台北市南港區八德路四段778號3樓,29,信義區,忠孝東路五段8號2樓,台北市忠孝東路五段8號2樓
C2110071921,00:00:00,71,大安區,台北市大安區忠孝東路四段270號13樓,205,北投區,致遠二125,台北市致遠路二段125號
C2110071680,00:00:00,32,松山區,臺北市松山區民生東路三段156號19樓之6,60,松山區,民生東五260巷3號,台北市民生東路五段260巷3號
C2110080991,00:00:00,367,信義區,台北市信義區東興路65號2樓,513,板橋區,民生三315,新北市民生三315號
C2110071919,00:00:00,71,大安區,台北市大安區忠孝東路四段270號13樓,205,天母區,天母北33,台北市天母北33號
C2110071973,00:00:00,270,新莊區,新北市新莊區新北大道二段312號4F,32,松山區,復興北367,台北市復興北367號
C2110080716,00:00:00,99,泰山區,新五路一段106-18號,505,松山區,南京東路四段 1 號 2樓 1203 室,台北市南京東路四段 1 號 2樓 1203 室
C2110080719,00:00:00,99,泰山區,新五路一段106-18號,710,中山區,德惠街34號7樓,台北市德惠街34號7樓
C2110080932,00:00:00,367,信義區,台北市信義區東興路65號2樓,77,中正區,福州15,台北市福州15號
C2110080969,00:00:00,65,內湖區,台北市內湖區成功路四段223巷15弄3號1樓,218,中和區,景平262,新北市景平262號
C2110080951,00:00:00,66,中山區,台北市中山區南京東路一段96號11樓,505,松山區,南東四164,台北市南東路四段164號
C2110120339,00:00:00,32,松山區,台北市松山區民生東路三段156號11樓,29,信義區,信義五7,台北市信義路五段7號
C2110080982,00:00:00,60,松山區,臺北市松山區光復北路11巷31-1號4樓,71,大安區,忠孝東四285,台北市忠孝東路四段285號
C2110072032,00:00:00,71,大安區,台北市大安區忠孝東路四段300號3F,708,中正區,忠孝東二95,台北市忠孝東路二段95號
C2110072033,00:00:00,60,松山區,台北市松山區市民大道五段99號4樓,367,信義區,台北市信義區光復南路133號2樓(園區內),台北市信義區光復南路133號2樓(園區內)
C2110080645,00:00:00,21,C,板橋區文化路二段285號3樓(掛帳不一定/222000,23,B,敬業四33,敬業路四段33
C2110080925,00:00:00,73,內湖區,台北市內湖區新湖一路370號3/4樓,76,中山區,建國北二135,台北市建國北路二段135號
C2110070342,00:00:00,32,松山區,台北市松山區民生東路三段156號17F(專線是7742+分機),505,松山區,民生東四52-1號,台北市民生東路四段52-1號
C2110080947,00:00:00,515,重莊特區,五權五路20號6樓,23,內湖特區,台北市內湖區瑞光路423號10樓,台北市內湖區瑞光路423號10樓
C2110072000,00:00:00,505,松山區,台北市松山區南京東路四段130號9樓之1,270,三重區,光復一61,241新北市三重區光復路一段61號
C2110120679,00:00:00,69,松山區,臺北市松山區光復北路11巷31-1號4樓,56,大安區,敦化南路二105,台北市敦化南路二段105號
C2110071927,00:00:00,71,大安區,台北市大安區忠孝東路四段270號13樓,31,汐止區,新台五路一段81,新北市新台五路一段81號
C2110080953,00:00:00,73,內湖特區,台北市內湖區瑞湖街111號B1(收發室),501,板橋區,文化一266,新北市文化路一段266號
C2110072002,00:00:00,31,南港區,台北市南港區重陽路72號,29,信義區,松仁7號,台北市松仁7號
C2110080701,00:00:00,99,泰山區,新五路一段106-18號,503,中山區,伊通街129號10樓-4,台北市伊通街129號10樓-4
C2110071923,00:00:00,71,大安區,台北市大安區忠孝東路四段270號13樓,515,蘆洲區,蘆洲光榮128,新北市蘆洲光榮128號
C2110070582,00:00:00,23,內湖特區,台北市內湖區瑞光路423號3樓,515,新莊區,新莊區五權路28號,248新北市五股區五權路28號
C2110071929,00:00:00,71,大安區,台北市大安區忠孝東路四段270號13樓,731,內湖區,新湖二158,台北市新湖路二段158號
C2110080722,00:00:00,99,泰山區,新五路一段106-18號,66,中山區,林森北路100號,台北市林森北路100號
C2110071914,00:00:00,71,大安區,台北市大安區忠孝東路四段270號13樓,56,大安區,敦化南二128,台北市敦化南路二段128號
C2110080651,00:00:00,367,信義區,台北市信義區東興路69號11樓,513,板橋區,國慶151,新北市國慶151號
C2110070339,00:00:00,32,松山區,松山區民權東路三段178號13樓,503,中山區,長春27號2樓B棟,台北市長春27號2樓B棟
C2110071908,00:00:00,71,大安區,台北市大安區忠孝東路四段270號13樓,722,中正區,寧波西97,台北市寧波西97號
C2110080995,00:00:00,722,中正區,台北市中正區愛國東路22號5樓-市場開發處,13,松山區,復興北57,台北市復興北57號
C2110071982,00:00:00,69,信義區,信義區松高路12號1樓,57,大安區,忠孝東四45,台北市忠孝東路四段45號
C2110071905,00:00:00,22,信義區,台北市信義區東興路41號10樓,31,南港區,忠孝東六21,台北市忠孝東路六段21號
C2110072019,00:00:00,60,松山區,台北市松山區南京東路五段1號5樓,510,萬華區,西寧南125,台北市西寧南125號
C2110080705,00:00:00,99,泰山區,新五路一段106-18號,710,大同區,承德路 三段 83號 5樓 之 3號,台北市承德路 三段 83號 5樓 之 3號
C2110071906,00:00:00,71,大安區,台北市大安區忠孝東路四段270號13樓,205,士林區,中社路一9,111台北市士林區中社路一段9號
C2110072026,00:00:00,60,松山區,台北市松山區南京東路五段1號5樓,889,全省區,台中,台中
C2110071965,00:00:00,515,重莊特區,新北市五工區五工路107號3樓,505,松山區,八德三12,台北市八德三12號
C2110081004,00:00:00,367,信義區,台北市信義區東興路69號11樓,710,中山區,錦西18,台北市錦西18號
C2110070333,00:00:00,32,松山區,台北市松山區民生東路三段156號17F(專線是7742+分機),505,松山區,民生東四54-1號,台北市民生東路四段54-1號
C2110071909,00:00:00,71,大安區,台北市大安區忠孝東路四段270號13樓,57,大安區,大安路二66,台北市大安路二段66號
C2110070343,00:00:00,32,松山區,台北市松山區民生東路三段156號17F(專線是7742+分機),609,中正區,信陽街18號5樓,台北市信陽街18號5樓
C2110080941,00:00:00,22,信義區,台北市信義區東興路41號10樓,60,松山區,光復南1,台北市光復南1號
C2110071913,00:00:00,71,大安區,台北市大安區忠孝東路四段270號13樓,205,大同區,民樂146,台北市民樂146號
C2110080658,00:00:00,65,內湖區,台北市內湖區南京東路六段461號4樓-2,69,信義區,松仁路28號3樓,台北市松仁路28號3樓
C2110070584,00:00:00,23,內湖特區,台北市內湖區瑞光路423號3樓,735,南港區,南港區忠孝東路六段467號1樓,台北市南港區忠孝東路六段467號1樓
C2110072015,00:00:00,60,松山區,台北市松山區南京東路五段1號5樓,881,全省區,台中,台中
C2110120687,00:00:00,76,中山區,台北市中山區民生東路三段2號12樓,73,內湖特區,瑞光26,台北市瑞光26號
C2110080987,00:00:00,73,內湖區,台北市內湖區新湖一路370號3/4樓,57,大安區,忠孝東四59,台北市忠孝東路四段59號
C2110120361,00:00:00,66,中山區,台北市中山北路二段45巷21-1號2F,31,南港區,南港三47,台北市南港三47號
C2110071992,00:00:00,881,全省區,臺中市北區育德路2號(立夫醫療大樓2樓-藥劑部),722,中正區,中華路一段59號9905室,台北市中華路一段59號9905室
C2110071064,00:00:00,60,松山區,臺北市松山區光復北路11巷31-1號4樓,57,大安區,市民大道三198,台北市市民大道三198號
C2110080706,00:00:00,99,泰山區,新五路一段106-18號,710,大同區,承德路3段285號2F Pinko,台北市承德路3段285號2F Pinko
C2110071911,00:00:00,71,大安區,台北市大安區忠孝東路四段270號13樓,56,大安區,敦化南二207,台北市敦化南路二段207號
C2110130753,00:00:00,22,信義區,台北市信義區東興路41號10樓,515,三重區,重新四101-18,新北市重新路四段101-18號
C2110070341,00:00:00,32,松山區,台北市松山區民生東路三段156號17F(專線是7742+分機),727,內湖特區,瑞光路510號2樓,台北市瑞光路510號2樓
C2110080729,00:00:00,99,泰山區,新五路一段106-18號,710,中山區,中山北路二段115巷22號15樓,台北市中山北路二段115巷22號15樓
C2110080664,00:00:00,367,信義區,台北市信義區東興路65號2樓,60,松山區,南東五89,台北市南東路五段89號
C2110080699,00:00:00,99,泰山區,新五路一段106-18號,722,中正區,開封街一段9號,台北市開封街一段9號
C2110080657,00:00:00,501,重莊特區,新北市三重區重新路五段609巷14號6樓之17,503,中山區,中山區松江路148號9樓,台北市中山區松江路148號9樓
C2110120362,00:00:00,73,內湖區,台北市內湖區新湖一路370號3/4樓,270,新莊區,中正308,新北市中正308號
C2110071068,00:00:00,60,松山區,臺北市松山區光復北路11巷31-1號4樓,32,松山區,復興北231,台北市復興北231號
C2110080956,00:00:00,66,大同區,台北市大同區長安西路106號10樓-5,503,中山區,南東二6,台北市南東路二段6號
C2110080743,00:00:00,99,泰山區,新五路一段106-18號,510,萬華區,桂林路135號龍山派出所鄭埕祥先生,台北市桂林路135號龍山派出所鄭埕祥先生
C2110071969,00:00:00,270,重莊特區,新北市(新莊區)中正路82號12樓,710,中山區,中山北二96,台北市中山北路二段96號
C2110080700,00:00:00,99,泰山區,新五路一段106-18號,32,松山區,敦化北路240號6樓,台北市敦化北路240號6樓
C2110080650,00:00:00,367,信義區,台北市信義區東興路69號11樓,506,舊莊區,忠孝東七369 聖娜多堡,台北市忠孝東路七段369 聖娜多堡號
C2110080973,00:00:00,367,信義區,台北市信義區東興路65號2樓,23,內湖特區,台北市內湖區瑞光路258巷52號4樓,台北市內湖區瑞光路258巷52號4樓
C2110080708,00:00:00,99,泰山區,新五路一段106-18號,76,中山區,復興北路178號12樓之10,台北市復興北路178號12樓之10
C2110070329,00:00:00,32,松山區,台北市松山區民生東路三段156號17F(專線是7742+分機),76,中山區,建國北二17號B1樓,台北市建國北路二段17號B1樓
C2110071894,00:00:00,60,松山區,台北市松山區市民大道五段99號4樓,66,大同區,台北市大同區長安西路39號1樓-警衛室,台北市大同區長安西路39號1樓-警衛室
C2110080967,00:00:00,65,內湖區,台北市內湖區南京東路六段461號4樓-2,57,大安區,忠孝東四45,台北市忠孝東路四段45號
C2110120708,00:00:00,21,板橋區,板橋區新站路16號41F,731,內湖特區,台北市內湖區瑞光路423號10樓,台北市內湖區瑞光路423號10樓
C2110071996,00:00:00,13,松山區,台北市松山區八德路二段424號1F新大樓後棟,367,松山區,八德路四520,台北市八德路四段520號
C2110080711,00:00:00,99,泰山區,新五路一段106-18號,231,中正區,和平西路二段100號1樓祕書室,台北市和平西路二段100號1樓祕書室
C2110071932,00:00:00,71,大安區,台北市大安區忠孝東路四段270號13樓,205,天母區,雨聲街105,台北市雨聲街105號
C2110071995,00:00:00,13,松山區,台北市松山區八德路二段424號1F新大樓後棟,503,中山區,松江87,台北市松江87號
C2110071918,00:00:00,71,大安區,台北市大安區忠孝東路四段270號13樓,60,松山區,南京東五63,台北市南京東路五段63號
C2110120540,00:00:00,73,內湖區,台北市內湖區新湖一路370號3/4樓,56,大安區,安和二60,台北市安和路二段60號
C2110071920,00:00:00,71,大安區,台北市大安區忠孝東路四段270號13樓,21,土城區,土城中央二191,新北市土城中央路二段191號
C2110071902,00:00:00,22,信義區,台北市信義區東興路41號10樓,76,中山區,建國北二137,台北市建國北路二段137號
C2110080663,00:00:00,367,信義區,台北市信義區東興路65號2樓,73,內湖特區,瑞湖17,台北市瑞湖17號
C2110070340,00:00:00,32,松山區,台北市松山區民生東路三段109號14樓,23,內湖特區,堤頂二407巷32號6樓,台北市堤頂路二段407巷32號6樓
C2110080653,00:00:00,515,重莊特區,H07新北市五股區五權七路38號1F,31,南港區,忠孝東六488,台北市忠孝東路六段488號
C2110070004,07:45:00,13,南港區,經貿二路188號6F,32,松山區,台北市松山區民生東路三段156號17F,台北市松山區民生東路三段156號17F
C2110061220,08:00:00,510,萬華區,台北市萬華區廣州街141號2樓(129號進入到1樓保全室取件),60,松山區,台北市松山區市民大道五段99號4樓,台北市松山區市民大道五段99號4樓
C2110061063,08:20:00,57,大安區,台北市大安區忠孝東路四段77號中心診所10樓,513,土城區,新北市土城區承天路6號 (大智樓),新北市土城區承天路6號 (大智樓)
C2110070025,08:30:00,515,重莊特區,H07新北市新莊區五工五路38號B1 收發室,727,內湖特區,台北市內湖區瑞光路423號10樓,台北市內湖區瑞光路423號10樓
C2110070029,08:30:00,71,信義區,信義區虎林街232巷10號1樓(右手邊第二間),69,信義區,市府路1號B2,台北市市府路1號B2
C2110070033,08:30:00,90,松山區,復興北路363號8樓,90,大同區,承德路三段58號8樓之6,台北市承德路三段58號8樓之6
C2110070026,08:30:00,13,大安區,敦南一108,13,中山區,台北市中山區南京東路二段77號3樓(收發在B1),台北市中山區南京東路二段77號3樓(收發在B1)
C2110070031,08:30:00,70,內湖區,B31台北市內湖區民權東路6段15巷33號2樓,70,中山區,A20台北市中山區吉林路345號1樓,A20台北市中山區吉林路345號1樓
C2110070016,08:30:00,77,內湖區,台北市內湖區南京路六段386號2樓,77,松山區,台北市松山區民生東路三段156號17F,台北市松山區民生東路三段156號17F
C2110070020,08:30:00,71,信義區,信義區虎林街232巷10號1樓(右手邊第二間),60,松山區,八德四30,台北市八德路四段30號
C2110070022,08:30:00,76,A,台北市中山區建國北路二段17號B1,708,A,濟南路二段42號4F,濟南路二段42號4F
C2110070023,08:30:00,521,泰山區,泰山區新五路一段106-18號(圓通),521,松山區,台北市松山區八德路四段36巷42號1F,台北市松山區八德路四段36巷42號1F
C2110070013,08:30:00,23,內湖特區,B11台北市內湖區瑞光路423號10F,22,信義區,信義區忠孝東路四段550號5F請交本人@收發午休12.00-1.30,台北市信義區忠孝東路四段550號5F請交本人@收發午休12.00-1.30
C2110070015,08:30:00,71,A,台北市大安區仁愛路四段118號7F,270,C,新北市新莊區明中街10號之1,新北市新莊區明中街10號之1
C2110070019,08:30:00,66,大同區,台北市大同區承德路一段70號13樓,71,大安區,大安區忠孝東路四段219號4F,台北市大安區忠孝東路四段219號4F
C2110070017,08:30:00,90,松山區,敦化南路一段66號7樓(通知放收發),90,松山區,台北市松山區民生東路三段156號17F,台北市松山區民生東路三段156號17F
C2110070018,8:30,66,中山區,台北市中山區林森北路85巷23號,71,大安區,台北市大安區延吉街70巷5弄1號2樓,台北市大安區延吉街70巷5弄1號2樓
C2110070012,08:30:00,515,重莊特區,H07新北市新莊區五權路28號7樓,727,內湖特區,台北市內湖區瑞光路423號10樓,台北市內湖區瑞光路423號10樓
C2110070011,08:30:00,32,松山區,台北市松山區民生東路三段156號17F,505,松山區,台北市民生東路四段52-1號1F,台北市民生東路四段52-1號1F
C2110070009,08:30:00,21,板橋區,縣民大道二段68號24F,32,松山區,臺北市松山區民生東路三段156號3F,臺北市松山區民生東路三段156號3F
C2110070006,08:30:00,56,松山區,台北市松山區八德路二段424號5樓,710,大同區,重慶北路三段146號,台北市重慶北路三段146號
C2110061218,08:30:00,721,大安區,仁愛路四段118號B1,721,松山區,台北市松山區民生東路三段156號17F,台北市松山區民生東路三段156號17F
C2110061004,08:30:00,73,內湖區,臺北市內湖區民權東路六段21巷33號2樓,73,內湖特區,台北市內湖區基湖路35巷51號5樓之1,台北市內湖區基湖路35巷51號5樓之1
C2110070041,08:47:00,22,信義區,臺北市信義區信義路四段375號6樓之8,218,中和區,新北市中和區中和路196巷19號3F,新北市中和區中和路196巷19號3F
C2110070039,08:48:00,503,中山區,台北市中山區中山北路二段42號2樓,22,信義區,基隆一333,台北市基隆路一段333號
C2110070048,08:54:00,73,內湖特區,台北市內湖區瑞光路70號6樓,23,內湖特區,台北市瑞光路669號,台北市瑞光路669號
C2110070037,09:00:00,502,永和區,永和區福和路84號,708,中正區,台北市中正區林森南路10號1樓,台北市中正區林森南路10號1樓
C2110070036,09:00:00,13,松山區,臺北市松山區長安東路二段219號12樓,71,大安區,大安區延吉街70巷5弄1號2樓,台北市大安區延吉街70巷5弄1號2樓
C2110070034,09:00:00,32,松山區,台北市松山區民生東路三段156號17F,513,板橋區,文化路二段285號-送18樓,新北市文化路二段285號-送18樓
C2110070035,09:00:00,735,信義區,信義區永吉路18號1樓,735,松山區,台北市松山區民生東路三段156號17F,台北市松山區民生東路三段156號17F
C2110061229,09:00:00,510,萬華區,台北市萬華區廣州街141號2樓(129號進入到1樓保全室取件),722,中正區,台北市中正區開封街1段3號4樓,台北市中正區開封街1段3號4樓
C2110061196,9:00,23,B,台北市內湖區基湖路32號3樓,71,大安區,仁愛路四段118號18F(掛312000,台北市大安區仁愛路四段118號(掛382100
C2110061188,09:00:00,729,文山區,台北市中正區汀州路三段230巷14弄2號,708,中正區,台北市中正區北平東路7號,台北市中正區北平東路7號
C2110061174,9:00,710,中山區,台北市中山北路三段32號6F,56,大安區,敦南二68,台北市敦南路二段68號
C2110061172,09:00:00,505,松山區,台北市松山區南京東路四段130號9樓之1,505,松山區,台北市松山區敦化南路一段57號3樓之6,台北市松山區敦化南路一段57號3樓之6
C2110061170,9:00,60,松山區,台北市松山區南京東路五段16號2樓南山人壽耀華通訊處,57,大安區,忠孝東路四段87號8F,台北市忠孝東路四段87號8F
C2110061159,09:00:00,23,內湖特區,台北市內湖區瑞光路513巷33號8樓,710,中山區,中山區農安街10-1號3樓,台北市中山區農安街10-1號3樓
C2110061157,09:00:00,76,中山區,民生東路三段2號4樓之1,708,中正區,中正區忠孝東路二段96號10樓,台北市中正區忠孝東路二段96號10樓
C2110061156,9:00,60,松山區,南京東路五段188號10樓,56,大安區,台北市大安區敦化南路二段69號4樓,台北市大安區敦化南路二段69號4樓
C2110061165,09:00:00,710,中山區,台北市中山區中山北路三段30號10樓之5,22,信義區,台北市信義區景聯里松勤街2號1樓,台北市信義區景聯里松勤街2號1樓
C2110061153,09:00:00,722,中正區,台北市中正區館前路71號9F,735,南港區,市民大道六段288號14樓1408室,台北市市民大道六段288號14樓1408室
C2110061151,09:00:00,22,信義區,台北市信義區光復南路547號11樓之1,231,中正區,台北市中正區和平西路一段143號4樓之1,台北市中正區和平西路一段143號4樓之1
C2110061146,09:00:00,521,大安區,台北市大安區光復南路630號2樓,521,五股區,五權七路,新北市五段權七路號
C2110061071,09:00:00,76,A,台北市建國北路二段17號B1,2,三重區,三重區正義北路116號3樓(帳掛381300,241新北市三重區正義北路116號3f
C2110061069,09:00:00,736,C,三重區正義北路116號3樓(掛帳381300,736,A,台北市中山區建國北路二段17號B1,台北市中山區建國北路二段17號B1
C2110061067,09:00:00,19,新店區,新店區文化路78巷1弄9號1樓,515,重莊特區,新北市新莊區五工五路28號3樓,新北市新莊區五段工五路28號3樓
C2110061064,09:00:00,66,中山區,南京西路107巷11號,65,內湖區,台北市內湖區民權東路六段123巷34弄10號2F,台北市內湖區民權東路六段123巷34弄10號2F
C2110061065,09:00:00,21,板橋區,板橋區文化路１段２６８號２０樓之２,515,重莊特區,新北市新莊區五工五路28號3樓,新北市新莊區五段工五路28號3樓
C2110061056,09:00:00,13,中山區,台北市中山區南京東路三段26號4樓,23,內湖特區,瑞光513,台北市瑞光513號
C2110061057,09:00:00,39,關渡區,臺北市北投區知行路225巷12號,31,南港區,台北市南港區研究院路一段130巷99號7樓F棟,台北市南港區研究院路一段130巷99號7樓F棟
C2110061041,09:00:00,251,A,忠孝東路五段408號2樓 (掛帳430971,251,內湖區,舊宗路二207,114台北市內湖區舊宗路二段207號
C2110061027,09:00:00,521,內湖區,台北市內湖區行忠路42號6樓,521,其他區,台中 北屯區,台中 北屯區
C2110061011,09:00:00,502,中和區,新北市中和區中正路866-8號11樓,509,新莊區,新北市新莊區新泰路246號1F,新北市新莊區新泰路246號1F
C2110061005,09:00:00,19,新店區,新店區復興路1巷1號,73,內湖區,台北市內湖區內湖路一段91巷17號9樓之2,台北市內湖區內湖路一段91巷17號9樓之2
C2110060971,09:00:00,503,中山區,台北市中山區南京東路2段160號5樓A室,76,中山區,民權東三段4號3F,台北市民權東三段4號3F
C2110060969,09:00:00,231,中正區,台北市中正區重慶南路二段51號5樓,270,新莊區,新莊  中平路439號,新北市新莊  中平路439號
C2110060970,09:00:00,57,大安區,大安區仁愛路三段125號3樓,231,中正區,台北市中正區和平西路一段88號4樓,台北市中正區和平西路一段88號4樓
C2110060964,09:00:00,69,信義區,台北市信義區松高路9號23樓,73,內湖區,內湖路一段120巷15弄25號4樓,台北市內湖路一段120巷15弄25號4樓
C2110060957,09:00:00,722,中正區,忠孝西路一段6號14F(門口分機按4129,32,松山區,台北市松山區民生東路三段156號17F(專線是7742+分機),台北市松山區民生東路三段156號17F(專線是7742+分機)
C2110060800,09:00:00,76,A,建國北路二段17號(掛318100,735,B,園區3號,園區3號
C2110060599,09:00:00,60,松山區,延壽街330巷17弄3-1號4F,513,板橋區,文化二31號,新北市文化路二段31號
C2110050853,09:00:00,23,大安區,台北市大安區仁愛路四段300巷22號,23,內湖特區,台北市內湖區瑞光路392號1樓收發室(6081,台北市內湖區瑞光路392號1樓收發室(6081
C2110070052,09:02:00,56,大安區,安和路二段118號10樓,19,文山區,長興街131號,台北市長興街131號
C2110070050,09:02:00,710,中山區,台北市中山區中山北路三段47號8樓803室,218,中和區,新北市中和區中和路366號5樓之2,新北市中和區中和路366號5樓之2
C2110070051,09:03:00,501,重莊特區,H02新北市三重區光復路二段69號 @收送都在後門收發,506,汐止區,汐止區新台五路一段93號31樓,新北市汐止區新台五路一段93號31樓
C2110070054,09:04:00,710,中山區,台北市中山區中山北路三段47號8樓803室,513,板橋區,新北市板橋區板新路17號2樓,新北市板橋區板新路17號2樓
C2110070053,9:04,505,松山區,台北市南京東路四段130號9樓-1,708,大安區,仁愛路三段24巷7號6樓,台北市仁愛路三段24巷7號6樓
C2110070057,09:05:00,39,士林區,中山北五380號1樓,60,松山區,台北市八德路四段245巷32弄42號5F-1,台北市八德路四段245巷32弄42號5F-1
C2110070055,09:05:00,56,大安區,台北市大安區安和路二段35巷5號2樓,609,中正區,台北巿中正區懷寧街78號8樓,台北市台北巿中正區懷寧街78號8樓
C2110070059,09:08:00,77,中山區,台北市中山區南京東路二段111號4F(一樓取),77,中正區,福州15,台北市福州15號
C2110070060,09:08:00,736,中山區,台北市中山區南京東路2段160號5樓A室,736,信義區,台北市信義區光復南路495號2樓之1,台北市信義區光復南路495號2樓之1
C2110070063,09:09:00,19,文山區,興隆路三段79巷3號,708,中正區,台北市中正區林森南路10號1樓,台北市中正區林森南路10號1樓
C2110070067,09:10:00,76,中山區,南京東路二段137號3F,32,松山區,臺北市松山區民生東路三段156號3樓(12.-13.30午休),臺北市松山區民生東路三段156號3樓(12.-13.30午休)
C2110070066,09:10:00,71,大安區,大安區忠孝東路四段289號7樓之1,76,中山區,南東三91,台北市南東三91號
C2110070065,09:10:00,56,大安區,台北市大安區光復南路630號2樓,60,松山區,市民大道五段99號4樓,台北市市民大道五段99號4樓
C2110060210,09:10:00,710,大同區,台北市大同區延平北路2段202號11樓之1,32,松山區,台北市松山區民權東路三段142號16樓,台北市松山區民權東路三段142號16樓
C2110070072,09:11:00,708,中正區,臺北市中正區青島東路5號4F-3倉庫,515,新莊區,五工五7號,242新北市新莊區五工五路7號
C2110070073,09:12:00,23,內湖特區,台北市內湖區瑞光路513巷33號8樓,367,信義區,信義區永吉路120巷27弄8號8樓,台北市信義區永吉路120巷27弄8號8樓
C2110070070,09:12:00,76,中山區,遼寧街223號11F-4,66,中山區,台北市中山區中山北路一段53巷20號3樓之1,台北市中山區中山北路一段53巷20號3樓之1
C2110070074,09:14:00,506,汐止區,新北市汐止區新江北路15巷12號3樓,69,信義區,松高路9號9樓,台北市松高路9號9樓
C2110070077,09:15:00,23,內湖特區,台北市內湖區瑞光路513巷33號8樓,218,中和區,新北市中和區圓通路367巷33弄124號2樓,新北市中和區圓通路367巷33弄124號2樓
C2110070092,09:15:00,60,松山區,台北市松山區南京東路五段1號5樓,889,全省區,台中,台中
C2110070075,09:16:00,22,信義區,台北市信義區嘉興街175巷2弄16號1樓,367,信義區,信義區基隆路一段143號2樓之1,台北市信義區基隆路一段143號2樓之1
C2110070076,09:17:00,721,大安區,台北市大安區羅斯福路二段41號3樓,721,中正區,延平南38號,台北市延平南38號
C2110070078,9:17,708,中正區,台北市中正區新生南路一段50號4樓之5,57,大安區,仁愛路四段118號,台北市仁愛路四段118號
C2110070082,09:18:00,503,中山區,南京東路二段85號,505,松山區,台北市松山區南京東路四段126號13樓A1室(進門左手邊),台北市松山區南京東路四段126號13樓A1室(進門左手邊)
C2110070081,09:18:00,22,信義區,台北市信義區嘉興街175巷2弄16號1樓,39,淡水區,新北市淡水區中正東路二段27之7號17樓,新北市淡水區中正東路二段27之7號17樓
C2110070079,09:18:00,708,中正區,台北市中正區新生南路一段50號4樓之5,23,大直區,樂群三路128號,台北市樂群三段路128號
C2110070085,09:18:00,23,內湖特區,台北市內湖區瑞光路513巷33號8樓,710,大同區,台北市大同區重慶北路3段338號4樓,台北市大同區重慶北路3段338號4樓
C2110070087,09:20:00,22,信義區,台北市信義區光復南路547號11樓之1,76,中山區,台北市中山區龍江路239號5樓之2,台北市中山區龍江路239號5樓之2
C2110070089,9:20,23,內湖特區,台北市內湖區瑞光路513巷33號8樓,19,大安區,台北市大安區羅斯福路3段149號,台北市大安區羅斯福路3段149號
C2110070086,09:20:00,71,A,台北市仁愛路四段118號(掛帳不一定,270,E,樹林俊英街84,樹林俊英街84
C2110070096,09:21:00,510,萬華區,昆明街77號7樓,609,中正區,總統府-重慶南路一,台北市總統府-重慶南路一段號
C2110070093,9:21,23,內湖特區,台北市內湖區瑞光路513巷33號8樓,57,大安區,台北市大安區仁愛路4段37-35號3樓 北棟,台北市大安區仁愛路4段37-35號3樓 北棟
C2110070090,09:21:00,57,大安區,台北市大安區忠孝東路三段197號5樓,69,信義區,台北市信義區信義路五段5號3G21室,台北市信義區信義路五段5號3G21室
C2110070091,09:21:00,205,淡水區,新北市淡水區中山路111號5樓之1,21,板橋區,板橋  漢生東路278,新北市板橋  漢生東路278號
C2110070088,09:21:00,503,中山區,松江路277號7F,231,中正區,寧波西80號,台北市寧波西80號
C2110070094,09:22:00,39,士林區,台北市(士林區)德行西路45號3F-1,515,重莊特區,新北市五股區五工二路127號6F,新北市五股區五工二段路127號6F
C2110070095,09:22:00,23,內湖特區,台北市內湖區瑞光路392號1樓收發室,735,南港區,經貿二168,台北市經貿路二段168號
C2110070101,9:23,56,A,敦南二39號7樓,71,大安區,仁愛路四段118號19F(掛帳382200,台北市大安區仁愛路四段118號(掛382100
C2110070097,09:23:00,69,信義區,台北市松壽路2號,73,內湖區,台北市內湖區內湖路一段300號6F-1,台北市內湖區內湖路一段300號6F-1
C2110070102,09:24:00,510,萬華區,昆明街77號7樓,708,中正區,新生南路一85號,台北市新生南路一段85號
C2110070103,09:24:00,2,三重區,三重區新北大道一段242號1樓,76,中山區,長春路380號7F之1,台北市長春路380號7F之1
C2110070099,09:24:00,510,萬華區,昆明街77號7樓,513,板橋區,縣民大道二段7號18F,新北市縣民大道二段7號18F
C2110070098,09:24:00,510,萬華區,昆明街77號7樓,708,中正區,忠孝東路一1號,台北市忠孝東路一段1號
C2110070133,09:25:00,60,松山區,台北市松山區南京東路五段343號6樓之2,13,中山區,台北市松山區長安東路二段225號C棟8樓,台北市松山區長安東路二段225號C棟8樓
C2110070106,09:26:00,23,內湖特區,台北市內湖區瑞光路392號1樓收發室(成:6520,65,內湖區,石潭151號,台北市石潭151號
C2110070105,09:26:00,251,信義區,台北市信義區松高路9號23樓,251,內湖區,文德路66,台北市文德路66號
C2110070109,09:27:00,32,松山區,台北市松山區民族東路765號1樓,513,板橋區,板橋區四川路二段245巷19弄29號1樓,新北市板橋區四川路二段245巷19弄29號1樓
C2110070108,09:27:00,515,重莊特區,新北市新莊區五工路110號,727,內湖特區,內湖  舊宗路二段189,台北市內湖  舊宗路二段189號
C2110070110,09:27:00,505,松山區,台北市松山區南京東路四段130號9樓之1,65,內湖區,台北市內湖區新湖一路36巷18號,台北市內湖區新湖一段路36巷18號
C2110070107,09:27:00,505,松山區,台北市松山區南京東路四段130號9樓之1,65,內湖區,台北市內湖區新湖三路136號1樓,台北市內湖區新湖三段路136號1樓
C2110070128,09:28:00,60,松山區,台北市松山區東興路12號14樓,13,松山區,台北市松山區敦化北路88號,台北市松山區敦化北路88號
C2110070121,09:28:00,23,內湖特區,台北市內湖區瑞光路423號8F出電梯旁邊的籃子裏面,710,大同區,承德路三223-1號7F,台北市承德路三段223-1號7F
C2110070111,09:28:00,32,松山區,台北市松山區民族東路765號1樓,270,三重區,三重區新北大道一176號4樓,新北市三重區新北大道路一段176號4樓
C2110070112,09:28:00,710,大同區,台北市大同區承德路三段246號6F,66,中山區,中山北二50號,台北市中山北路二段50號
C2110070120,09:29:00,710,中山區,臺北市中山區中山北路二段114號9樓,69,信義區,市府1,台北市市府1號
C2110070113,09:29:00,218,C,永和區中和路345號18F(帳掛381200,57,A,台北市大安區仁愛路四段118號,台北市大安區仁愛路四段118號
C2110070125,09:30:00,57,大安區,台北市大安區信義路三段147巷17弄5號6樓,205,淡水區,淡水  八勢路50巷8弄46號,新北市淡水  八段勢路50巷8弄46號
C2110070124,09:30:00,23,內湖特區,台北市內湖區瑞光路423號8F出電梯旁邊的籃子裏面,609,中正區,台北市中正區重慶南路一段83號7樓,台北市中正區重慶南路一段83號7樓
C2110070122,09:30:00,23,內湖特區,台北市內湖區瑞光路423號8F出電梯旁邊的籃子裏面,510,萬華區,康定路64號8樓,台北市康定路64號8樓
C2110070068,09:30:00,505,松山區,台北市松山區敦化南路一段57號3樓之6,735,南港區,台北市南港區三重路19之6號7樓(南港軟體園區C棟),台北市南港區三段重路19之6號7樓(南港軟體園區C棟)
C2110070069,09:30:00,367,南港區,台北市南港區中坡北路2號4樓,710,大同區,台北市大同區承德路三段230號8樓,台北市大同區承德路三段230號8樓
C2110070064,09:30:00,367,信義區,台北市信義區東興路45號5樓,515,重莊特區,新北市新莊區五工五路28號3樓,新北市新莊區五段工五路28號3樓
C2110070047,09:30:00,23,內湖特區,台北市內湖區瑞光路423號9樓實驗室,39,天母區,天玉街38巷23號,台北市天玉街38巷23號
C2110061059,09:30:00,73,B,台北市內湖區環山路一段32號4F,71,A,台北市大安區仁愛路四段118號,台北市大安區仁愛路四段118號
C2110061018,09:30:00,57,大安區,臺北市大安區復興南路一段245號4樓之1,505,松山區,南京東路四段23號2樓之2,台北市南京東路四段23號2樓之2
C2110060904,09:30:00,73,內湖特區,陽光街345巷6號6樓A室,76,中山區,北市長春路219號12F-1,台北市北市長春路219號12F-1
C2110070126,09:31:00,32,松山區,松山區敦化北路120巷50號4樓,32,中山區,民權東三144號,台北市民權東三144號
C2110070127,09:32:00,735,南港區,台北市南港區三重路19-9號5樓(特殊點),69,信義區,忠孝東五68號,台北市忠孝東路五段68號
C2110070131,09:33:00,231,中正區,台北市羅斯福路二段100號5樓,727,內湖區,內湖一246號,台北市內湖路一段246號
C2110070130,09:33:00,270,重莊特區,新北市三重區光復路二段133號,31,南港區,園區3之1號,台北市園區3之1號
C2110070134,9:35,505,松山區,台北市南京東路四段130號9樓-1,57,大安區,忠孝東路四段87號8樓,台北市忠孝東路四段87號8樓
C2110070136,09:35:00,367,松山區,台北市(南港區)八德路四段768巷5號5F之1,69,信義區,台北市忠孝東路5段68號1樓,台北市忠孝東路5段68號1樓
C2110070135,09:37:00,71,A,台北市仁愛路四段118號(掛帳不一定,39,D,中山北六89,中山北路六段89
C2110070137,09:40:00,503,中山區,台北市中山區松江路168號5樓,218,中和區,光華街108號,新北市光華街108號
C2110070144,09:41:00,521,內湖區,內湖區行善路70號碼頭,521,汐止區,康寧街169,新北市康寧街169號
C2110070138,9:41,22,信義區,信義區莊敬路392號2樓,57,大安區,臺北市大安區復興南路一段245號4樓之1,臺北市大安區復興南路一段245號4樓之1
C2110070139,9:42,32,松山區,台北市松山區復興北路143號3樓,71,大安區,仁愛路四段107號15F,台北市仁愛路四段107號15F
C2110070141,9:44,735,南港區,台北市南港區重陽路72號,57,大安區,大安區復興南二268號→三重區溪尾街364號5樓,台北市大安區復興南路二段268號→三重區溪尾街364號5樓
C2110070140,09:45:00,32,松山區,復興北路201號12F,60,松山區,台北市松山區八德路四段315號,台北市松山區八德路四段315號
C2110070142,09:46:00,66,大同區,長安西路244號,60,松山區,台北市松山區延壽街399號2樓,台北市松山區延壽街399號2樓
C2110070143,09:47:00,710,中山區,台北市中山區中山北路二段129號9樓,31,南港區,南港二97號,台北市南港路二段97號
C2110070148,09:48:00,710,中山區,中山北路二段96號11樓,270,重莊特區,新北市(新莊區)中正路82號12樓,新北市(新莊區)中正路82號12樓
C2110070147,09:49:00,505,松山區,台北市松山區南京東路四段130號9樓之1,513,板橋區,板橋區縣民大道二段7號24樓之北2A,新北市板橋區縣民大道二段7號24樓之北2A
C2110070178,09:49:00,76,中山區,台北市中山區建國北路二段137號6樓,710,大同區,北市大同區重慶北路二段180號10樓,台北市北市大同區重慶北路二段180號10樓
C2110070149,09:50:00,505,松山區,台北市松山區南京東路四段130號9樓之1,270,重莊特區,三重區重新路五段609巷10號4樓,三重區重新路五段609巷10號4樓
C2110070150,09:50:00,22,信義區,台北市信義區基隆路一段178號10樓,66,中山區,台北市中山區中山北路二段18號,台北市中山區中山北路二段18號
C2110070152,09:52:00,71,大安區,台北市大安區安和路一段27號5樓,23,內湖特區,堤頂大道二段501號4F,台北市堤頂大道二段501號4F
C2110070153,09:52:00,77,松山區,松山區敦化北路153-2號2樓(上樓取),77,信義區,台北市信義區松德路36號5樓,台北市信義區松德路36號5樓
C2110070151,09:52:00,71,大安區,台北市大安區安和路一段27號5樓,76,中山區,長春路408號12F,台北市長春路408號12F
C2110070156,09:54:00,731,內湖區,台北市內湖區新湖三路15號6樓,29,信義區,松仁32,台北市松仁32號
C2110070157,09:54:00,56,大安區,台北市大安區光復南路630號2樓,19,文山區,台北市中正區汀州路三段184號5F-3,台北市中正區汀州路三段184號5F-3
C2110070155,09:54:00,57,大安區,台北市大安區敦化南路一段200號7樓之3,727,內湖特區,瑞光66巷25號,台北市瑞光66巷25號
C2110070159,09:56:00,731,B,內湖區新湖一路89號3樓,57,A,仁愛路四段118號 (掛382100,仁愛路四段118號 (掛382100
C2110070158,9:56,56,大安區,台北市大安區光復南路630號2樓,57,大安區,台北市大安區復興南路二段82號6F-3,台北市大安區復興南路二段82號6F-3
C2110070160,09:57:00,57,大安區,台北市大安區忠孝東路三段197號5樓,13,中山區,南京東路三248號,台北市南京東路三段248號
C2110070168,09:57:00,727,內湖特區,台北市內湖區陽光街246號6樓,367,信義區,台北市信義區東興路65號2樓,台北市信義區東興路65號2樓
C2110070164,10:00:00,2,三重區,三重  永福街197巷13號1樓,367,松山區,台北市(松山區)市民大道七段13號2樓,台北市(松山區)市民大道七段13號2樓
C2110070163,10:00:00,2,蘆洲區,蘆洲區中正路243巷18弄7號1樓,727,內湖區,台北市內湖區內湖路一段91巷17號9樓之2,台北市內湖區內湖路一段91巷17號9樓之2
C2110070117,10:00:00,39,天母區,天玉街38巷23號,727,內湖特區,台北市內湖區瑞光路423號9樓實驗室,台北市內湖區瑞光路423號9樓實驗室
C2110070114,10:00:00,513,土城區,新北市土城區中央路四段51號7樓之1,708,中正區,台北市忠孝東路一段85號,台北市忠孝東路一段85號
C2110070115,10:00:00,71,大安區,忠孝東路四段231號4F(掛理賠,32,松山區,臺北市松山區民生東路三段156號3樓(12.-13.30午休),臺北市松山區民生東路三段156號3樓(12.-13.30午休)
C2110070116,10:00:00,513,土城區,新北市土城區中央路四段51號7樓之1,510,萬華區,台北市萬華區漢中街193號,台北市萬華區漢中街193號
C2110070118,10:00:00,513,土城區,新北市土城區中央路四段51號7樓之1,710,大同區,台北市大同區重慶北路3段139號1樓,台北市大同區重慶北路3段139號1樓
C2110070119,10:00,510,中正區,臺北市中正區延平南路189號B1樓之2,57,大安區,仁愛路四段75號2樓,台北市仁愛路四段75號2樓
C2110070061,10:00,270,重莊特區,新北市三重區重新路五段609巷14號9樓-17,71,大安區,忠孝東四148,台北市忠孝東路四段148號
C2110070008,10:00,90,信義區,台北市信義區菸廠路88號1樓大廳櫃台,90,大安區,台北市仁愛路四段169號25樓,台北市仁愛路四段169號25樓
C2110061219,10:00:00,60,松山區,臺北市松山區南京東路五段202號7樓之5,510,萬華區,台北市萬華區中華路一段74號7樓,台北市萬華區中華路一段74號7樓
C2110061216,10:00:00,66,大同區,鄭州路87號12樓,66,中山區,台北市中山區南京東路一段86號5樓,台北市中山區南京東路一段86號5樓
C2110061202,10:00:00,31,汐止區,新北市汐止區新台五路一段92號9樓,501,重莊特區,新北市三重區光復路二段69號24樓,新北市三重區光復路二段69號24樓
C2110061193,10:00:00,501,重莊特區,新北市三重區光復路二段69號25樓,506,汐止區,新北市汐止區新台五路一段92號9樓,新北市汐止區新台五路一段92號9樓
C2110061173,10:00:00,503,中山區,台北市中山區中山北路二段42號2樓,510,萬華區,台北市萬華區艋舺大道101號7樓,台北市萬華區艋舺大道101號7樓
C2110061152,10:00:00,22,信義區,台北市信義區基隆路一段178號10樓,710,大同區,民生西路423,台北市民生西路423號
C2110061148,10:00:00,609,中正區,台北市中正區博愛路53號3樓,708,中正區,八德路一55號8F,台北市八德路一段55號8F
C2110061072,10:00:00,60,松山區,台北市松山區光復南路1號6樓之2,505,松山區,八德三32,台北市八德三32號
C2110061068,10:00:00,60,松山區,台北市松山區民生東路五段192號2樓之3,515,重莊特區,新北市新莊區五權1路1號5樓之4,新北市新莊區五段權1路1號5樓之4
C2110061061,10:00:00,710,大同區,台北市大同區承德路三段90巷12號2樓,76,中山區,台北市中山區南京東路二段123號11樓,台北市中山區南京東路二段123號11樓
C2110061020,10:00:00,60,松山區,台北市松山區光復南路1號9樓,515,重莊特區,新北市新莊區五工五路28號3樓,新北市新莊區五段工五路28號3樓
C2110060228,10:00:00,708,中正區,八德路一段55號5樓,22,信義區,忠孝東路四段565號14樓,台北市忠孝東路四段565號14樓
C2110060151,10:00:00,727,內湖特區,台北市內湖區瑞光路66巷33號5樓,31,汐止區,新北市汐止區新台五路一段99號24樓之5  A棟,新北市汐止區新台五路一段99號24樓之5  A棟
C2110060062,10:00:00,367,信義區,台北市信義區松德路38號2樓,515,重莊特區,新北市新莊區五工五路28號3樓,新北市新莊區五段工五路28號3樓
C2110050644,10:00:00,218,永和區,永和區中和路601號3樓,515,重莊特區,新北市新莊區五工五路28號3樓,新北市新莊區五段工五路28號3樓
C2110050360,10:00:00,505,松山區,台北市松山區南京東路4段53巷7弄2號6樓之1,515,重莊特區,新北市新莊區五工五路28號3樓,新北市新莊區五段工五路28號3樓
C2110070166,10:01:00,32,松山區,台北市松山區南京東路三段311號12樓,503,中山區,台北市中山區松江路32-1號7樓,台北市中山區松江路32-1號7樓
C2110070165,10:01:00,510,萬華區,台北市萬華區環河南路三段371號對面組合屋3樓,31,汐止區,汐止區新台五路一段112號22樓(A棟),新北市汐止區新台五路一段112號22樓(A棟)
C2110070169,10:02,57,大安區,復興南路二段268號13F美術組辦公室,56,大安區,台北市大安區光復南路630號2樓,台北市大安區光復南路630號2樓
C2110070170,10:04:00,727,內湖特區,台北市內湖區陽光街246號6樓,722,中正區,台北市延平南路127號B1,台北市延平南路127號B1
C2110070171,10:05:00,76,中山區,台北市南京東路二段139號5樓,76,中山區,長春路145,台北市長春路145號
C2110070172,10:05:00,731,內湖區,內湖區成功四214巷1弄3號4樓,76,中山區,民生東路三段49號11樓,台北市民生東路三段49號11樓
C2110070174,10:06:00,56,大安區,台北市大安區敦化南路二段99號23樓,205,淡水區,淡水  民族路(當日),新北市淡水  民族路(當日)號
C2110070173,10:06:00,31,汐止區,新北市汐止區新台五路一段77號8樓-4,503,中山區,松江路223,台北市松江路223號
C2110070176,10:07,502,中和區,中和板南路671號5樓,56,大安區,台北市大安區敦化南路二段99號23樓,台北市大安區敦化南路二段99號23樓
C2110070175,10:07:00,32,松山區,台北市松山區敦化北路222巷18弄1號1樓,609,中正區,忠孝一4號,台北市忠孝路一段4號
C2110070177,10:08:00,22,信義區,台北市信義區基隆路一段180號8樓,19,文山區,汀州路三160,台北市汀州路三段160號
C2110070180,10:11:00,510,萬華區,台北市萬華區成都路10號,60,松山區,台北市松山區市民大道五段99號4樓,台北市松山區市民大道五段99號4樓
C2110070179,10:11:00,736,中山區,台北市中山區南京東路二段111號4F(一樓取),736,中正區,羅二100,台北市羅路二段100號
C2110070181,10:11:00,503,中山區,北市長春路6號6F之2,727,內湖特區,台北市內湖區堤頂大道二段285之1號1樓,台北市內湖區堤頂大道二段285之1號1樓
C2110070185,10:12:00,503,中山區,台北市中山區南京東路二段96號8F,513,板橋區,民生路一33號,新北市民生路一段33號
C2110070183,10:12,57,大安區,臺北市大安區信義路四段1號9樓之7,729,大安區,羅斯福路三段325號3樓,台北市羅斯福路三段325號3樓
C2110070186,10:12:00,22,信義區,台北市信義區基隆路一段400號6樓,21,板橋區,新北市板橋區中山路一段161號25樓,新北市板橋區中山路一段161號25樓
C2110070184,10:12:00,22,信義區,基隆路二段56號2樓之1,60,松山區,北市松山區南京東路五段108號10樓,台北市北市松山區南京東路五段108號10樓
C2110070182,10:12:00,76,中山區,台北市南京東路三段77號11樓,71,松山區,光復南102,台北市光復南102號
C2110070188,10:13:00,13,中山區,台北市中山區南京東路三段200號7樓(電梯出來中間那間),205,天母區,天母東43巷4弄21號,台北市天母東43巷4弄21號
C2110070187,10:13:00,66,中山區,台北市中山北路二段45巷21-1號2F,710,大同區,重慶北路二段184號2樓,台北市重慶北路二段184號2樓
C2110070191,10:15:00,727,內湖特區,台北市內湖區洲子街79號2F,23,大直區,台北市樂群二路267號3樓之9,台北市樂群二段路267號3樓之9
C2110070190,10:15:00,231,中正區,中山南路戲劇院(愛國東3號門),505,松山區,八德三25號,台北市八德三25號
C2110070189,10:15:00,710,中山區,台北市中山區中山北路二段112號5樓之2,29,信義區,松仁3號,台北市松仁3號
C2110070193,10:18:00,2,三重區,三重區溪尾230巷42之1號,721,大直區,北安路780號7樓,台北市北安路780號7樓
C2110070192,10:18,367,信義區,台北市信義區光復南路133號2樓(園區內),57,大安區,仁愛四25號,台北市仁愛路四段25號
C2110070194,10:19,729,文山區,羅四198號1樓,56,大安區,台北市大安區敦化南路二段104號7樓,台北市大安區敦化南路二段104號7樓